dataset,algo,mean_fit_time,std_fit_time,mean_score_time,std_score_time,param_NN__activation,param_NN__alpha,param_NN__hidden_layer_sizes,param_NN__learning_rate_init,params,split0_test_score,split1_test_score,split2_test_score,split3_test_score,split4_test_score,mean_test_score,std_test_score,rank_test_score,split0_train_score,split1_train_score,split2_train_score,split3_train_score,split4_train_score,mean_train_score,std_train_score
qsar,benchmark,0.4546506404876709,0.10918097545877252,0.002662801742553711,0.0025678360867154764,relu,0.00031622776601683794,"(41, 41, 41)",0.008,"{'NN__activation': 'relu', 'NN__alpha': 0.00031622776601683794, 'NN__hidden_layer_sizes': (41, 41, 41), 'NN__learning_rate_init': 0.008}",0.8491836734693875,0.8942857142857142,0.8136734693877552,0.8640816326530613,0.7698295813170629,0.8383961292169203,0.042833642843360165,1,0.8990476680075568,0.8939775604364533,0.9065853564497681,0.9025691115423664,0.9154081632653059,0.90351757194029,0.0072482949945869195

wine,benchmark,0.10352926254272461,0.03706635272622122,0.000687265396118164,0.0001095850844556872,relu,0.31622776601683794,"(11, 11, 11)",0.128,"{'NN__activation': 'relu', 'NN__alpha': 0.31622776601683794, 'NN__hidden_layer_sizes': (11, 11, 11), 'NN__learning_rate_init': 0.128}",0.7398809523809524,0.683974358974359,0.728525641025641,0.7243859082094376,0.7405462184873948,0.7234611961922323,0.020731791263146726,1,0.7339223929835854,0.75740495469733,0.718092471629391,0.7489398877557661,0.7316026093530186,0.7379924632838183,0.013784747359315211

