dataset,algo,mean_fit_time,std_fit_time,mean_score_time,std_score_time,param_NN__activation,param_NN__alpha,param_NN__hidden_layer_sizes,param_NN__learning_rate_init,params,split0_test_score,split1_test_score,split2_test_score,split3_test_score,split4_test_score,mean_test_score,std_test_score,rank_test_score,split0_train_score,split1_train_score,split2_train_score,split3_train_score,split4_train_score,mean_train_score,std_train_score
qsar,benchmark,0.4546506404876709,0.10918097545877252,0.002662801742553711,0.0025678360867154764,relu,0.00031622776601683794,"(41, 41, 41)",0.008,"{'NN__activation': 'relu', 'NN__alpha': 0.00031622776601683794, 'NN__hidden_layer_sizes': (41, 41, 41), 'NN__learning_rate_init': 0.008}",0.8491836734693875,0.8942857142857142,0.8136734693877552,0.8640816326530613,0.7698295813170629,0.8383961292169203,0.042833642843360165,1,0.8990476680075568,0.8939775604364533,0.9065853564497681,0.9025691115423664,0.9154081632653059,0.90351757194029,0.0072482949945869195
qsar,pca,1.619504690170288,0.22069432062174998,0.0008524417877197266,2.7450500957895063e-05,relu,0.00031622776601683794,"(41, 41, 41)",0.008,"{'NN__activation': 'relu', 'NN__alpha': 0.00031622776601683794, 'NN__hidden_layer_sizes': (41, 41, 41), 'NN__learning_rate_init': 0.008}",0.7934693877551018,0.8134693877551019,0.8338775510204083,0.8438775510204082,0.7953923837576269,0.816073146214315,0.020175262360799934,1,0.7814263131514347,0.8597655798172446,0.8698608130164891,0.8459239933683764,0.8601020408163266,0.8434157480339742,0.031918872661180285
qsar,ica,0.468061637878418,0.1441573580333185,0.0011734485626220704,0.000758350689924388,relu,0.00031622776601683794,"(41, 41, 41)",0.008,"{'NN__activation': 'relu', 'NN__alpha': 0.00031622776601683794, 'NN__hidden_layer_sizes': (41, 41, 41), 'NN__learning_rate_init': 0.008}",0.797755102040816,0.4999999999999999,0.49999999999999983,0.4999999999999999,0.800652219650747,0.6191910286870592,0.14647713868331685,1,0.8238250073898904,0.49999999999999983,0.4999999999999999,0.5,0.8203571428571427,0.6288364300494066,0.15779556765085395
qsar,rp,0.36614398956298827,0.033337202366879766,0.0010663509368896485,6.092079445649265e-05,relu,0.00031622776601683794,"(41, 41, 41)",0.008,"{'NN__activation': 'relu', 'NN__alpha': 0.00031622776601683794, 'NN__hidden_layer_sizes': (41, 41, 41), 'NN__learning_rate_init': 0.008}",0.873877551020408,0.813673469387755,0.8287755102040817,0.8691836734693879,0.8924889543446245,0.8554998611631394,0.029496050899031654,1,0.8935277410068242,0.8648356873883483,0.8786772738372167,0.8721484661157449,0.8763775510204082,0.8771133438737084,0.009463726128976823
qsar,rf,0.6093048095703125,0.07730753457759325,0.22709121704101562,0.048146764873134594,relu,0.00031622776601683794,"(41, 41, 41)",0.008,"{'NN__activation': 'relu', 'NN__alpha': 0.00031622776601683794, 'NN__hidden_layer_sizes': (41, 41, 41), 'NN__learning_rate_init': 0.008}",0.7832653061224487,0.643469387755102,0.7277551020408163,0.7932653061224489,0.6987166000420788,0.7293772069216589,0.055384514356399905,1,0.7697824159158965,0.6940713799174901,0.7824351938721742,0.7521944762174042,0.6878061224489795,0.737257917674389,0.03907041629178167
wine,benchmark,0.10352926254272461,0.03706635272622122,0.000687265396118164,0.0001095850844556872,relu,0.31622776601683794,"(11, 11, 11)",0.128,"{'NN__activation': 'relu', 'NN__alpha': 0.31622776601683794, 'NN__hidden_layer_sizes': (11, 11, 11), 'NN__learning_rate_init': 0.128}",0.7398809523809524,0.683974358974359,0.728525641025641,0.7243859082094376,0.7405462184873948,0.7234611961922323,0.020731791263146726,1,0.7339223929835854,0.75740495469733,0.718092471629391,0.7489398877557661,0.7316026093530186,0.7379924632838183,0.013784747359315211
wine,pca,0.12629399299621583,0.06686493447884598,0.0006438732147216797,8.118782425143626e-05,relu,0.31622776601683794,"(11, 11, 11)",0.128,"{'NN__activation': 'relu', 'NN__alpha': 0.31622776601683794, 'NN__hidden_layer_sizes': (11, 11, 11), 'NN__learning_rate_init': 0.128}",0.7059523809523811,0.6990384615384615,0.7432692307692308,0.7285875888817065,0.6785714285714286,0.7110926449358873,0.022658697852014617,1,0.7045180238171869,0.7041830970370148,0.7017398633394538,0.7126307304886781,0.6737082150563474,0.6993559859477362,0.013339096687385242
wine,ica,0.07859673500061035,0.05657246498071349,0.0006609439849853515,4.2145607689408706e-05,relu,0.31622776601683794,"(11, 11, 11)",0.128,"{'NN__activation': 'relu', 'NN__alpha': 0.31622776601683794, 'NN__hidden_layer_sizes': (11, 11, 11), 'NN__learning_rate_init': 0.128}",0.5000000000000001,0.5,0.5,0.49999999999999994,0.4999999999999999,0.5,7.449081332365558e-17,1,0.49999999999999994,0.49999999999999994,0.49999999999999994,0.5,0.5,0.5,4.2998752849492583e-17
wine,rp,0.08482151031494141,0.03778280415216668,0.0008431911468505859,0.00010986245340459245,relu,0.31622776601683794,"(11, 11, 11)",0.128,"{'NN__activation': 'relu', 'NN__alpha': 0.31622776601683794, 'NN__hidden_layer_sizes': (11, 11, 11), 'NN__learning_rate_init': 0.128}",0.7410714285714285,0.6625,0.7567307692307692,0.7213558500323205,0.6209195216548157,0.7006042641845355,0.05100716386479695,1,0.7260420019311231,0.7143950111877025,0.719722966396757,0.7082576110301737,0.6787021322399281,0.7094239445571369,0.016444642113062305
wine,rf,0.3454240322113037,0.023604704485615895,0.10360603332519532,0.0011266171747902204,relu,0.31622776601683794,"(11, 11, 11)",0.128,"{'NN__activation': 'relu', 'NN__alpha': 0.31622776601683794, 'NN__hidden_layer_sizes': (11, 11, 11), 'NN__learning_rate_init': 0.128}",0.7136904761904762,0.7560897435897436,0.7269230769230769,0.7248707175177763,0.6942065287653522,0.7231719882563598,0.02013894444395745,1,0.7340531461216606,0.7334216308961199,0.7438317128723798,0.7227562417706753,0.7150112895070164,0.7298148042335704,0.009964073671191315
