Data Set,Algorithm,Mean Fit Time,Mean Score Time,Mean Train Score,Mean Test Score,Mean Total Time,Total Time vs Benchmark,Test Score vs Benchmark,Improvement
QSAR,Benchmark,0.4547,0.002663,0.904,0.838,0.457,100%,100%,0%
QSAR,PCA,1.6195,0.000852,0.843,0.816,1.620,354%,97%,-73%
QSAR,ICA,0.4681,0.001173,0.629,0.619,0.469,103%,74%,-28%
QSAR,RP,0.3661,0.001066,0.877,0.855,0.367,80%,102%,27%
QSAR,RF,0.6093,0.227091,0.737,0.729,0.836,183%,87%,-52%
Wine,Benchmark,0.1035,0.000687,0.738,0.723,0.104,100%,100%,0%
Wine,PCA,0.1263,0.000644,0.699,0.711,0.127,122%,98%,-19%
Wine,ICA,0.0786,0.000661,0.500,0.500,0.079,76%,69%,-9%
Wine,RP,0.0848,0.000843,0.709,0.701,0.086,82%,97%,18%
Wine,RF,0.3454,0.103606,0.730,0.723,0.449,431%,100%,-77%
