,0,1,2,3,4
51,0.5,0.6666666666666666,0.6666666666666666,0.6666666666666666,0.6666666666666666
53,0.5000000000000001,0.5238095238095238,0.5238095238095238,0.5238095238095238,0.5238095238095238
56,0.6777777777777778,0.5,0.5,0.5,0.5
58,0.49999999999999994,0.5000000000000001,0.5000000000000001,0.5000000000000001,0.5000000000000001
61,0.49999999999999994,0.5,0.5,0.5,0.5
63,0.5000000000000001,0.5576923076923077,0.5576923076923077,0.5576923076923077,0.5576923076923077
66,0.4999999999999999,0.5344827586206896,0.5344827586206896,0.5344827586206896,0.5344827586206896
69,0.49999999999999967,0.7495755517826824,0.7495755517826824,0.7495755517826824,0.7495755517826824
71,0.5,0.7540064102564102,0.7540064102564102,0.7540064102564102,0.7540064102564102
74,0.5000000000000001,0.7291666666666667,0.7291666666666667,0.7291666666666667,0.7291666666666667
76,0.5767045454545456,0.5775193798449612,0.5775193798449612,0.5775193798449612,0.5775193798449612
79,0.6403162055335968,0.7196382428940563,0.7196382428940563,0.7196382428940563,0.7196382428940563
81,0.6821026282853567,0.5833333333333333,0.5833333333333333,0.5833333333333333,0.5833333333333333
84,0.7569444444444443,0.7242562929061783,0.7242562929061783,0.7242562929061783,0.7242562929061783
86,0.5789473684210524,0.6532608695652171,0.6532608695652171,0.6532608695652171,0.6532608695652171
89,0.5412820512820512,0.7423780487804877,0.7423780487804877,0.7423780487804877,0.7423780487804877
92,0.575561932089909,0.6342857142857142,0.6342857142857142,0.6342857142857142,0.6342857142857142
94,0.5476190476190474,0.7979936160510714,0.7979936160510714,0.7979936160510714,0.7979936160510714
97,0.7269230769230768,0.6673060528559249,0.6673060528559249,0.6673060528559249,0.6673060528559249
99,0.5543478260869567,0.7411812961443807,0.7411812961443807,0.7411812961443807,0.7411812961443807
102,0.6053240740740741,0.49999999999999994,0.49999999999999994,0.49999999999999994,0.49999999999999994
150,0.6933333333333334,0.6066666666666667,0.6066666666666667,0.6066666666666667,0.6066666666666667
199,0.7134615384615385,0.5000000000000001,0.5000000000000001,0.5000000000000001,0.5000000000000001
247,0.7350427350427351,0.5424107142857142,0.5531475409836066,0.5531475409836066,0.5531475409836066
296,0.6972317547471976,0.6481125600549074,0.7189497716894977,0.7189497716894977,0.7189497716894977
344,0.7440792160065333,0.7750782632366952,0.7510822510822511,0.7510822510822511,0.7510822510822511
393,0.7217893255498802,0.7606588137183363,0.6743697478991597,0.6743697478991597,0.6743697478991597
441,0.7025510204081633,0.6520408163265307,0.6212361821481605,0.6212361821481605,0.6212361821481605
489,0.7585248394727948,0.7632815140250084,0.726693848786872,0.726693848786872,0.726693848786872
538,0.7657052713870897,0.7230846549028368,0.7217165512620058,0.7219027777777777,0.7219027777777777
586,0.7559790074319327,0.7298850574712644,0.7512357202399821,0.7484054816323186,0.7484054816323186
635,0.7171212907863732,0.7271206917209154,0.6612184991413395,0.7317290018380883,0.7317290018380883
683,0.7379979659030184,0.7507800244781164,0.7340116529623693,0.7450828157349896,0.7450828157349896
732,0.7165066026410565,0.7539015606242495,0.7581632653061224,0.7347874189979455,0.7347874189979455
780,0.7813918806959405,0.7792709196354598,0.724391052195526,0.7651131374535631,0.7349961261100185
829,0.7586110817818135,0.7823971421532396,0.7434419690517252,0.6819061697110478,0.7681119938132734
877,0.7907835429769393,0.7410691823899372,0.7575995807127884,0.7620335429769393,0.7039757271395689
926,0.7148351262040357,0.7484075089643535,0.7104830204598187,0.7270664885514073,0.7475618904726181
974,0.7173550430129376,0.7575865339023233,0.7382899817110343,0.7256739822529296,0.7445391876126843
1023,0.773401133762463,0.7658407970135038,0.760892108214401,0.777234111194752,0.7344371878601614
