,0,1,2,3,4
10.0,0.5,0.5,0.5,0.5000000000000001,0.5
3.1622776601683795,0.7508871921712011,0.7491300907931728,0.7185776504386032,0.7400200482386738,0.7163405508188676
1.0,0.7581594795139261,0.7605483692562948,0.7533317714654418,0.740509732229272,0.7252959577991781
0.31622776601683794,0.773401133762463,0.7658407970135038,0.760892108214401,0.777234111194752,0.7521621787401092
0.1,0.7506855575868372,0.7526500545373542,0.7688153872152151,0.7711485874057118,0.7281251916825124
0.03162277660168379,0.7622651437174504,0.7665782034934632,0.7726483646475043,0.7455698001321186,0.7385757222597069
0.01,0.7467162367689307,0.7625128662068119,0.7527863979229718,0.7570994576989845,0.7382460283383425
0.0031622776601683794,0.744342709661561,0.7600836495475705,0.7407670563655078,0.7637706819473676,0.741121266024658
0.001,0.7834559783694099,0.7595939655569723,0.7526346919023551,0.7325806922403332,0.7390740967920014
0.00031622776601683794,0.7483120304794678,0.7585435453889051,0.7675076429109121,0.7344645353571044,0.7399865055511256
0.0001,0.7444790530471785,0.7764967047147927,0.7582708586176702,0.736525048776366,0.7390740967920014
3.1622776601683795e-05,0.7754462845467255,0.7555689551871937,0.7612051219025087,0.7331011015009294,0.7156504937741521
1e-05,0.7489534204906826,0.7611340697156376,0.7794712949165041,0.7412317760742322,0.736198859105686
3.162277660168379e-06,0.7489534204906826,0.7668912171815709,0.760508042339422,0.7382168589556481,0.7697432987793658
1e-06,0.7488170771050651,0.7668912171815709,0.7613664295699998,0.7382168589556481,0.7679108139606208
3.162277660168379e-07,0.7488170771050651,0.7676689505784031,0.7592655892338654,0.7388985758837354,0.7679108139606208
1e-07,0.7479030003226154,0.7676689505784031,0.7592655892338654,0.7388985758837354,0.7188017542783537
3.162277660168379e-08,0.7579175180126896,0.7676689505784031,0.7601796660163153,0.7388985758837354,0.7188017542783537
1e-08,0.7579175180126896,0.7676689505784031,0.7567557187408784,0.7388985758837354,0.7188017542783537
3.1622776601683795e-09,0.7579175180126896,0.7676689505784031,0.7567557187408785,0.7388985758837354,0.7188017542783537
1e-09,0.7579175180126896,0.7676689505784031,0.7567557187408785,0.7388985758837354,0.7188017542783537
