,train,test
0.1,0.003358799999995199,0.0003451999999981581
0.2,0.009582399999996483,0.0005736000000013064
0.3,0.029460399999999255,0.0010489999999975907
0.4,0.07011359999999627,0.001732600000005391
0.5,0.391939000000005,0.00686420000000112
0.6,0.45662940000000274,0.006291599999994446
0.7,0.5136252000000013,0.005554599999999255
0.8,0.5712551999999989,0.004755600000001437
0.9,0.6305270000000007,0.004000999999993838
