,0,1,2,3,4
33,1.0,1.0,1.0,1.0,1.0
35,1.0,1.0,1.0,1.0,1.0
37,1.0,1.0,1.0,1.0,1.0
38,1.0,1.0,1.0,1.0,1.0
40,1.0,1.0,1.0,1.0,1.0
42,1.0,1.0,1.0,1.0,1.0
43,1.0,1.0,1.0,1.0,1.0
45,1.0,1.0,1.0,1.0,1.0
47,1.0,1.0,1.0,1.0,1.0
48,1.0,1.0,1.0,1.0,1.0
50,1.0,1.0,1.0,1.0,1.0
52,1.0,1.0,1.0,1.0,1.0
54,1.0,1.0,1.0,1.0,1.0
55,1.0,1.0,1.0,1.0,1.0
57,1.0,1.0,1.0,1.0,1.0
59,1.0,1.0,1.0,1.0,1.0
60,1.0,1.0,1.0,1.0,1.0
62,1.0,1.0,1.0,1.0,1.0
64,1.0,1.0,1.0,1.0,1.0
65,1.0,1.0,1.0,1.0,1.0
67,1.0,1.0,1.0,1.0,1.0
99,1.0,1.0,1.0,1.0,1.0
131,1.0,1.0,1.0,1.0,1.0
163,0.9867256637168141,1.0,1.0,1.0,1.0
195,0.9915254237288136,1.0,1.0,1.0,1.0
227,0.9935897435897437,0.9935897435897437,1.0,1.0,1.0
259,1.0,1.0,0.9912790697674417,0.9912790697674417,0.9912790697674417
291,1.0,1.0,1.0,1.0,1.0
323,1.0,0.9865470852017938,1.0,1.0,1.0
355,1.0,1.0,0.9917012448132779,1.0,1.0
387,1.0,1.0,1.0,1.0,1.0
419,1.0,1.0,1.0,1.0,1.0
451,1.0,1.0,1.0,1.0,1.0
483,1.0,1.0,1.0,1.0,1.0
515,1.0,1.0,1.0,1.0,1.0
547,1.0,1.0,1.0,1.0,1.0
579,1.0,1.0,1.0,1.0,1.0
611,1.0,1.0,1.0,1.0,1.0
643,1.0,1.0,1.0,1.0,1.0
675,1.0,1.0,1.0,1.0,1.0
