,train,test
0.1,0.0018976000000066051,0.00028179999997064443
0.2,0.005971799999997529,0.00037800000002334854
0.3,0.012436400000024151,0.0004533999999921434
0.4,0.009819599999991624,0.00034619999998994897
0.5,0.29266939999999975,0.0033979999999928625
0.6,0.32528739999997924,0.0029496000000108326
0.7,0.40441339999999854,0.002848599999970247
0.8,0.45652580000000853,0.002525200000013683
0.9,0.5045196000000033,0.0022001999999702094
