,0,1,2,3,4
33,1.0,1.0,1.0,1.0,1.0
35,1.0,1.0,1.0,1.0,1.0
37,1.0,1.0,1.0,1.0,1.0
38,1.0,1.0,1.0,1.0,1.0
40,1.0,1.0,1.0,1.0,1.0
42,1.0,1.0,1.0,1.0,1.0
43,1.0,1.0,1.0,1.0,1.0
45,1.0,1.0,1.0,1.0,1.0
47,1.0,1.0,1.0,1.0,1.0
48,1.0,1.0,1.0,1.0,1.0
50,1.0,1.0,1.0,1.0,1.0
52,1.0,1.0,1.0,1.0,1.0
54,1.0,1.0,1.0,1.0,1.0
55,1.0,1.0,1.0,1.0,1.0
57,1.0,1.0,1.0,1.0,1.0
59,1.0,1.0,1.0,1.0,1.0
60,1.0,1.0,1.0,1.0,1.0
62,1.0,1.0,1.0,1.0,1.0
64,1.0,1.0,1.0,1.0,1.0
65,1.0,1.0,1.0,1.0,1.0
67,1.0,1.0,1.0,1.0,1.0
99,1.0,1.0,1.0,1.0,1.0
131,0.9887640449438204,1.0,1.0,1.0,1.0
163,0.9867256637168141,1.0,1.0,1.0,1.0
195,0.9926470588235294,1.0,1.0,1.0,1.0
227,0.9935897435897437,0.9935897435897437,1.0,1.0,1.0
259,1.0,1.0,0.9883720930232558,0.9883720930232558,0.9883720930232558
291,0.9756097560975608,1.0,0.9948979591836736,0.9948979591836736,0.9948979591836736
323,0.9887892376681615,0.9865470852017938,1.0,1.0,1.0
355,0.987291280148423,0.9897959183673468,0.995850622406639,0.9979166666666666,0.9979166666666666
387,0.996,0.9654656488549618,0.9904580152671756,0.9923664122137403,0.9923664122137403
419,0.9804270462633451,0.9677136520707617,0.9911032028469751,0.9946996466431096,0.9946996466431096
451,0.9618120595843368,0.9600057978770848,0.9834983498349835,0.9838709677419354,0.9838709677419354
483,0.9578700153374233,0.9659125766871166,0.9969325153374232,0.9815556783641891,0.9815556783641891
515,0.9665357677138584,0.9694257445940433,0.991279069767442,0.9840116279069768,0.9742857142857143
547,0.9711838707740347,0.9698402690205967,0.9917582417582416,0.9643157389059026,0.9945652173913044
579,0.9727979274611399,0.9689119170984456,0.9948186528497409,0.9533678756476683,0.9947916666666666
611,0.9778325123152709,0.9693560014417878,0.9938663943289678,0.9519704433497537,0.9865196078431373
643,0.9627009368036175,0.9676121243590576,0.9929577464788731,0.9812206572769953,0.9906594240610634
675,0.9586129753914989,0.9855027669845758,0.9856352290121279,0.9843400447427292,0.9888982850849591
