mean_fit_time,std_fit_time,mean_score_time,std_score_time,param_Boost__n_estimators,params,split0_test_score,split1_test_score,split2_test_score,split3_test_score,split4_test_score,mean_test_score,std_test_score,rank_test_score,split0_train_score,split1_train_score,split2_train_score,split3_train_score,split4_train_score,mean_train_score,std_train_score
0.02104525566101074,0.004548083052080743,0.0011632442474365234,0.00027204289121490397,1,{'Boost__n_estimators': 1},0.8320802005012531,0.7349624060150376,0.7217261904761904,0.731281328320802,0.7818871503082031,0.7603619815518043,0.041467617044917415,13,0.9597315436241612,0.9855027669845756,0.9856352290121279,0.9843400447427292,0.9743695175438596,0.9779158203814907,0.010016644867536135
0.038102340698242185,0.011013188412404926,0.001070261001586914,0.00025539083920483164,2,{'Boost__n_estimators': 2},0.8320802005012531,0.7349624060150376,0.7217261904761904,0.731281328320802,0.8321479374110955,0.7703664984158872,0.050527276054863776,12,0.9597315436241612,0.9855027669845756,0.9856352290121279,0.9843400447427292,0.9714520676691729,0.9773323304065533,0.010287540080769875
0.0872929573059082,0.012102537696228589,0.0011526107788085937,7.32865670972712e-05,5,{'Boost__n_estimators': 5},0.8545582706766917,0.8102286967418546,0.7789786967418546,0.7671522556390977,0.8449502133712663,0.8111336069816207,0.03463730096380023,11,1.0,1.0,1.0,1.0,1.0,1.0,0.0
0.14276728630065919,0.006792755332249529,0.0016409397125244141,0.0005405062370141706,10,{'Boost__n_estimators': 10},0.8679511278195489,0.8014567669172932,0.8013001253132832,0.7976190476190476,0.8627311522048366,0.8261683744152876,0.0320154568007658,9,1.0,1.0,1.0,1.0,1.0,1.0,0.0
0.2961599349975586,0.02085491535460999,0.0019782543182373046,0.00020749236772322796,20,{'Boost__n_estimators': 20},0.8813439849624061,0.8236215538847117,0.8014567669172932,0.7802318295739349,0.858226647700332,0.828941499627768,0.03677747531419133,6,1.0,1.0,1.0,1.0,1.0,1.0,0.0
0.41543827056884763,0.010812743104171116,0.0024405956268310548,0.0003409624958311634,30,{'Boost__n_estimators': 30},0.8593358395989974,0.8193139097744362,0.775140977443609,0.7891604010025062,0.871503082029398,0.8228332445289603,0.0377263739516694,10,1.0,1.0,1.0,1.0,1.0,1.0,0.0
0.4697904109954834,0.03547496442937943,0.002739286422729492,0.0001786784994305572,40,{'Boost__n_estimators': 40},0.8591791979949874,0.8323934837092732,0.7974624060150375,0.8023966165413534,0.8802750118539594,0.8342869194449234,0.03195208379148737,1,1.0,1.0,1.0,1.0,1.0,1.0,0.0
0.5219293117523194,0.0073253304310258085,0.00310516357421875,1.7653281835468834e-05,50,{'Boost__n_estimators': 50},0.8593358395989975,0.8411654135338346,0.7885338345864661,0.7979323308270677,0.8584637268847797,0.8290514216243826,0.030130729375317983,5,1.0,1.0,1.0,1.0,1.0,1.0,0.0
0.6470848560333252,0.03215032097907979,0.0036871910095214845,3.149450772278515e-05,60,{'Boost__n_estimators': 60},0.8681077694235589,0.8236215538847117,0.7885338345864661,0.7891604010025064,0.867235656709341,0.827284563721331,0.03529600462773737,8,1.0,1.0,1.0,1.0,1.0,1.0,0.0
0.7258819103240967,0.009143598285390693,0.004202032089233398,5.142785466239285e-05,70,{'Boost__n_estimators': 70},0.8724154135338347,0.806077694235589,0.7974624060150375,0.780388471177945,0.8847795163584639,0.8281576921882329,0.042113955500851674,7,1.0,1.0,1.0,1.0,1.0,1.0,0.0
0.8437697410583496,0.0446873538131784,0.004736185073852539,0.00014763944178315254,80,{'Boost__n_estimators': 80},0.8811873433583961,0.8193139097744362,0.7885338345864661,0.780388471177945,0.8892840208629683,0.831673337628688,0.04562283315153011,4,1.0,1.0,1.0,1.0,1.0,1.0,0.0
0.9120156288146972,0.059514528082320196,0.0051138877868652345,0.0002981959185924587,90,{'Boost__n_estimators': 90},0.8854949874686716,0.8148496240601504,0.7929981203007518,0.780388471177945,0.8892840208629683,0.8325358872194898,0.0460736679775373,2,1.0,1.0,1.0,1.0,1.0,1.0,0.0
1.0047064304351807,0.11341627255671695,0.0055485725402832035,0.0005042140822106258,100,{'Boost__n_estimators': 100},0.8899592731829575,0.8103853383458647,0.7929981203007518,0.780388471177945,0.8892840208629683,0.8325358872194898,0.04750859048079972,2,1.0,1.0,1.0,1.0,1.0,1.0,0.0
