mean_fit_time,std_fit_time,mean_score_time,std_score_time,param_SVM__max_iter,params,split0_test_score,split1_test_score,split2_test_score,split3_test_score,split4_test_score,mean_test_score,std_test_score,rank_test_score,split0_train_score,split1_train_score,split2_train_score,split3_train_score,split4_train_score,mean_train_score,std_train_score
0.0039120674133300785,0.0007466057548666015,0.001080322265625,0.00029024503995820483,1,{'SVM__max_iter': 1},0.8807174185463658,0.8177474937343359,0.7965225563909774,0.7971491228070176,0.8928402086296824,0.8369291931394388,0.04151684003201719,2,0.8447250677028141,0.8395737666313438,0.8449016837395504,0.8526433533498176,0.8351934523809523,0.8434074647608956,0.005855555424075397
0.003577995300292969,0.00043335637780733254,0.0008670330047607422,9.847081017185968e-05,2,{'SVM__max_iter': 2},0.8583959899749375,0.8354479949874687,0.8271459899749373,0.8148496240601505,0.8703176861071601,0.8411969946641936,0.020326892564111833,1,0.8622247733427529,0.8636524196397035,0.861326975156011,0.8679500765336159,0.8593554197994987,0.8629019328943164,0.0028831849273134326
0.014979696273803711,0.009665475296975949,0.0028717517852783203,0.003973372896870159,4,{'SVM__max_iter': 4},0.8628602756892231,0.8488408521303258,0.8225250626566415,0.8017700501253133,0.8482693219535327,0.836839586196502,0.021856702299926884,3,0.8656687860591077,0.86700812433769,0.8636524196397034,0.8646826798539973,0.8570841165413534,0.8636192252863705,0.0034503628775210218
0.004266119003295899,0.001167486598533162,0.00719294548034668,0.009283243320518235,8,{'SVM__max_iter': 8},0.8628602756892231,0.8488408521303258,0.8225250626566415,0.8017700501253133,0.8482693219535327,0.836839586196502,0.021856702299926884,3,0.8656687860591077,0.86700812433769,0.8636524196397034,0.8646826798539973,0.8570841165413534,0.8636192252863705,0.0034503628775210218
0.011746454238891601,0.01733599798627635,0.0006329059600830078,0.00012780219723418335,16,{'SVM__max_iter': 16},0.8628602756892231,0.8488408521303258,0.8225250626566415,0.8017700501253133,0.8482693219535327,0.836839586196502,0.021856702299926884,3,0.8656687860591077,0.86700812433769,0.8636524196397034,0.8646826798539973,0.8570841165413534,0.8636192252863705,0.0034503628775210218
0.010590934753417968,0.008506239825043515,0.00059967041015625,0.00011740340907268644,32,{'SVM__max_iter': 32},0.8628602756892231,0.8488408521303258,0.8225250626566415,0.8017700501253133,0.8482693219535327,0.836839586196502,0.021856702299926884,3,0.8656687860591077,0.86700812433769,0.8636524196397034,0.8646826798539973,0.8570841165413534,0.8636192252863705,0.0034503628775210218
0.01786346435546875,0.024317456059307997,0.0029314041137695314,0.004672466815008315,64,{'SVM__max_iter': 64},0.8628602756892231,0.8488408521303258,0.8225250626566415,0.8017700501253133,0.8482693219535327,0.836839586196502,0.021856702299926884,3,0.8656687860591077,0.86700812433769,0.8636524196397034,0.8646826798539973,0.8570841165413534,0.8636192252863705,0.0034503628775210218
0.0034958362579345704,0.0006226534170801886,0.0005033016204833984,4.6059359569885335e-05,128,{'SVM__max_iter': 128},0.8628602756892231,0.8488408521303258,0.8225250626566415,0.8017700501253133,0.8482693219535327,0.836839586196502,0.021856702299926884,3,0.8656687860591077,0.86700812433769,0.8636524196397034,0.8646826798539973,0.8570841165413534,0.8636192252863705,0.0034503628775210218
0.0032415866851806642,0.0005943234029221181,0.0004954814910888671,3.723466235864272e-05,256,{'SVM__max_iter': 256},0.8628602756892231,0.8488408521303258,0.8225250626566415,0.8017700501253133,0.8482693219535327,0.836839586196502,0.021856702299926884,3,0.8656687860591077,0.86700812433769,0.8636524196397034,0.8646826798539973,0.8570841165413534,0.8636192252863705,0.0034503628775210218
0.010947370529174804,0.010956491546755777,0.000601816177368164,6.216581461692154e-05,512,{'SVM__max_iter': 512},0.8628602756892231,0.8488408521303258,0.8225250626566415,0.8017700501253133,0.8482693219535327,0.836839586196502,0.021856702299926884,3,0.8656687860591077,0.86700812433769,0.8636524196397034,0.8646826798539973,0.8570841165413534,0.8636192252863705,0.0034503628775210218
0.0049705982208251955,0.004050599128593802,0.0015655517578125,0.002101975183625975,1024,{'SVM__max_iter': 1024},0.8628602756892231,0.8488408521303258,0.8225250626566415,0.8017700501253133,0.8482693219535327,0.836839586196502,0.021856702299926884,3,0.8656687860591077,0.86700812433769,0.8636524196397034,0.8646826798539973,0.8570841165413534,0.8636192252863705,0.0034503628775210218
0.0030462265014648436,0.00017104404762338258,0.0004764556884765625,1.4292870685720425e-05,2048,{'SVM__max_iter': 2048},0.8628602756892231,0.8488408521303258,0.8225250626566415,0.8017700501253133,0.8482693219535327,0.836839586196502,0.021856702299926884,3,0.8656687860591077,0.86700812433769,0.8636524196397034,0.8646826798539973,0.8570841165413534,0.8636192252863705,0.0034503628775210218
