mean_fit_time,std_fit_time,mean_score_time,std_score_time,param_Boost__n_estimators,params,split0_test_score,split1_test_score,split2_test_score,split3_test_score,split4_test_score,mean_test_score,std_test_score,rank_test_score,split0_train_score,split1_train_score,split2_train_score,split3_train_score,split4_train_score,mean_train_score,std_train_score
0.017004871368408205,0.0031999644437570663,0.0011240005493164062,0.0001786136522811959,1,{'Boost__n_estimators': 1},0.700545911795375,0.7348340796172482,0.7229957676501257,0.7363675397166166,0.7825630252100839,0.7354244377764574,0.026789517975851457,13,0.939782311462062,0.9206577512174888,0.8973564745825203,0.9431505691856267,0.9312473164448262,0.9264388845785048,0.016490339805657107
0.025211906433105467,0.007242245752808768,0.0011637687683105468,0.00040566780480749616,2,{'Boost__n_estimators': 2},0.700545911795375,0.7478684904618781,0.7453229466969269,0.7363675397166166,0.7825630252100839,0.7425022853231393,0.026214510994446008,12,0.939782311462062,0.9342824881323644,0.9679669856973868,0.9431505691856267,0.9312473164448262,0.9432859341844532,0.013018743084811086
0.059535646438598634,0.013994865268418085,0.0010528087615966797,7.954844377319668e-05,5,{'Boost__n_estimators': 5},0.7633564374654971,0.7732012513034409,0.7818192970618905,0.8121204686254064,0.8245798319327731,0.7909892146080165,0.02339512489927494,11,1.0,1.0,1.0,0.9968487394957983,0.9916503097589401,0.9976998098509476,0.003261698829690011
0.10951075553894044,0.01591857423885596,0.001369142532348633,0.00015207327549974662,10,{'Boost__n_estimators': 10},0.7765135251180763,0.7925535177574679,0.8168741949334478,0.8393240507881985,0.8114495798319328,0.8073397628913397,0.021454196056116485,10,1.0,1.0,1.0,1.0,1.0,1.0,0.0
0.16437845230102538,0.0053792361668337715,0.0017687320709228516,0.00018434506034940463,20,{'Boost__n_estimators': 20},0.794761700300558,0.8020609703735507,0.8090228792246825,0.8628779979144943,0.842436974789916,0.8222163071240263,0.026066703266166967,5,1.0,1.0,1.0,1.0,1.0,1.0,0.0
0.2172175884246826,0.0016068485315343499,0.0021973609924316405,2.566190330507882e-05,30,{'Boost__n_estimators': 30},0.7905600196282891,0.8062626510458196,0.7975219284794209,0.8623259522787217,0.805672268907563,0.8124738778249297,0.025597763034095004,9,1.0,1.0,1.0,1.0,1.0,1.0,0.0
0.29080872535705565,0.0012284415837849505,0.002777767181396484,8.450114143382479e-06,40,{'Boost__n_estimators': 40},0.8079187879531373,0.8146660123903574,0.813776605532724,0.8827823100042936,0.8261554621848739,0.8290621064288928,0.027514239912330152,2,1.0,1.0,1.0,1.0,1.0,1.0,0.0
0.3680111408233643,0.008241148880861875,0.003391933441162109,3.2918138161305976e-05,50,{'Boost__n_estimators': 50},0.7984113353370543,0.8135619211188123,0.8210758756057167,0.8785806293320249,0.8345588235294118,0.829233556619831,0.02730733005587209,1,1.0,1.0,1.0,1.0,1.0,1.0,0.0
0.4385580539703369,0.002139776946367677,0.003989076614379883,3.648368318118672e-05,60,{'Boost__n_estimators': 60},0.7953137459363305,0.8172115561553086,0.8022756547874623,0.8743789486597559,0.8261554621848739,0.8230646588546445,0.02786488747986813,4,1.0,1.0,1.0,1.0,1.0,1.0,0.0
0.510280704498291,0.0033316985671867604,0.0045049190521240234,5.8778182910475196e-05,70,{'Boost__n_estimators': 70},0.7843648408268415,0.8026130160093232,0.8101269704962277,0.8665276329509906,0.8219537815126051,0.8171134668633779,0.027566690401938397,7,1.0,1.0,1.0,1.0,1.0,1.0,0.0
0.5952832221984863,0.014797935850376835,0.005186939239501953,4.698857007626463e-05,80,{'Boost__n_estimators': 80},0.7874624302275653,0.81521805802613,0.8179782862049929,0.871281359259032,0.8340336134453781,0.8251878386710773,0.027495776132378125,3,1.0,1.0,1.0,1.0,1.0,1.0,0.0
0.6614126205444336,0.002502158180024633,0.005741786956787109,6.295034330862938e-05,90,{'Boost__n_estimators': 90},0.7880144758633378,0.800067472244372,0.8143286511684966,0.8524811384407778,0.8303571428571428,0.8170393716060353,0.022683195814437146,8,1.0,1.0,1.0,1.0,1.0,1.0,0.0
0.7366784095764161,0.007200145023538773,0.00630335807800293,5.596642418227511e-05,100,{'Boost__n_estimators': 100},0.7885665214991104,0.8073667423173647,0.8258296019137582,0.8488315034042815,0.8303571428571428,0.8201823533440243,0.020597306083108793,6,1.0,1.0,1.0,1.0,1.0,1.0,0.0
