mean_fit_time,std_fit_time,mean_score_time,std_score_time,param_MLP__max_iter,params,split0_test_score,split1_test_score,split2_test_score,split3_test_score,split4_test_score,mean_test_score,std_test_score,rank_test_score,split0_train_score,split1_train_score,split2_train_score,split3_train_score,split4_train_score,mean_train_score,std_train_score
0.0989309310913086,0.034437215275575604,0.021590471267700195,0.007599341310585519,1,{'MLP__max_iter': 1},0.5724713242961418,0.6119425872538795,0.6061767772802551,0.6371526712874931,0.6202731092436975,0.6095949515616044,0.021307923976505678,22,0.6277038237598512,0.609983024288326,0.5997918362957614,0.5975949794908824,0.6046969882843648,0.6079541304238372,0.010758353271589888
0.1467123031616211,0.030958645856237452,0.02069845199584961,0.008932267855297292,2,{'MLP__max_iter': 2},0.6082009446114212,0.6894743298779364,0.6890142918481261,0.688247561798442,0.6838235294117646,0.6717426933563698,0.031849717667760555,21,0.6978707387891171,0.6723322784323967,0.6586211266956508,0.6645146175472016,0.6718855425381831,0.6730448608005097,0.013408841604390806
0.32163066864013673,0.02503004310781106,0.009563541412353516,0.004872109177870059,4,{'MLP__max_iter': 4},0.6649389682880451,0.7336073115377536,0.7294976384714469,0.7250812733852665,0.7347689075630253,0.7175653795928808,0.026545463148047854,20,0.7241370039789226,0.7127993793495461,0.7118853025670963,0.7210260703915936,0.7102987180273569,0.7160292948629031,0.00549813150139818
0.46909618377685547,0.014257387509646384,0.009091472625732422,0.0039049214711848503,8,{'MLP__max_iter': 8},0.6966815923449671,0.7277494939581671,0.7458749923326995,0.7431147641538367,0.7473739495798319,0.7321470624683446,0.019069649329265203,19,0.7462111901433334,0.7397723257493125,0.7401410289892923,0.7401410289892922,0.7378626633135006,0.7408256474369462,0.00282241869939548
0.7733283042907715,0.10517887252203979,0.015154647827148437,0.0008635837864023262,16,{'MLP__max_iter': 16},0.7229957676501257,0.741458627246519,0.7674354413298166,0.745322946696927,0.7436974789915966,0.7441824312519503,0.014137270235547226,18,0.75072588450371,0.7542458482478915,0.7527863979229718,0.7433729433272395,0.754339692081212,0.7510941532166049,0.004076348862368636
1.4586244583129884,0.22733052822706343,0.009107542037963868,0.005689584724027549,32,{'MLP__max_iter': 32},0.7330552659019812,0.7398024903392013,0.7542783536772373,0.7694289394589953,0.7473739495798319,0.7487889052255476,0.012546372253495006,17,0.7708759006344769,0.7675882967446577,0.7615584625074894,0.7520086645261395,0.7705406980310372,0.7645144044887602,0.007090342525997635
2.36144437789917,0.8978362938040734,0.012522745132446288,0.0057297541265137536,64,{'MLP__max_iter': 64},0.7268600871005336,0.7356008096669324,0.7719744832239465,0.7840274796049806,0.7505252100840336,0.7538001725004732,0.021510330338876584,1,0.7861828460817598,0.7798803250733567,0.7650784262516707,0.7670832501190604,0.7846945347482059,0.7765838764548108,0.008847902062008974
4.924232482910156,1.4830753754398642,0.012533617019653321,0.003469668438102596,128,{'MLP__max_iter': 128},0.722106360792492,0.7378089922100226,0.7761761638962155,0.7829233883334356,0.7379201680672268,0.7513975438597164,0.023805986305608047,2,0.7864152059361221,0.7846677062049682,0.7858141428417801,0.7908895733796262,0.7987947003618966,0.7893162657448786,0.00518856701491118
6.005446052551269,2.5091719883491765,0.014691925048828125,0.00035492788910121333,256,{'MLP__max_iter': 256},0.722106360792492,0.7378089922100226,0.776728209531988,0.7756241182604429,0.7321428571428572,0.7488951953517862,0.02285275550346792,3,0.7864152059361221,0.7846677062049682,0.7921166638501836,0.7981061711704791,0.8140296264491198,0.7950670747221746,0.010587928018082341
5.930397272109985,1.2560931076636053,0.015154218673706055,0.0010850008545857804,512,{'MLP__max_iter': 512},0.722106360792492,0.7378089922100226,0.776728209531988,0.7756241182604429,0.7321428571428572,0.7488951953517862,0.02285275550346792,3,0.7864152059361221,0.7846677062049682,0.7921166638501836,0.7981061711704791,0.8140296264491198,0.7950670747221746,0.010587928018082341
5.273503065109253,2.354567941656782,0.014057731628417969,0.0018376495180703464,1024,{'MLP__max_iter': 1024},0.722106360792492,0.7378089922100226,0.776728209531988,0.7756241182604429,0.7321428571428572,0.7488951953517862,0.02285275550346792,3,0.7864152059361221,0.7846677062049682,0.7921166638501836,0.7981061711704791,0.8140296264491198,0.7950670747221746,0.010587928018082341
6.326188421249389,2.0707049105139483,0.013629674911499023,0.0016089719454817485,2048,{'MLP__max_iter': 2048},0.722106360792492,0.7378089922100226,0.776728209531988,0.7756241182604429,0.7321428571428572,0.7488951953517862,0.02285275550346792,3,0.7864152059361221,0.7846677062049682,0.7921166638501836,0.7981061711704791,0.8140296264491198,0.7950670747221746,0.010587928018082341
5.981937456130981,1.3697871555049246,0.013991165161132812,0.0017375772621365498,2100,{'MLP__max_iter': 2100},0.722106360792492,0.7378089922100226,0.776728209531988,0.7756241182604429,0.7321428571428572,0.7488951953517862,0.02285275550346792,3,0.7864152059361221,0.7846677062049682,0.7921166638501836,0.7981061711704791,0.8140296264491198,0.7950670747221746,0.010587928018082341
6.904154825210571,2.0982032612211565,0.014880609512329102,0.0022045801463400987,2200,{'MLP__max_iter': 2200},0.722106360792492,0.7378089922100226,0.776728209531988,0.7756241182604429,0.7321428571428572,0.7488951953517862,0.02285275550346792,3,0.7864152059361221,0.7846677062049682,0.7921166638501836,0.7981061711704791,0.8140296264491198,0.7950670747221746,0.010587928018082341
5.928390884399414,1.7286068122556275,0.014320564270019532,0.004144564675355439,2300,{'MLP__max_iter': 2300},0.722106360792492,0.7378089922100226,0.776728209531988,0.7756241182604429,0.7321428571428572,0.7488951953517862,0.02285275550346792,3,0.7864152059361221,0.7846677062049682,0.7921166638501836,0.7981061711704791,0.8140296264491198,0.7950670747221746,0.010587928018082341
6.406319665908813,1.8695601933359962,0.01210336685180664,0.004678961489974029,2400,{'MLP__max_iter': 2400},0.722106360792492,0.7378089922100226,0.776728209531988,0.7756241182604429,0.7321428571428572,0.7488951953517862,0.02285275550346792,3,0.7864152059361221,0.7846677062049682,0.7921166638501836,0.7981061711704791,0.8140296264491198,0.7950670747221746,0.010587928018082341
6.463697242736816,2.081925850917561,0.014804792404174805,0.0009582395172185382,2500,{'MLP__max_iter': 2500},0.722106360792492,0.7378089922100226,0.776728209531988,0.7756241182604429,0.7321428571428572,0.7488951953517862,0.02285275550346792,3,0.7864152059361221,0.7846677062049682,0.7921166638501836,0.7981061711704791,0.8140296264491198,0.7950670747221746,0.010587928018082341
6.825692796707154,2.0589613131277344,0.01569809913635254,0.0014186697432906116,2600,{'MLP__max_iter': 2600},0.722106360792492,0.7378089922100226,0.776728209531988,0.7756241182604429,0.7321428571428572,0.7488951953517862,0.02285275550346792,3,0.7864152059361221,0.7846677062049682,0.7921166638501836,0.7981061711704791,0.8140296264491198,0.7950670747221746,0.010587928018082341
6.80490517616272,2.0266885682265867,0.015891027450561524,0.002905191096460816,2700,{'MLP__max_iter': 2700},0.722106360792492,0.7378089922100226,0.776728209531988,0.7756241182604429,0.7321428571428572,0.7488951953517862,0.02285275550346792,3,0.7864152059361221,0.7846677062049682,0.7921166638501836,0.7981061711704791,0.8140296264491198,0.7950670747221746,0.010587928018082341
6.4680639743804935,1.4992144801163019,0.013216114044189453,0.0020133320662172635,2800,{'MLP__max_iter': 2800},0.722106360792492,0.7378089922100226,0.776728209531988,0.7756241182604429,0.7321428571428572,0.7488951953517862,0.02285275550346792,3,0.7864152059361221,0.7846677062049682,0.7921166638501836,0.7981061711704791,0.8140296264491198,0.7950670747221746,0.010587928018082341
5.867727470397949,1.045200154875397,0.008345651626586913,0.005523522600135511,2900,{'MLP__max_iter': 2900},0.722106360792492,0.7378089922100226,0.776728209531988,0.7756241182604429,0.7321428571428572,0.7488951953517862,0.02285275550346792,3,0.7864152059361221,0.7846677062049682,0.7921166638501836,0.7981061711704791,0.8140296264491198,0.7950670747221746,0.010587928018082341
4.138458728790283,0.46078831910759116,0.00525355339050293,0.006042729700582661,3000,{'MLP__max_iter': 3000},0.722106360792492,0.7378089922100226,0.776728209531988,0.7756241182604429,0.7321428571428572,0.7488951953517862,0.02285275550346792,3,0.7864152059361221,0.7846677062049682,0.7921166638501836,0.7981061711704791,0.8140296264491198,0.7950670747221746,0.010587928018082341
