mean_fit_time,std_fit_time,mean_score_time,std_score_time,param_Boost__n_estimators,params,split0_test_score,split1_test_score,split2_test_score,split3_test_score,split4_test_score,mean_test_score,std_test_score,rank_test_score,split0_train_score,split1_train_score,split2_train_score,split3_train_score,split4_train_score,mean_train_score,std_train_score
0.020313215255737305,0.004738275201898278,0.0011397361755371093,0.0002091415386125223,1,{'Boost__n_estimators': 1},0.8320802005012531,0.7349624060150376,0.7217261904761904,0.731281328320802,0.7818871503082031,0.7603619815518043,0.041467617044917415,13,0.9597315436241612,0.9855027669845756,0.9856352290121279,0.9843400447427292,0.9743695175438596,0.9779158203814907,0.010016644867536135
0.038778257369995114,0.008312728365433087,0.001215219497680664,0.000288069202567929,2,{'Boost__n_estimators': 2},0.8320802005012531,0.7349624060150376,0.7217261904761904,0.731281328320802,0.8321479374110955,0.7703664984158872,0.050527276054863776,12,0.9597315436241612,0.9855027669845756,0.9856352290121279,0.9843400447427292,0.9714520676691729,0.9773323304065533,0.010287540080769875
0.07051715850830079,0.011478054944015941,0.001186227798461914,0.0002058381027569929,5,{'Boost__n_estimators': 5},0.8545582706766917,0.8102286967418546,0.7789786967418546,0.7671522556390977,0.8449502133712663,0.8111336069816207,0.03463730096380023,11,1.0,1.0,1.0,1.0,1.0,1.0,0.0
0.1543429374694824,0.010101863037729683,0.0013783931732177734,0.00013022261282981932,10,{'Boost__n_estimators': 10},0.8679511278195489,0.8014567669172932,0.8013001253132832,0.7976190476190476,0.8627311522048366,0.8261683744152876,0.0320154568007658,9,1.0,1.0,1.0,1.0,1.0,1.0,0.0
0.2974080085754395,0.017903894497795975,0.0020087242126464845,0.00021444716250991906,20,{'Boost__n_estimators': 20},0.8813439849624061,0.8236215538847117,0.8014567669172932,0.7802318295739349,0.858226647700332,0.828941499627768,0.03677747531419133,6,1.0,1.0,1.0,1.0,1.0,1.0,0.0
0.41443791389465334,0.016961809532016973,0.002346324920654297,0.00026723553114828757,30,{'Boost__n_estimators': 30},0.8593358395989974,0.8193139097744362,0.775140977443609,0.7891604010025062,0.871503082029398,0.8228332445289603,0.0377263739516694,10,1.0,1.0,1.0,1.0,1.0,1.0,0.0
0.4741857051849365,0.046945123595418255,0.0026406288146972657,6.909872251390005e-05,40,{'Boost__n_estimators': 40},0.8591791979949874,0.8323934837092732,0.7974624060150375,0.8023966165413534,0.8802750118539594,0.8342869194449234,0.03195208379148737,1,1.0,1.0,1.0,1.0,1.0,1.0,0.0
0.5150138378143311,0.006887880930657072,0.0030894756317138674,2.1826123851204853e-05,50,{'Boost__n_estimators': 50},0.8593358395989975,0.8411654135338346,0.7885338345864661,0.7979323308270677,0.8584637268847797,0.8290514216243826,0.030130729375317983,5,1.0,1.0,1.0,1.0,1.0,1.0,0.0
0.6390856742858887,0.02994386714119764,0.0036567211151123046,7.216967802199649e-05,60,{'Boost__n_estimators': 60},0.8681077694235589,0.8236215538847117,0.7885338345864661,0.7891604010025064,0.867235656709341,0.827284563721331,0.03529600462773737,8,1.0,1.0,1.0,1.0,1.0,1.0,0.0
0.7212234973907471,0.009186781827031254,0.004143428802490234,2.1061633326245597e-05,70,{'Boost__n_estimators': 70},0.8724154135338347,0.806077694235589,0.7974624060150375,0.780388471177945,0.8847795163584639,0.8281576921882329,0.042113955500851674,7,1.0,1.0,1.0,1.0,1.0,1.0,0.0
0.8356349468231201,0.033237384345302864,0.005039644241333008,0.0008578263951171335,80,{'Boost__n_estimators': 80},0.8811873433583961,0.8193139097744362,0.7885338345864661,0.780388471177945,0.8892840208629683,0.831673337628688,0.04562283315153011,4,1.0,1.0,1.0,1.0,1.0,1.0,0.0
0.8958029747009277,0.06488681941167139,0.0050503253936767575,0.0003307308155043979,90,{'Boost__n_estimators': 90},0.8854949874686716,0.8148496240601504,0.7929981203007518,0.780388471177945,0.8892840208629683,0.8325358872194898,0.0460736679775373,2,1.0,1.0,1.0,1.0,1.0,1.0,0.0
0.9993147850036621,0.11635097718716288,0.005496978759765625,0.000490203835847984,100,{'Boost__n_estimators': 100},0.8899592731829575,0.8103853383458647,0.7929981203007518,0.780388471177945,0.8892840208629683,0.8325358872194898,0.04750859048079972,2,1.0,1.0,1.0,1.0,1.0,1.0,0.0
