mean_fit_time,std_fit_time,mean_score_time,std_score_time,param_SVM__max_iter,params,split0_test_score,split1_test_score,split2_test_score,split3_test_score,split4_test_score,mean_test_score,std_test_score,rank_test_score,split0_train_score,split1_train_score,split2_train_score,split3_train_score,split4_train_score,mean_train_score,std_train_score
0.0031149864196777345,0.00042601154235374873,0.0012772083282470703,0.0003471340124253366,1,{'SVM__max_iter': 1},0.4999999999999999,0.4999999999999999,0.5,0.5,0.5,0.5,7.024411383979773e-17,7,0.5,0.5,0.5,0.5,0.5,0.5,0.0
0.0030714035034179687,0.0008942103796544629,0.0010108470916748047,0.00023361879254339408,2,{'SVM__max_iter': 2},0.4999999999999999,0.4999999999999999,0.5,0.5,0.5,0.5,7.024411383979773e-17,7,0.5,0.5,0.5,0.5,0.5,0.5,0.0
0.0017423629760742188,0.0006440991297946549,0.0006277561187744141,0.00014510923315747164,4,{'SVM__max_iter': 4},0.4999999999999999,0.4999999999999999,0.5,0.5,0.5,0.5,7.024411383979773e-17,7,0.5,0.5,0.5,0.5,0.5,0.5,0.0
0.002846240997314453,0.0006723829181560636,0.0012668609619140626,0.00025130252893138194,8,{'SVM__max_iter': 8},0.4999999999999999,0.4999999999999999,0.5,0.5,0.5,0.5,7.024411383979773e-17,7,0.5,0.5,0.5,0.5,0.5,0.5,0.0
0.0035199642181396483,0.0005879304781414385,0.001049375534057617,0.0002196454293246969,16,{'SVM__max_iter': 16},0.4999999999999999,0.4999999999999999,0.5,0.5,0.5,0.5,7.024411383979773e-17,7,0.5,0.5,0.5,0.5,0.5,0.5,0.0
0.005125617980957032,0.0006381667870710573,0.0015771865844726562,0.00017319861187863424,32,{'SVM__max_iter': 32},0.4999999999999999,0.4999999999999999,0.5,0.5,0.5,0.5,7.024411383979773e-17,7,0.504434040526631,0.5,0.5,0.5,0.5,0.5008868081053262,0.0017736162106523955
0.004294681549072266,0.0006461293123771895,0.0012079238891601562,0.00019637203234847112,64,{'SVM__max_iter': 64},0.5036496350364963,0.4999999999999999,0.5,0.5,0.5,0.5007304977086341,0.0014602818663503611,6,0.5027422303473492,0.5,0.5,0.5,0.5027372262773723,0.5010958913249443,0.0013421882126601647
0.0073067665100097655,0.0008305209192624418,0.002052021026611328,0.0004886277048146235,128,{'SVM__max_iter': 128},0.5359443047291909,0.5072992700729926,0.5306385327853769,0.5,0.5036764705882354,0.5155209691496603,0.014796956366886846,5,0.5348309342018344,0.5027422303473492,0.5464815725193184,0.5036563071297988,0.5027372262773723,0.5180896540951345,0.01879326183307169
0.01832871437072754,0.007900548005976586,0.0031867027282714844,0.000550256568637018,256,{'SVM__max_iter': 256},0.6550634852481138,0.6499723977182111,0.6185671348831503,0.6333803594430473,0.601890756302521,0.6317981919030716,0.01970592491879198,4,0.7204038836741279,0.6720384680380379,0.7164595271380948,0.6503733120304795,0.6364779488437711,0.6791506279449022,0.034039563271922584
0.020826292037963868,0.0011394197097885903,0.004319906234741211,0.000520252110151633,512,{'SVM__max_iter': 512},0.7540636692633256,0.7447709010611543,0.7904373428203398,0.7772802551677606,0.7652310924369748,0.7663575321809609,0.016239205033147703,3,0.8598236369502096,0.854980566266726,0.8666715315010831,0.8522383359193769,0.8648101576396983,0.8597048456554189,0.005525949997630463
0.023488950729370118,0.0003237851903027511,0.0043372631072998045,2.5274798438459963e-05,1024,{'SVM__max_iter': 1024},0.7593694412071396,0.7708703919524011,0.7898852971845673,0.7809298902042568,0.7778361344537815,0.7757766220063298,0.010232414961778876,1,0.857217749988478,0.8603286835758069,0.8695501052340497,0.8497687923432627,0.8640357602895172,0.8601802182862229,0.006631078887742495
0.023142147064208984,0.00019905375125510102,0.00432734489440918,3.22432900178643e-05,2048,{'SVM__max_iter': 2048},0.7593694412071396,0.7708703919524011,0.7898852971845673,0.7809298902042568,0.7778361344537815,0.7757766220063298,0.010232414961778876,1,0.857217749988478,0.8603286835758069,0.8695501052340497,0.8497687923432627,0.8640357602895172,0.8601802182862229,0.006631078887742495
