param_SVM__max_iter,train acc,test acc
1,0.7364071944567301,0.7417677302876878
2,0.7458007764509312,0.7325640723733271
4,0.7458007764509312,0.7325640723733271
8,0.7458007764509312,0.7325640723733271
16,0.7458007764509312,0.7325640723733271
32,0.7458007764509312,0.7325640723733271
64,0.7458007764509312,0.7325640723733271
128,0.7458007764509312,0.7325640723733271
256,0.7458007764509312,0.7325640723733271
512,0.7458007764509312,0.7325640723733271
1024,0.7458007764509312,0.7325640723733271
2048,0.7458007764509312,0.7325640723733271
