mean_fit_time,std_fit_time,mean_score_time,std_score_time,param_SVM__max_iter,params,split0_test_score,split1_test_score,split2_test_score,split3_test_score,split4_test_score,mean_test_score,std_test_score,rank_test_score,split0_train_score,split1_train_score,split2_train_score,split3_train_score,split4_train_score,mean_train_score,std_train_score
0.004550790786743164,0.00044294108172581234,0.0015262603759765626,0.0002042343480606197,1,{'SVM__max_iter': 1},0.8057644110275689,0.800203634085213,0.7608082706766917,0.8103853383458645,0.7174016121384543,0.778985533635228,0.03538707251963043,11,0.8000117744024492,0.848213234428353,0.8290651124455435,0.8292417284822796,0.7600250626566415,0.8133113824830532,0.03077793578633259
0.0060367584228515625,0.005607668527985905,0.0027063369750976564,0.0035678761904839023,2,{'SVM__max_iter': 2},0.8276159147869674,0.7863408521303258,0.8406954887218044,0.8017700501253132,0.7823613086770983,0.8077868122416326,0.022882457206209433,10,0.8052513834922879,0.8401183327446133,0.8460202519722125,0.8548363358059579,0.7969141604010023,0.8286280928832147,0.023124138307756146
0.0028410911560058593,5.3489908275864875e-05,0.001239919662475586,0.000981615398779665,4,{'SVM__max_iter': 4},0.7974624060150375,0.6741854636591478,0.8180607769423557,0.7575971177944861,0.8404457088667617,0.7774757740226061,0.05843391357728116,12,0.7686771458848465,0.7240521606028496,0.8269604380077713,0.8237813493465207,0.8325892857142857,0.7952120759112548,0.04240059846581435
0.009704065322875977,0.005991663427235464,0.0009904861450195312,0.0005185626040883599,8,{'SVM__max_iter': 8},0.8633302005012531,0.8268327067669172,0.7917449874686716,0.8417919799498745,0.8397344713134189,0.8326785189605562,0.02360125468679869,8,0.8551012598610621,0.8572500883080186,0.8274461321087957,0.8387201224537854,0.8407738095238094,0.8438582824510942,0.01105457683863033
0.0026549339294433595,0.00017875725165647266,0.002214193344116211,0.003330650390538666,16,{'SVM__max_iter': 16},0.8673245614035088,0.8356046365914787,0.8405388471177945,0.8197838345864661,0.8613086770981508,0.844892684148889,0.017369759153071096,2,0.8654921700223714,0.8638290356764395,0.8639614977039918,0.8694660308489344,0.8526198308270676,0.8630737130157609,0.005609866101122235
0.020377635955810547,0.020288084860258987,0.0005987167358398437,2.743426139030647e-05,32,{'SVM__max_iter': 32},0.8851817042606518,0.8269893483709272,0.8180607769423557,0.7886904761904763,0.8309625414888574,0.8299758017112719,0.03133635220635368,9,0.8702313670081245,0.879312374896974,0.8692894148121983,0.8680383845519839,0.8583959899749373,0.8690535062488436,0.006652826766813104
0.011404895782470703,0.0037085082659627953,0.0006220817565917968,3.328050093923001e-05,64,{'SVM__max_iter': 64},0.8851817042606518,0.8489974937343359,0.8312969924812029,0.8019266917293233,0.8527738264580371,0.8440249880778223,0.027325361791434907,3,0.8679500765336161,0.8737636877428472,0.8637848816672555,0.8680825385611679,0.8582785087719298,0.8663719386553634,0.005142977676611198
0.011428451538085938,0.0010073288809788433,0.0006023406982421875,2.3040957008019106e-05,128,{'SVM__max_iter': 128},0.880717418546366,0.8400689223057645,0.8402255639097742,0.8108552631578948,0.8527738264580371,0.8449189031082894,0.0225910141413385,1,0.8712174732132346,0.8715265512775228,0.867096432356058,0.8647268338631815,0.8615875626566417,0.8672309706733277,0.003807389420412883
0.02235522270202637,0.010222274064974257,0.000710439682006836,0.00014645814039824023,256,{'SVM__max_iter': 256},0.880717418546366,0.8400689223057645,0.831453634085213,0.8108552631578948,0.8527738264580371,0.8431624384870207,0.023219898899028254,4,0.8712174732132346,0.8704079830448606,0.867096432356058,0.8669639703285059,0.8582785087719298,0.8667928735429179,0.004588287882644676
0.01911468505859375,0.012038778917987053,0.0005938053131103515,2.6855119925097525e-05,512,{'SVM__max_iter': 512},0.880717418546366,0.8400689223057645,0.8225250626566415,0.8108552631578948,0.8527738264580371,0.8413746084260865,0.024367947019185206,7,0.8712174732132346,0.8704079830448606,0.8648592958907336,0.8669639703285059,0.8582785087719298,0.866345446249853,0.004645590320749644
0.01673274040222168,0.005904360450299906,0.0005817890167236328,4.197884338252662e-05,1024,{'SVM__max_iter': 1024},0.8851817042606518,0.8312969924812029,0.831453634085213,0.8108552631578948,0.8527738264580371,0.8422998888962191,0.0252156145141296,6,0.8712174732132346,0.8704079830448606,0.867096432356058,0.8669639703285059,0.8560855263157894,0.8663542770516898,0.0054120785516912975
0.012881040573120117,0.0020937179208312053,0.0006159782409667969,3.154039013474962e-05,2048,{'SVM__max_iter': 2048},0.880717418546366,0.8400689223057645,0.831453634085213,0.8108552631578948,0.8527738264580371,0.8431624384870207,0.023219898899028254,4,0.8712174732132346,0.8704079830448606,0.867096432356058,0.8669639703285059,0.8582785087719298,0.8667928735429179,0.004588287882644676
