param_Boost__n_estimators,train acc,test acc
1,0.9183534817435747,0.756819341418423
2,0.9183534817435747,0.756819341418423
5,0.9991596638655462,0.7584481337572118
10,1.0,0.7743632010675459
20,1.0,0.7759919934063346
30,1.0,0.7764237214961341
40,1.0,0.7647278150633856
50,1.0,0.7864908355900938
60,1.0,0.7701440401899604
70,1.0,0.7676517916715726
80,1.0,0.7588798618470113
90,1.0,0.7676517916715728
100,1.0,0.7768554495859336
