param_Boost__n_estimators,train acc,test acc
1,0.9394878071744657,0.8192655935613682
2,0.9394878071744657,0.8192655935613682
5,1.0,0.8549798792756539
10,1.0,0.8303822937625756
20,1.0,0.8161971830985916
30,1.0,0.8303822937625756
40,1.0,0.8127263581488935
50,1.0,0.8090543259557346
60,1.0,0.8197686116700201
70,1.0,0.8160965794768612
80,1.0,0.8267102615694165
90,1.0,0.8232394366197184
100,1.0,0.8269114688128774
