param_MLP__max_iter,train acc,test acc
1,0.6196606712860582,0.6132108795478629
2,0.6829758219077104,0.6673731308136113
4,0.728890854587449,0.6922956159974882
8,0.7454788933117107,0.7115663880058088
16,0.7582682195685291,0.7308371600141294
32,0.7707295198781267,0.7476156835040623
64,0.7827878519828985,0.7576827975980219
128,0.7967111405965894,0.761470230385808
256,0.8301869870755321,0.7706738883001687
512,0.8381185807656397,0.7668864555123827
1024,0.8381185807656397,0.7668864555123827
2048,0.8381185807656397,0.7668864555123827
2100,0.8381185807656397,0.7668864555123827
2200,0.8381185807656397,0.7668864555123827
2300,0.8381185807656397,0.7668864555123827
2400,0.8381185807656397,0.7668864555123827
2500,0.8381185807656397,0.7668864555123827
2600,0.8381185807656397,0.7668864555123827
2700,0.8381185807656397,0.7668864555123827
2800,0.8381185807656397,0.7668864555123827
2900,0.8381185807656397,0.7668864555123827
3000,0.8381185807656397,0.7668864555123827
