,0,1,2,3,4
33,0.5,0.5178571428571429,0.5178571428571429,0.5178571428571429,0.5178571428571429
35,0.8024475524475526,0.5615942028985507,0.5615942028985507,0.5615942028985507,0.5615942028985507
37,0.739130434782609,0.7483974358974357,0.7483974358974357,0.7483974358974357,0.7483974358974357
38,0.7142857142857146,0.7292307692307697,0.7292307692307697,0.7292307692307697,0.7292307692307697
40,0.7333333333333334,0.5384615384615385,0.5384615384615385,0.5384615384615385,0.5384615384615385
42,0.7148148148148148,0.6444444444444444,0.6444444444444444,0.6444444444444444,0.6444444444444444
43,0.7214285714285712,0.6619047619047619,0.6619047619047619,0.6619047619047619,0.6619047619047619
45,0.7333333333333333,0.771551724137931,0.771551724137931,0.771551724137931,0.771551724137931
47,0.7106854838709677,0.7318548387096774,0.7318548387096774,0.7318548387096774,0.7318548387096774
48,0.71875,0.7561669829222011,0.7561669829222011,0.7561669829222011,0.7561669829222011
50,0.7281639928698752,0.7183600713012478,0.7183600713012478,0.7183600713012478,0.7183600713012478
52,0.7991596638655463,0.7084033613445379,0.7084033613445379,0.7084033613445379,0.7084033613445379
54,0.8084260731319556,0.6542130365659777,0.6542130365659777,0.6542130365659777,0.6542130365659777
55,0.7670278637770898,0.668918918918919,0.668918918918919,0.668918918918919,0.668918918918919
57,0.7742647058823529,0.6973684210526315,0.6973684210526315,0.6973684210526315,0.6973684210526315
59,0.7927170868347339,0.7625313283208021,0.7625313283208021,0.7625313283208021,0.7625313283208021
60,0.8015873015873017,0.7783882783882784,0.7783882783882784,0.7783882783882784,0.7783882783882784
62,0.8083333333333333,0.821590909090909,0.821590909090909,0.821590909090909,0.821590909090909
64,0.8250276854928018,0.7683982683982684,0.7683982683982684,0.7683982683982684,0.7683982683982684
65,0.8284632034632036,0.7743271221532092,0.7743271221532092,0.7743271221532092,0.7743271221532092
67,0.8566252587991717,0.7672924901185769,0.7672924901185769,0.7672924901185769,0.7672924901185769
99,0.7889458955223879,0.7420289855072463,0.7420289855072463,0.7420289855072463,0.7420289855072463
131,0.8238362760834671,0.7747093023255813,0.7747093023255813,0.7747093023255813,0.7747093023255813
163,0.8116814159292036,0.7984943977591038,0.7984943977591038,0.7984943977591038,0.7984943977591038
195,0.8024052841475572,0.8154910269192422,0.8024809160305344,0.8024809160305344,0.8024809160305344
227,0.8429938605994945,0.8424521487901769,0.8435347111817699,0.8435347111817699,0.8435347111817699
259,0.8438547486033521,0.8483938547486034,0.8727612937717187,0.8727612937717187,0.8727612937717187
291,0.8366137266023823,0.8248156551332955,0.8711800782489162,0.8711800782489162,0.8711800782489162
323,0.8525560538116594,0.8379147982062782,0.8722525095188648,0.8722525095188648,0.8722525095188648
355,0.8374768089053805,0.8419294990723563,0.8662189706631723,0.8750905797101449,0.8750905797101449
387,0.8261221374045802,0.8380152671755725,0.8634809160305343,0.8657557251908395,0.8657557251908395
419,0.8314508226313888,0.8487286605807416,0.8655809995358191,0.8687383080440658,0.8687383080440658
451,0.8415172598340914,0.8372803496565873,0.8564467933279813,0.8722946694120339,0.8722946694120339
483,0.8435678680981594,0.8441430214723926,0.855952837423313,0.8684028737220226,0.8684028737220226
515,0.83671630626955,0.8452842377260983,0.8629470964232286,0.860108119135047,0.870995670995671
547,0.8465892031465801,0.856324686242719,0.857563201825497,0.8615940070858102,0.8677435025504009
579,0.844559585492228,0.8497409326424871,0.8484455958549223,0.8652849740932642,0.8676921834625324
611,0.846876126396732,0.8580800192238375,0.8591193079418478,0.8676198486122791,0.8500917608422679
643,0.8500627420436596,0.8620594534951644,0.8652776876311632,0.8628004586659742,0.8452652007979878
675,0.8417225950782998,0.8609148710702933,0.8639614977039916,0.8516130931355234,0.8471031308999372
