,0,1,2,3,4
1,1.0,1.0,1.0,1.0,1.0
2,0.9035087719298247,0.8903508771929826,0.9057017543859651,0.888157894736842,0.8969298245614036
3,0.9048186742022843,0.9116183916166256,0.9116183916166256,0.9049069822206522,0.901766134085213
4,0.8590751206876253,0.8603703049570236,0.8724537854703875,0.864623807841752,0.872376253132832
5,0.866331096196868,0.8676262804662664,0.8819468974449548,0.8762215942540915,0.8796405075187971
6,0.8490080065936656,0.8567938302131167,0.8534822795243142,0.8555869539620864,0.8557135025062657
7,0.865212527964206,0.865344989991758,0.8620775933121395,0.8662869421876839,0.8609414160401003
8,0.8477569763334513,0.8501265748263278,0.8545566937477923,0.8499058047804072,0.8489779135338346
9,0.8562198280937243,0.8476686683150831,0.8653891440009421,0.8561756740845402,0.855361058897243
10,0.8509802190038857,0.8412221829742141,0.8644030377958319,0.8475362062875308,0.8577106829573935
11,0.8495084186977512,0.8432827034028024,0.877384316495938,0.8583245025314965,0.8542058270676692
12,0.8530848934416579,0.8422965971976923,0.8599287648651832,0.8507152949487812,0.8587875939849625
13,0.847271282232427,0.8498616507712234,0.8629753914988816,0.8526875073590016,0.8619008458646615
14,0.841899211115036,0.8455198398681267,0.8554103379253505,0.8473154362416108,0.8554002192982456
15,0.842841163310962,0.841001412928294,0.8650359119274698,0.854924643824326,0.8485471491228068
16,0.8397062286588955,0.8443571176262806,0.8640498057223598,0.8483898504650889,0.8530897556390977
17,0.8450341457671025,0.8508919109855176,0.8583245025314966,0.857073472271282,0.8485471491228072
18,0.8396620746497118,0.8444012716354646,0.8551454138702461,0.8549687978335099,0.8486646303258146
19,0.8460202519722123,0.8487430825385612,0.8528199693865537,0.854836335805958,0.8463150062656641
20,0.8461968680089487,0.8499058047804076,0.8584569645590486,0.8560432120569881,0.8541666666666667
21,0.84270870128341,0.8586335805957849,0.8593989167549748,0.862533851407041,0.8440045426065163
22,0.8417225950782998,0.8609148710702933,0.8639614977039916,0.8516130931355234,0.8474702380952381
23,0.849375956670199,0.8608265630519253,0.8582361945131286,0.8602525609325328,0.8495848997493735
24,0.842841163310962,0.8576033203814908,0.8594430707641588,0.8593106087366067,0.8518562030075187
25,0.8504062168844932,0.8608707170611093,0.8560432120569882,0.8624896973978569,0.8572015977443609
26,0.8527316613681857,0.8609148710702933,0.8628429294713296,0.8581920405039443,0.8595512218045113
27,0.849287648651831,0.8597521488284471,0.8626663134345933,0.8646826798539973,0.8527764724310777
28,0.8505386789120453,0.8564847521488286,0.8528199693865537,0.862578005416225,0.8550869360902256
29,0.849243494642647,0.8552778758977981,0.8515247851171555,0.8613711291651948,0.8505834899749375
30,0.8394854586129755,0.8552778758977981,0.8461527139997645,0.8538060755916638,0.8595512218045113
31,0.8480807724008008,0.8508036029671494,0.8515689391263395,0.8537177675732955,0.8594729010025062
32,0.8449458377487343,0.8519663252089956,0.8494642646885672,0.8526875073590016,0.8562421679197993
33,0.8513923230896033,0.8497291887436714,0.848213234428353,0.8547480277875896,0.8560855263157894
34,0.854836335805958,0.8497733427528554,0.8461527139997647,0.8537619215824798,0.8518562030075187
35,0.849199340633463,0.8441805015895443,0.849375956670199,0.8536294595549275,0.8561638471177945
36,0.8405598728364536,0.8464617920640527,0.8538943836100319,0.8525991993406333,0.8463541666666667
37,0.8393088425762394,0.8463734840456849,0.8470946661956907,0.8491551866242789,0.8473527568922304
38,0.8382785823619452,0.8465059460732367,0.8505828329212294,0.8415901330507477,0.8419290413533834
39,0.8359089838690686,0.8397503826680798,0.8415901330507478,0.8402949487813492,0.8495065789473684
40,0.8360414458966207,0.8431502413752504,0.847182974214059,0.8393088425762393,0.8419290413533834
41,0.8336718474037444,0.8431060873660664,0.8403832567997176,0.8359089838690685,0.8494674185463658
42,0.83044860473331,0.8420758271517722,0.8482573884375368,0.844857529730366,0.848468828320802
43,0.8270929000353233,0.836438831979277,0.8459760979630283,0.8425320852466737,0.8428493107769424
44,0.8282556222771695,0.8387642764629696,0.8449899917579183,0.8459760979630282,0.8451597744360902
45,0.8226186271046746,0.8386759684446016,0.8404715648180856,0.8414135170140117,0.840656328320802
46,0.8327298952078184,0.8387201224537856,0.8405598728364536,0.8459760979630284,0.8418507205513786
47,0.8259743318026612,0.836394677970093,0.8393971505946074,0.8415018250323795,0.8373081140350876
48,0.8282556222771695,0.8386759684446016,0.8394413046037914,0.8427087012834099,0.8407738095238094
49,0.825974331802661,0.8363946779700933,0.8360855999058049,0.844857529730366,0.8407346491228068
50,0.8282556222771695,0.8386759684446016,0.8339367714588486,0.8460644059813964,0.8396577380952381
