,train,test
0.1,0.0009740000000192595,0.002645400000005793
0.2,0.0017067999999881068,0.003952600000025086
0.3,0.002989999999999782,0.0046319999999923315
0.4,0.004665599999998449,0.004788600000006226
0.5,0.006613799999990988,0.004852200000027551
0.6,0.008856800000012299,0.004419800000005125
0.7,0.011705200000028526,0.004089199999953053
0.8,0.015479000000027554,0.0030233999999609296
0.9,0.017914399999972373,0.0017027999999982058
