,train,test
0.1,0.0009498000000007778,0.0028169999999988703
0.2,0.002223799999990206,0.004762599999997974
0.3,0.004204599999997072,0.006048599999996895
0.4,0.006970599999999649,0.006820000000004711
0.5,0.009972799999991367,0.006919199999998682
0.6,0.014107000000001335,0.006386000000003378
0.7,0.018210000000004813,0.0055219999999906125
0.8,0.02398520000000417,0.004157200000008743
0.9,0.030022000000002436,0.0025481999999897196
