,0,1,2,3,4
0.001,0.5000000000000001,0.5,0.5,0.4999999999999999,0.5
0.101,0.8380136583068412,0.8385435064170496,0.8317879430118923,0.8525550453314493,0.8294564536340852
0.201,0.8456670198987404,0.8572942423172026,0.8560432120569883,0.8591339926998706,0.8471569548872179
0.30100000000000005,0.855689979983516,0.866154480160132,0.8636965736488875,0.8668756623101377,0.8594337406015038
0.401,0.8633874955845992,0.872821735546921,0.8780613446367598,0.8724243494642646,0.8727091165413534
0.501,0.8711291651948664,0.8783704227010481,0.8814170493347464,0.8812845873071941,0.8804824561403508
0.6010000000000001,0.8767661603673615,0.8839191098551749,0.8859354762745794,0.886833274461321,0.8860236528822055
0.7010000000000001,0.8801218650653482,0.8917049334746263,0.8903655951960439,0.8923819616154479,0.887139724310777
0.801,0.8867891204521372,0.8961350523960909,0.8925585776521843,0.8957818203226184,0.8860628132832081
0.901,0.8879518426939834,0.8972536206287532,0.8947515601083246,0.9001677852348994,0.8893718671679198
1.001,0.8890704109266456,0.9082185329094551,0.8981072648063111,0.9023607676910396,0.8926809210526316
1.101,0.8935446838572944,0.9082185329094551,0.8992258330389733,0.9012863534675616,0.8937578320802005
1.201,0.8968120805369129,0.9115300835982576,0.9036559519604381,0.9012863534675616,0.8970668859649124
1.301,0.8990492170022373,0.9104115153655955,0.9080860708819029,0.9079536088543505,0.8959508145363408
1.401,0.9011980454491936,0.9092929471329333,0.9080860708819029,0.9079977628635345,0.8948739035087719
1.501,0.9011980454491936,0.9114859295890736,0.9113976215707054,0.910190745319675,0.8959899749373433
1.601,0.9034351819145178,0.9137230660543978,0.9125161898033676,0.910190745319675,0.899299028822055
1.701,0.9023166136818558,0.9126044978217358,0.9125161898033676,0.9135022960084774,0.9004151002506265
1.801,0.904509596137996,0.91484163428706,0.914709172259508,0.9146208642411398,0.9004151002506265
1.901,0.9067467326033205,0.91484163428706,0.9169463087248325,0.9156952784646177,0.901531171679198
2.001,0.9101024373013071,0.9148416342870602,0.9169463087248325,0.9167696926880959,0.9004151002506265
2.101,0.9100582832921231,0.913767220063582,0.9191834451901567,0.9178882609207581,0.9004151002506265
2.201,0.9111768515247852,0.9126928058401036,0.9224949958789592,0.9167696926880959,0.901531171679198
2.301,0.9111768515247852,0.9104998233839635,0.9279995290239024,0.9201253973860827,0.9037241541353382
2.4010000000000002,0.91560697044625,0.9104998233839635,0.9279995290239024,0.9178882609207581,0.9070332080200499
