,0,1,2,3,4
0.001,0.5,0.5,0.5,0.5000000000000001,0.5
0.101,0.8031662390733258,0.8001513219547417,0.7836019234019018,0.7910105541302443,0.7926531926639269
0.201,0.8104788533329237,0.8128523804402932,0.788308650699768,0.804489346012628,0.8045681776360178
0.30100000000000005,0.8185692009893537,0.8264675157082942,0.818144808197502,0.8157309541732597,0.8160691283812795
0.401,0.8276139523451063,0.8339164733535096,0.8322649900911003,0.8266038590939118,0.8274320677175979
0.501,0.835199253375939,0.8384868572657582,0.8368353740033491,0.8337801299678921,0.8363338035944305
0.6010000000000001,0.8424158511667922,0.8507788855944571,0.8525513496074846,0.8375727804833085,0.8517604121940747
0.7010000000000001,0.8510515723656922,0.856672376446008,0.8611870708063848,0.8484456854039605,0.8601101024351346
0.801,0.8590459035533775,0.8641213340912234,0.8724286789670164,0.8517332892937796,0.8658605778077655
0.901,0.8629748974544114,0.8650354108736731,0.8762213294824328,0.8555259398091961,0.870560633012329
1.001,0.8678179681378949,0.8688280613890894,0.8790999032153995,0.8632475842256463,0.8742102680488254
1.101,0.869782465088412,0.873943818843808,0.8827562103451985,0.8632475842256465,0.8782739373121511
1.201,0.8773677661192447,0.8748578956262578,0.8857711274637825,0.8703278386308819,0.8870376617800405
1.301,0.8791959196841442,0.8816654632602584,0.8903415113760312,0.8721559921957814,0.8868996503710974
1.401,0.8840389903676278,0.8872862673405743,0.8929473983377629,0.8762213294824328,0.8897748880574128
1.501,0.8878316408830442,0.891856651252823,0.8959623154563471,0.8783221698185673,0.8925121143347851
1.601,0.8934524449633602,0.8960583319250919,0.8959623154563471,0.8821148203339837,0.8925121143347851
1.701,0.8945028651314274,0.8978864854899913,0.8998913093573809,0.8851297374525678,0.8979865668895296
1.801,0.8982955156468437,0.9027295561734748,0.9055121134376969,0.8908868849185012,0.9017742133349691
1.901,0.901037745994193,0.9027295561734748,0.9086633739418984,0.8919373050865684,0.9046494510212845
2.001,0.9009014026085754,0.9037799763415421,0.9097137941099657,0.8957299556019848,0.9056998711893517
2.101,0.9009014026085754,0.9037799763415421,0.9097137941099657,0.898744872720569,0.9056998711893517
2.201,0.9066585500745088,0.9079816570138111,0.9127287112285498,0.9028102100072205,0.9066122799484758
2.301,0.9086230470250257,0.9108602307467778,0.9127287112285498,0.9028102100072205,0.9066122799484758
2.4010000000000002,0.9096734671930929,0.9119106509148449,0.9145568647934494,0.9028102100072205,0.9075246887075998
