mean_fit_time,std_fit_time,mean_score_time,std_score_time,param_SVM__C,param_SVM__class_weight,param_SVM__max_iter,param_SVM__tol,params,split0_test_score,split1_test_score,split2_test_score,split3_test_score,split4_test_score,mean_test_score,std_test_score,rank_test_score,split0_train_score,split1_train_score,split2_train_score,split3_train_score,split4_train_score,mean_train_score,std_train_score
0.0021579742431640627,0.0002437786029615516,0.002048349380493164,0.002704538219163587,0.001,balanced,-1,1e-08,"{'SVM__C': 0.001, 'SVM__class_weight': 'balanced', 'SVM__max_iter': -1, 'SVM__tol': 1e-08}",0.5,0.5,0.5,0.5,0.5000000000000002,0.5000000000000001,1.1102230246251565e-16,101,0.5,0.5,0.5,0.5,0.5,0.5,0.0
0.0021800994873046875,2.1207195241868102e-05,0.0019750595092773438,0.0020271565338596358,0.001,balanced,-1,0.01000001,"{'SVM__C': 0.001, 'SVM__class_weight': 'balanced', 'SVM__max_iter': -1, 'SVM__tol': 0.01000001}",0.5,0.5,0.5,0.5,0.5000000000000002,0.5000000000000001,1.1102230246251565e-16,101,0.5,0.5,0.5,0.5,0.5,0.5,0.0
0.0021607398986816405,1.9935215195394776e-05,0.0018271446228027345,0.002324875365980197,0.001,balanced,-1,0.020000010000000002,"{'SVM__C': 0.001, 'SVM__class_weight': 'balanced', 'SVM__max_iter': -1, 'SVM__tol': 0.020000010000000002}",0.5,0.5,0.5,0.5,0.5000000000000002,0.5000000000000001,1.1102230246251565e-16,101,0.5,0.5,0.5,0.5,0.5,0.5,0.0
0.0023258209228515627,0.0015610044023484306,0.0005162715911865235,8.402969383778794e-05,0.001,balanced,-1,0.03000001,"{'SVM__C': 0.001, 'SVM__class_weight': 'balanced', 'SVM__max_iter': -1, 'SVM__tol': 0.03000001}",0.5,0.5,0.5,0.5,0.5000000000000002,0.5000000000000001,1.1102230246251565e-16,101,0.5,0.5,0.5,0.5,0.5,0.5,0.0
0.001314067840576172,1.7547736996711326e-05,0.0004634380340576172,1.056858762203982e-05,0.001,balanced,-1,0.04000001,"{'SVM__C': 0.001, 'SVM__class_weight': 'balanced', 'SVM__max_iter': -1, 'SVM__tol': 0.04000001}",0.5,0.5,0.5,0.5,0.5000000000000002,0.5000000000000001,1.1102230246251565e-16,101,0.5,0.5,0.5,0.5,0.5,0.5,0.0
0.001349163055419922,6.906643455066115e-05,0.0004657268524169922,7.5494029887535175e-06,0.001,balanced,-1,0.050000010000000004,"{'SVM__C': 0.001, 'SVM__class_weight': 'balanced', 'SVM__max_iter': -1, 'SVM__tol': 0.050000010000000004}",0.5,0.5,0.5,0.5,0.5000000000000002,0.5000000000000001,1.1102230246251565e-16,101,0.5,0.5,0.5,0.5,0.5,0.5,0.0
0.0013819217681884765,0.0001355636719405822,0.00047760009765625,1.7609693737157882e-05,0.001,balanced,-1,0.06000001,"{'SVM__C': 0.001, 'SVM__class_weight': 'balanced', 'SVM__max_iter': -1, 'SVM__tol': 0.06000001}",0.5,0.5,0.5,0.5,0.5000000000000002,0.5000000000000001,1.1102230246251565e-16,101,0.5,0.5,0.5,0.5,0.5,0.5,0.0
0.0012809276580810548,8.545376880486528e-05,0.0004398345947265625,9.878012911497363e-06,0.001,balanced,-1,0.07000001,"{'SVM__C': 0.001, 'SVM__class_weight': 'balanced', 'SVM__max_iter': -1, 'SVM__tol': 0.07000001}",0.5,0.5,0.5,0.5,0.5000000000000002,0.5000000000000001,1.1102230246251565e-16,101,0.5,0.5,0.5,0.5,0.5,0.5,0.0
0.0023557662963867186,0.0021247642546329084,0.0004752635955810547,5.672169911014885e-05,0.001,balanced,-1,0.08000001,"{'SVM__C': 0.001, 'SVM__class_weight': 'balanced', 'SVM__max_iter': -1, 'SVM__tol': 0.08000001}",0.5,0.5,0.5,0.5,0.5000000000000002,0.5000000000000001,1.1102230246251565e-16,101,0.5,0.5,0.5,0.5,0.5,0.5,0.0
0.0013258934020996093,8.05069184949901e-05,0.0004534721374511719,9.966923236443034e-06,0.001,balanced,-1,0.09000000999999999,"{'SVM__C': 0.001, 'SVM__class_weight': 'balanced', 'SVM__max_iter': -1, 'SVM__tol': 0.09000000999999999}",0.5,0.5,0.5,0.5,0.5000000000000002,0.5000000000000001,1.1102230246251565e-16,101,0.5,0.5,0.5,0.5,0.5,0.5,0.0
0.003636741638183594,7.692945561741652e-05,0.0004967689514160156,2.6894038447311104e-05,0.001,balanced,1185,1e-08,"{'SVM__C': 0.001, 'SVM__class_weight': 'balanced', 'SVM__max_iter': 1185, 'SVM__tol': 1e-08}",0.8092888471177945,0.8000469924812029,0.8352913533834586,0.8622337092731829,0.8394973921289712,0.8292595430792301,0.0222845776793656,91,0.8464765100671142,0.8398092546803251,0.8353791357588604,0.8364535499823383,0.8399906015037595,0.8396218103984795,0.003878046207756311
0.002280139923095703,0.00011861352824651288,0.0004702568054199219,3.8063912564427024e-05,0.001,balanced,1185,0.01000001,"{'SVM__C': 0.001, 'SVM__class_weight': 'balanced', 'SVM__max_iter': 1185, 'SVM__tol': 0.01000001}",0.8092888471177945,0.8000469924812029,0.8352913533834586,0.8622337092731829,0.8394973921289712,0.8292595430792301,0.0222845776793656,91,0.8464765100671142,0.8398092546803251,0.8353791357588604,0.8364535499823383,0.8399906015037595,0.8396218103984795,0.003878046207756311
0.0020972728729248048,0.00014522197582275996,0.00045990943908691406,1.1640101940989262e-05,0.001,balanced,1185,0.020000010000000002,"{'SVM__C': 0.001, 'SVM__class_weight': 'balanced', 'SVM__max_iter': 1185, 'SVM__tol': 0.020000010000000002}",0.800516917293233,0.8000469924812029,0.8352913533834586,0.8622337092731829,0.8394973921289712,0.8275030784579612,0.024064090687490367,93,0.8464765100671142,0.8409278229129873,0.8353791357588604,0.8364535499823383,0.8399906015037595,0.8398455240450119,0.003914498851666601
0.0019116878509521484,0.00010835597473442299,0.0004586696624755859,5.401956821965944e-06,0.001,balanced,1185,0.03000001,"{'SVM__C': 0.001, 'SVM__class_weight': 'balanced', 'SVM__max_iter': 1185, 'SVM__tol': 0.03000001}",0.800516917293233,0.8000469924812029,0.8352913533834586,0.8622337092731829,0.8394973921289712,0.8275030784579612,0.024064090687490367,93,0.8464765100671142,0.8409278229129873,0.8364977039915226,0.8342605675261979,0.8399906015037595,0.8396306412003163,0.0041792621161358
0.0018120288848876953,2.5070663054150443e-05,0.0004390239715576172,3.1290111001058423e-06,0.001,balanced,1185,0.04000001,"{'SVM__C': 0.001, 'SVM__class_weight': 'balanced', 'SVM__max_iter': 1185, 'SVM__tol': 0.04000001}",0.800516917293233,0.8000469924812029,0.8352913533834586,0.8622337092731829,0.8394973921289712,0.8275030784579612,0.024064090687490367,93,0.8464765100671142,0.8409278229129873,0.8364977039915226,0.8342605675261979,0.8399906015037595,0.8396306412003163,0.0041792621161358
0.0018739700317382812,5.369110174637389e-05,0.00044956207275390623,1.2511501932048267e-05,0.001,balanced,1185,0.050000010000000004,"{'SVM__C': 0.001, 'SVM__class_weight': 'balanced', 'SVM__max_iter': 1185, 'SVM__tol': 0.050000010000000004}",0.800516917293233,0.8000469924812029,0.8352913533834586,0.8622337092731829,0.8394973921289712,0.8275030784579612,0.024064090687490367,93,0.8464765100671142,0.8409278229129873,0.8364977039915226,0.8342605675261979,0.8399906015037595,0.8396306412003163,0.0041792621161358
0.001786184310913086,3.571360703353594e-05,0.0004368305206298828,9.933789566039876e-07,0.001,balanced,1185,0.06000001,"{'SVM__C': 0.001, 'SVM__class_weight': 'balanced', 'SVM__max_iter': 1185, 'SVM__tol': 0.06000001}",0.800516917293233,0.8000469924812029,0.8352913533834586,0.8622337092731829,0.8394973921289712,0.8275030784579612,0.024064090687490367,93,0.8464765100671142,0.8409278229129873,0.8364977039915226,0.8342605675261979,0.8399906015037595,0.8396306412003163,0.0041792621161358
0.001912069320678711,3.975472347052404e-05,0.00045928955078125,1.3866536062597741e-05,0.001,balanced,1185,0.07000001,"{'SVM__C': 0.001, 'SVM__class_weight': 'balanced', 'SVM__max_iter': 1185, 'SVM__tol': 0.07000001}",0.800516917293233,0.8000469924812029,0.8352913533834586,0.8622337092731829,0.8394973921289712,0.8275030784579612,0.024064090687490367,93,0.8464765100671142,0.8409278229129873,0.8364977039915226,0.8342605675261979,0.8399906015037595,0.8396306412003163,0.0041792621161358
0.0020076751708984373,0.0001818839945632797,0.002486991882324219,0.004025436939935699,0.001,balanced,1185,0.08000001,"{'SVM__C': 0.001, 'SVM__class_weight': 'balanced', 'SVM__max_iter': 1185, 'SVM__tol': 0.08000001}",0.800516917293233,0.8000469924812029,0.8352913533834586,0.8622337092731829,0.8394973921289712,0.8275030784579612,0.024064090687490367,93,0.8464765100671142,0.8409278229129873,0.8364977039915226,0.8342605675261979,0.8399906015037595,0.8396306412003163,0.0041792621161358
0.0024697303771972655,0.0011930290971020805,0.0004473686218261719,8.826769716457879e-06,0.001,balanced,1185,0.09000000999999999,"{'SVM__C': 0.001, 'SVM__class_weight': 'balanced', 'SVM__max_iter': 1185, 'SVM__tol': 0.09000000999999999}",0.800516917293233,0.8000469924812029,0.8352913533834586,0.8622337092731829,0.8394973921289712,0.8275030784579612,0.024064090687490367,93,0.8464765100671142,0.8409278229129873,0.8364977039915226,0.8342605675261979,0.8399906015037595,0.8396306412003163,0.0041792621161358
0.003510904312133789,0.0011267080203195055,0.0004568576812744141,1.7967588578919502e-05,0.251,balanced,-1,1e-08,"{'SVM__C': 0.251, 'SVM__class_weight': 'balanced', 'SVM__max_iter': -1, 'SVM__tol': 1e-08}",0.5,0.5,0.5,0.5,0.5000000000000002,0.5000000000000001,1.1102230246251565e-16,101,0.5,0.5,0.5,0.5,0.5,0.5,0.0
0.0013254642486572265,9.147230728363153e-05,0.0004548549652099609,1.3746976271452857e-05,0.251,balanced,-1,0.01000001,"{'SVM__C': 0.251, 'SVM__class_weight': 'balanced', 'SVM__max_iter': -1, 'SVM__tol': 0.01000001}",0.5,0.5,0.5,0.5,0.5000000000000002,0.5000000000000001,1.1102230246251565e-16,101,0.5,0.5,0.5,0.5,0.5,0.5,0.0
0.0013401508331298828,7.205702119121682e-05,0.00045576095581054685,7.204187334923499e-06,0.251,balanced,-1,0.020000010000000002,"{'SVM__C': 0.251, 'SVM__class_weight': 'balanced', 'SVM__max_iter': -1, 'SVM__tol': 0.020000010000000002}",0.5,0.5,0.5,0.5,0.5000000000000002,0.5000000000000001,1.1102230246251565e-16,101,0.5,0.5,0.5,0.5,0.5,0.5,0.0
0.00129852294921875,2.4088820273140292e-05,0.00045561790466308594,1.1289063073875155e-05,0.251,balanced,-1,0.03000001,"{'SVM__C': 0.251, 'SVM__class_weight': 'balanced', 'SVM__max_iter': -1, 'SVM__tol': 0.03000001}",0.5,0.5,0.5,0.5,0.5000000000000002,0.5000000000000001,1.1102230246251565e-16,101,0.5,0.5,0.5,0.5,0.5,0.5,0.0
0.0012743473052978516,4.133383356622569e-05,0.00044946670532226564,1.5966143005949343e-05,0.251,balanced,-1,0.04000001,"{'SVM__C': 0.251, 'SVM__class_weight': 'balanced', 'SVM__max_iter': -1, 'SVM__tol': 0.04000001}",0.5,0.5,0.5,0.5,0.5000000000000002,0.5000000000000001,1.1102230246251565e-16,101,0.5,0.5,0.5,0.5,0.5,0.5,0.0
0.001211690902709961,6.625006689906327e-05,0.0004353523254394531,9.944084243924204e-06,0.251,balanced,-1,0.050000010000000004,"{'SVM__C': 0.251, 'SVM__class_weight': 'balanced', 'SVM__max_iter': -1, 'SVM__tol': 0.050000010000000004}",0.5,0.5,0.5,0.5,0.5000000000000002,0.5000000000000001,1.1102230246251565e-16,101,0.5,0.5,0.5,0.5,0.5,0.5,0.0
0.0016829967498779297,0.0008290475465672855,0.0004642486572265625,3.5249007708112286e-05,0.251,balanced,-1,0.06000001,"{'SVM__C': 0.251, 'SVM__class_weight': 'balanced', 'SVM__max_iter': -1, 'SVM__tol': 0.06000001}",0.5,0.5,0.5,0.5,0.5000000000000002,0.5000000000000001,1.1102230246251565e-16,101,0.5,0.5,0.5,0.5,0.5,0.5,0.0
0.0012710094451904297,6.008545544518393e-05,0.0004562854766845703,2.3691370006368058e-05,0.251,balanced,-1,0.07000001,"{'SVM__C': 0.251, 'SVM__class_weight': 'balanced', 'SVM__max_iter': -1, 'SVM__tol': 0.07000001}",0.5,0.5,0.5,0.5,0.5000000000000002,0.5000000000000001,1.1102230246251565e-16,101,0.5,0.5,0.5,0.5,0.5,0.5,0.0
0.0012908458709716796,3.505658013437259e-05,0.00045261383056640627,1.531352715428852e-05,0.251,balanced,-1,0.08000001,"{'SVM__C': 0.251, 'SVM__class_weight': 'balanced', 'SVM__max_iter': -1, 'SVM__tol': 0.08000001}",0.5,0.5,0.5,0.5,0.5000000000000002,0.5000000000000001,1.1102230246251565e-16,101,0.5,0.5,0.5,0.5,0.5,0.5,0.0
0.001536417007446289,0.0004823893928665809,0.00045666694641113283,1.1390920139674179e-05,0.251,balanced,-1,0.09000000999999999,"{'SVM__C': 0.251, 'SVM__class_weight': 'balanced', 'SVM__max_iter': -1, 'SVM__tol': 0.09000000999999999}",0.5,0.5,0.5,0.5,0.5000000000000002,0.5000000000000001,1.1102230246251565e-16,101,0.5,0.5,0.5,0.5,0.5,0.5,0.0
0.025210189819335937,0.01996569123479621,0.0005481243133544922,1.9170988732625146e-05,0.251,balanced,1185,1e-08,"{'SVM__C': 0.251, 'SVM__class_weight': 'balanced', 'SVM__max_iter': 1185, 'SVM__tol': 1e-08}",0.8057644110275689,0.787124060150376,0.8759398496240601,0.8982612781954887,0.8755334281650072,0.8484926044576986,0.04372702208041278,14,0.8879518426939834,0.8847286000235489,0.8669198163193219,0.8514364770987871,0.8759790100250625,0.8734031492321407,0.013199497461437523
0.005035781860351562,0.0014318754893362811,0.0004603862762451172,1.3861944059801836e-05,0.251,balanced,1185,0.01000001,"{'SVM__C': 0.251, 'SVM__class_weight': 'balanced', 'SVM__max_iter': 1185, 'SVM__tol': 0.01000001}",0.8145363408521303,0.787124060150376,0.8714755639097742,0.8982612781954887,0.8755334281650072,0.8493551540485004,0.041611712468269606,4,0.8879518426939834,0.8847286000235489,0.8669198163193219,0.8514364770987871,0.8759790100250625,0.8734031492321407,0.013199497461437523
0.00762481689453125,0.00796932833372223,0.0004965782165527344,4.188992044848213e-05,0.251,balanced,1185,0.020000010000000002,"{'SVM__C': 0.251, 'SVM__class_weight': 'balanced', 'SVM__max_iter': 1185, 'SVM__tol': 0.020000010000000002}",0.8145363408521303,0.7915883458646615,0.8714755639097742,0.8937969924812029,0.8755334281650072,0.8493551540485004,0.03925329972668387,4,0.8879518426939834,0.8825356175674086,0.8669198163193219,0.8514364770987871,0.8737468671679197,0.8725181241694842,0.012773695979048144
0.0036078453063964843,0.00024883104616485463,0.00045166015625,1.2434940358599409e-05,0.251,balanced,1185,0.03000001,"{'SVM__C': 0.251, 'SVM__class_weight': 'balanced', 'SVM__max_iter': 1185, 'SVM__tol': 0.03000001}",0.8145363408521303,0.7915883458646615,0.8714755639097742,0.8937969924812029,0.8755334281650072,0.8493551540485004,0.03925329972668387,4,0.8879518426939834,0.8825356175674086,0.8669198163193219,0.8514364770987871,0.8737468671679197,0.8725181241694842,0.012773695979048144
0.0037557125091552735,0.0004111484701278912,0.00046401023864746095,1.3621527598206272e-05,0.251,balanced,1185,0.04000001,"{'SVM__C': 0.251, 'SVM__class_weight': 'balanced', 'SVM__max_iter': 1185, 'SVM__tol': 0.04000001}",0.8145363408521303,0.7915883458646615,0.8714755639097742,0.8937969924812029,0.8755334281650072,0.8493551540485004,0.03925329972668387,4,0.8879518426939834,0.8825356175674086,0.8669198163193219,0.8514364770987871,0.8737468671679197,0.8725181241694842,0.012773695979048144
0.0100250244140625,0.00581835451290451,0.0004651069641113281,8.506432770148376e-06,0.251,balanced,1185,0.050000010000000004,"{'SVM__C': 0.251, 'SVM__class_weight': 'balanced', 'SVM__max_iter': 1185, 'SVM__tol': 0.050000010000000004}",0.8145363408521303,0.7915883458646615,0.8714755639097742,0.8937969924812029,0.8755334281650072,0.8493551540485004,0.03925329972668387,4,0.8834775697633345,0.8825356175674086,0.8669198163193219,0.8514364770987871,0.8737468671679197,0.8716232695833543,0.011779155329693716
0.004589605331420899,0.0036631674976350032,0.00792388916015625,0.014963603769118436,0.251,balanced,1185,0.06000001,"{'SVM__C': 0.251, 'SVM__class_weight': 'balanced', 'SVM__max_iter': 1185, 'SVM__tol': 0.06000001}",0.8057644110275689,0.7915883458646615,0.8757832080200499,0.9068765664160401,0.8620199146514936,0.8483903595449491,0.04338259269830991,15,0.8879959967031674,0.8825356175674086,0.8636082656305194,0.851392323089603,0.869282581453634,0.8709629568888664,0.013145157077114372
0.019215488433837892,0.014394365762454179,0.0004696846008300781,2.5230498987107185e-05,0.251,balanced,1185,0.07000001,"{'SVM__C': 0.251, 'SVM__class_weight': 'balanced', 'SVM__max_iter': 1185, 'SVM__tol': 0.07000001}",0.8057644110275689,0.7915883458646615,0.8757832080200499,0.9068765664160401,0.8620199146514936,0.8483903595449491,0.04338259269830991,15,0.8879959967031674,0.8825356175674086,0.8636082656305194,0.851392323089603,0.869282581453634,0.8709629568888664,0.013145157077114372
0.0025278568267822266,0.00012510217022815388,0.013834762573242187,0.012203398136309522,0.251,balanced,1185,0.08000001,"{'SVM__C': 0.251, 'SVM__class_weight': 'balanced', 'SVM__max_iter': 1185, 'SVM__tol': 0.08000001}",0.8057644110275689,0.800516917293233,0.8757832080200499,0.9068765664160401,0.8620199146514936,0.8501781896058836,0.04113041558437536,1,0.8879959967031674,0.8758242081714355,0.8636082656305194,0.851392323089603,0.869282581453634,0.8696206750096719,0.012203871996588478
0.0026676177978515623,0.00013734088953076484,0.00046677589416503905,1.5173165171884545e-05,0.251,balanced,1185,0.09000000999999999,"{'SVM__C': 0.251, 'SVM__class_weight': 'balanced', 'SVM__max_iter': 1185, 'SVM__tol': 0.09000000999999999}",0.8057644110275689,0.800516917293233,0.8757832080200499,0.9068765664160401,0.8620199146514936,0.8501781896058836,0.04113041558437536,1,0.8879959967031674,0.8758242081714355,0.8636082656305194,0.851392323089603,0.869282581453634,0.8696206750096719,0.012203871996588478
0.0012169361114501953,1.8679239810941377e-05,0.00044269561767578124,4.5447359304213925e-06,0.501,balanced,-1,1e-08,"{'SVM__C': 0.501, 'SVM__class_weight': 'balanced', 'SVM__max_iter': -1, 'SVM__tol': 1e-08}",0.5,0.5,0.5,0.5,0.5000000000000002,0.5000000000000001,1.1102230246251565e-16,101,0.5,0.5,0.5,0.5,0.5,0.5,0.0
0.003976106643676758,0.005324508647339823,0.00046181678771972656,2.2098199988900214e-05,0.501,balanced,-1,0.01000001,"{'SVM__C': 0.501, 'SVM__class_weight': 'balanced', 'SVM__max_iter': -1, 'SVM__tol': 0.01000001}",0.5,0.5,0.5,0.5,0.5000000000000002,0.5000000000000001,1.1102230246251565e-16,101,0.5,0.5,0.5,0.5,0.5,0.5,0.0
0.0013516902923583984,5.205930684804194e-05,0.0004605293273925781,8.738748344835427e-06,0.501,balanced,-1,0.020000010000000002,"{'SVM__C': 0.501, 'SVM__class_weight': 'balanced', 'SVM__max_iter': -1, 'SVM__tol': 0.020000010000000002}",0.5,0.5,0.5,0.5,0.5000000000000002,0.5000000000000001,1.1102230246251565e-16,101,0.5,0.5,0.5,0.5,0.5,0.5,0.0
0.0012810707092285156,0.00012333606717751977,0.00044083595275878906,1.8322588021126605e-05,0.501,balanced,-1,0.03000001,"{'SVM__C': 0.501, 'SVM__class_weight': 'balanced', 'SVM__max_iter': -1, 'SVM__tol': 0.03000001}",0.5,0.5,0.5,0.5,0.5000000000000002,0.5000000000000001,1.1102230246251565e-16,101,0.5,0.5,0.5,0.5,0.5,0.5,0.0
0.010961055755615234,0.019114431059970127,0.00048336982727050783,3.9348630031440935e-05,0.501,balanced,-1,0.04000001,"{'SVM__C': 0.501, 'SVM__class_weight': 'balanced', 'SVM__max_iter': -1, 'SVM__tol': 0.04000001}",0.5,0.5,0.5,0.5,0.5000000000000002,0.5000000000000001,1.1102230246251565e-16,101,0.5,0.5,0.5,0.5,0.5,0.5,0.0
0.00782318115234375,0.009956831154046022,0.008056211471557616,0.013047685900767382,0.501,balanced,-1,0.050000010000000004,"{'SVM__C': 0.501, 'SVM__class_weight': 'balanced', 'SVM__max_iter': -1, 'SVM__tol': 0.050000010000000004}",0.5,0.5,0.5,0.5,0.5000000000000002,0.5000000000000001,1.1102230246251565e-16,101,0.5,0.5,0.5,0.5,0.5,0.5,0.0
0.002216672897338867,0.001639120067925312,0.0005151748657226563,9.68167798736059e-05,0.501,balanced,-1,0.06000001,"{'SVM__C': 0.501, 'SVM__class_weight': 'balanced', 'SVM__max_iter': -1, 'SVM__tol': 0.06000001}",0.5,0.5,0.5,0.5,0.5000000000000002,0.5000000000000001,1.1102230246251565e-16,101,0.5,0.5,0.5,0.5,0.5,0.5,0.0
0.0013180255889892578,7.003801320871558e-05,0.00045666694641113283,1.2007967772236901e-05,0.501,balanced,-1,0.07000001,"{'SVM__C': 0.501, 'SVM__class_weight': 'balanced', 'SVM__max_iter': -1, 'SVM__tol': 0.07000001}",0.5,0.5,0.5,0.5,0.5000000000000002,0.5000000000000001,1.1102230246251565e-16,101,0.5,0.5,0.5,0.5,0.5,0.5,0.0
0.0031395435333251955,0.0034897497441499946,0.00048246383666992185,3.099536894284807e-05,0.501,balanced,-1,0.08000001,"{'SVM__C': 0.501, 'SVM__class_weight': 'balanced', 'SVM__max_iter': -1, 'SVM__tol': 0.08000001}",0.5,0.5,0.5,0.5,0.5000000000000002,0.5000000000000001,1.1102230246251565e-16,101,0.5,0.5,0.5,0.5,0.5,0.5,0.0
0.0013086795806884766,5.548241617835508e-05,0.0030665874481201174,0.00521943760506059,0.501,balanced,-1,0.09000000999999999,"{'SVM__C': 0.501, 'SVM__class_weight': 'balanced', 'SVM__max_iter': -1, 'SVM__tol': 0.09000000999999999}",0.5,0.5,0.5,0.5,0.5000000000000002,0.5000000000000001,1.1102230246251565e-16,101,0.5,0.5,0.5,0.5,0.5,0.5,0.0
0.06577081680297851,0.012543725413914958,0.004071807861328125,0.007030230949309216,0.501,balanced,1185,1e-08,"{'SVM__C': 0.501, 'SVM__class_weight': 'balanced', 'SVM__max_iter': 1185, 'SVM__tol': 1e-08}",0.7925281954887218,0.7783521303258146,0.8759398496240601,0.8937969924812029,0.8755334281650072,0.8431918451542267,0.04786993811744819,82,0.8868774284705052,0.8858471682562111,0.8669198163193219,0.8514364770987871,0.8748629385964912,0.8731887657482632,0.013136813040726536
0.012369489669799805,0.009936879928572409,0.0005086898803710937,4.8591929114419505e-05,0.501,balanced,1185,0.01000001,"{'SVM__C': 0.501, 'SVM__class_weight': 'balanced', 'SVM__max_iter': 1185, 'SVM__tol': 0.01000001}",0.7925281954887218,0.787124060150376,0.8759398496240601,0.8937969924812029,0.8755334281650072,0.8449483097754955,0.04556397767426718,72,0.8868774284705052,0.8847286000235489,0.8669198163193219,0.8536294595549274,0.8748629385964912,0.8734036485929589,0.012206436248739148
0.021784067153930664,0.018860263591995243,0.0032141685485839845,0.00541605319365863,0.501,balanced,1185,0.020000010000000002,"{'SVM__C': 0.501, 'SVM__class_weight': 'balanced', 'SVM__max_iter': 1185, 'SVM__tol': 0.020000010000000002}",0.7925281954887218,0.787124060150376,0.8759398496240601,0.8937969924812029,0.8755334281650072,0.8449483097754955,0.04556397767426718,72,0.8890704109266456,0.8847286000235489,0.8669198163193219,0.8525550453314493,0.8759790100250627,0.8738505765252057,0.013084648023212457
0.014899539947509765,0.023260402428613283,0.0038845062255859373,0.006740348733823182,0.501,balanced,1185,0.03000001,"{'SVM__C': 0.501, 'SVM__class_weight': 'balanced', 'SVM__max_iter': 1185, 'SVM__tol': 0.03000001}",0.8145363408521303,0.7828164160401003,0.8714755639097742,0.8937969924812029,0.8710289236605027,0.8467020581988467,0.04134265689588144,36,0.8834775697633347,0.8847286000235489,0.8668756623101379,0.8525550453314493,0.8748629385964912,0.8724999632049923,0.011874877400874367
0.012567472457885743,0.011760106720771988,0.0005268096923828125,3.703573057915591e-05,0.501,balanced,1185,0.04000001,"{'SVM__C': 0.501, 'SVM__class_weight': 'balanced', 'SVM__max_iter': 1185, 'SVM__tol': 0.04000001}",0.8145363408521303,0.7828164160401003,0.8714755639097742,0.8937969924812029,0.8710289236605027,0.8467020581988467,0.04134265689588144,36,0.8834775697633347,0.8847286000235489,0.8668756623101379,0.8525550453314493,0.8748629385964912,0.8724999632049923,0.011874877400874367
0.008004713058471679,0.005966450804350418,0.015878582000732423,0.02221507729253811,0.501,balanced,1185,0.050000010000000004,"{'SVM__C': 0.501, 'SVM__class_weight': 'balanced', 'SVM__max_iter': 1185, 'SVM__tol': 0.050000010000000004}",0.8145363408521303,0.7828164160401003,0.8714755639097742,0.8937969924812029,0.8710289236605027,0.8467020581988467,0.04134265689588144,36,0.8834775697633347,0.8847286000235489,0.8668756623101379,0.8525550453314493,0.8748629385964912,0.8724999632049923,0.011874877400874367
0.0028487205505371093,0.00030144423985328653,0.011568546295166016,0.014116246286917072,0.501,balanced,1185,0.06000001,"{'SVM__C': 0.501, 'SVM__class_weight': 'balanced', 'SVM__max_iter': 1185, 'SVM__tol': 0.06000001}",0.8190006265664161,0.7828164160401003,0.8668546365914787,0.9068765664160401,0.8710289236605027,0.8492897069712517,0.04345542745094338,9,0.8879518426939834,0.8847286000235489,0.861371129165195,0.8502737548569409,0.8748629385964912,0.8718376530672319,0.014209474317558216
0.006289100646972657,0.0070442707054801865,0.0004530429840087891,1.785078608109915e-05,0.501,balanced,1185,0.07000001,"{'SVM__C': 0.501, 'SVM__class_weight': 'balanced', 'SVM__max_iter': 1185, 'SVM__tol': 0.07000001}",0.8190006265664161,0.7828164160401003,0.8668546365914787,0.9068765664160401,0.8620199146514936,0.8474964445144821,0.04270065175236877,29,0.8879518426939834,0.8847286000235489,0.861371129165195,0.8502737548569409,0.869282581453634,0.8707215816386604,0.014147040419504237
0.005447006225585938,0.005510561526144634,0.011525154113769531,0.01385744349628318,0.501,balanced,1185,0.08000001,"{'SVM__C': 0.501, 'SVM__class_weight': 'balanced', 'SVM__max_iter': 1185, 'SVM__tol': 0.08000001}",0.8190006265664161,0.7828164160401003,0.8668546365914787,0.9068765664160401,0.8620199146514936,0.8474964445144821,0.04270065175236877,29,0.8879518426939834,0.8847286000235489,0.861371129165195,0.8502737548569409,0.869282581453634,0.8707215816386604,0.014147040419504237
0.013028383255004883,0.012893776343034425,0.00047030448913574217,2.8222798671742547e-05,0.501,balanced,1185,0.09000000999999999,"{'SVM__C': 0.501, 'SVM__class_weight': 'balanced', 'SVM__max_iter': 1185, 'SVM__tol': 0.09000000999999999}",0.8190006265664161,0.7960526315789473,0.8668546365914787,0.9068765664160401,0.8620199146514936,0.850146824166218,0.03884004224282567,3,0.8879518426939834,0.8736312257152952,0.861371129165195,0.8502737548569409,0.869282581453634,0.8685021067770098,0.012556535226455
0.0012922286987304688,6.597710259544974e-05,0.00045647621154785154,1.558214532915188e-05,0.751,balanced,-1,1e-08,"{'SVM__C': 0.751, 'SVM__class_weight': 'balanced', 'SVM__max_iter': -1, 'SVM__tol': 1e-08}",0.5,0.5,0.5,0.5,0.5000000000000002,0.5000000000000001,1.1102230246251565e-16,101,0.5,0.5,0.5,0.5,0.5,0.5,0.0
0.0013319969177246094,5.3313806250611795e-05,0.0004624366760253906,1.0852210324748432e-05,0.751,balanced,-1,0.01000001,"{'SVM__C': 0.751, 'SVM__class_weight': 'balanced', 'SVM__max_iter': -1, 'SVM__tol': 0.01000001}",0.5,0.5,0.5,0.5,0.5000000000000002,0.5000000000000001,1.1102230246251565e-16,101,0.5,0.5,0.5,0.5,0.5,0.5,0.0
0.0013501644134521484,7.673360386369451e-05,0.0017405033111572265,0.0025448632208477017,0.751,balanced,-1,0.020000010000000002,"{'SVM__C': 0.751, 'SVM__class_weight': 'balanced', 'SVM__max_iter': -1, 'SVM__tol': 0.020000010000000002}",0.5,0.5,0.5,0.5,0.5000000000000002,0.5000000000000001,1.1102230246251565e-16,101,0.5,0.5,0.5,0.5,0.5,0.5,0.0
0.001344919204711914,2.5279116179827247e-05,0.0004730701446533203,1.6894038367523695e-05,0.751,balanced,-1,0.03000001,"{'SVM__C': 0.751, 'SVM__class_weight': 'balanced', 'SVM__max_iter': -1, 'SVM__tol': 0.03000001}",0.5,0.5,0.5,0.5,0.5000000000000002,0.5000000000000001,1.1102230246251565e-16,101,0.5,0.5,0.5,0.5,0.5,0.5,0.0
0.001180553436279297,6.963612052111168e-05,0.00043997764587402346,1.3437673834782462e-05,0.751,balanced,-1,0.04000001,"{'SVM__C': 0.751, 'SVM__class_weight': 'balanced', 'SVM__max_iter': -1, 'SVM__tol': 0.04000001}",0.5,0.5,0.5,0.5,0.5000000000000002,0.5000000000000001,1.1102230246251565e-16,101,0.5,0.5,0.5,0.5,0.5,0.5,0.0
0.00464787483215332,0.006792132055418384,0.0004538059234619141,9.957337240134823e-06,0.751,balanced,-1,0.050000010000000004,"{'SVM__C': 0.751, 'SVM__class_weight': 'balanced', 'SVM__max_iter': -1, 'SVM__tol': 0.050000010000000004}",0.5,0.5,0.5,0.5,0.5000000000000002,0.5000000000000001,1.1102230246251565e-16,101,0.5,0.5,0.5,0.5,0.5,0.5,0.0
0.010482311248779297,0.017600430561801002,0.0011973857879638671,0.0014851259399663393,0.751,balanced,-1,0.06000001,"{'SVM__C': 0.751, 'SVM__class_weight': 'balanced', 'SVM__max_iter': -1, 'SVM__tol': 0.06000001}",0.5,0.5,0.5,0.5,0.5000000000000002,0.5000000000000001,1.1102230246251565e-16,101,0.5,0.5,0.5,0.5,0.5,0.5,0.0
0.0012933731079101563,0.00010321012239725895,0.0004480838775634766,8.186614964296726e-06,0.751,balanced,-1,0.07000001,"{'SVM__C': 0.751, 'SVM__class_weight': 'balanced', 'SVM__max_iter': -1, 'SVM__tol': 0.07000001}",0.5,0.5,0.5,0.5,0.5000000000000002,0.5000000000000001,1.1102230246251565e-16,101,0.5,0.5,0.5,0.5,0.5,0.5,0.0
0.0025318622589111327,0.0025397690346417,0.00046710968017578126,2.126469193994997e-05,0.751,balanced,-1,0.08000001,"{'SVM__C': 0.751, 'SVM__class_weight': 'balanced', 'SVM__max_iter': -1, 'SVM__tol': 0.08000001}",0.5,0.5,0.5,0.5,0.5000000000000002,0.5000000000000001,1.1102230246251565e-16,101,0.5,0.5,0.5,0.5,0.5,0.5,0.0
0.001332712173461914,6.629861264872293e-05,0.000466156005859375,1.6739225645044415e-05,0.751,balanced,-1,0.09000000999999999,"{'SVM__C': 0.751, 'SVM__class_weight': 'balanced', 'SVM__max_iter': -1, 'SVM__tol': 0.09000000999999999}",0.5,0.5,0.5,0.5,0.5000000000000002,0.5000000000000001,1.1102230246251565e-16,101,0.5,0.5,0.5,0.5,0.5,0.5,0.0
0.0792961597442627,0.020097002103891967,0.0005483150482177735,1.9790982498742433e-05,0.751,balanced,1185,1e-08,"{'SVM__C': 0.751, 'SVM__class_weight': 'balanced', 'SVM__max_iter': 1185, 'SVM__tol': 1e-08}",0.7925281954887218,0.7783521303258146,0.8804041353383459,0.8937969924812029,0.8755334281650072,0.844085760184694,0.04851051896458856,75,0.8901889791593078,0.8836541858000708,0.8658012480866597,0.8514364770987871,0.8759790100250625,0.8734119800339777,0.01366606081948961
0.017914390563964842,0.012651240108367332,0.0005128860473632812,3.1712144740854235e-05,0.751,balanced,1185,0.01000001,"{'SVM__C': 0.751, 'SVM__class_weight': 'balanced', 'SVM__max_iter': 1185, 'SVM__tol': 0.01000001}",0.7925281954887218,0.7783521303258146,0.8804041353383459,0.8937969924812029,0.8755334281650072,0.844085760184694,0.04851051896458856,75,0.8901889791593078,0.8814612033439304,0.8646826798539974,0.8514364770987871,0.8748629385964912,0.8725264556105028,0.013442958154058706
0.02875351905822754,0.030404479317705374,0.0005133152008056641,2.9546978935786882e-05,0.751,balanced,1185,0.020000010000000002,"{'SVM__C': 0.751, 'SVM__class_weight': 'balanced', 'SVM__max_iter': 1185, 'SVM__tol': 0.020000010000000002}",0.7925281954887218,0.7783521303258146,0.8759398496240601,0.8893327067669172,0.8755334281650072,0.8422979301237596,0.046949432155860484,84,0.8890704109266456,0.8814612033439304,0.8669198163193219,0.8514364770987871,0.8748629385964912,0.8727501692570353,0.0129225592364218
0.007896184921264648,0.0090472216667311,0.0004821300506591797,4.404447546621012e-05,0.751,balanced,1185,0.03000001,"{'SVM__C': 0.751, 'SVM__class_weight': 'balanced', 'SVM__max_iter': 1185, 'SVM__tol': 0.03000001}",0.7925281954887218,0.7828164160401003,0.8714755639097742,0.8982612781954887,0.8710289236605027,0.8431891289563092,0.04653545017062423,83,0.8890704109266456,0.8847286000235489,0.8658012480866597,0.8536736135641114,0.8759790100250625,0.8738505765252056,0.01285617755202556
0.010974311828613281,0.01348616791149197,0.004207754135131836,0.0074255057081305705,0.751,balanced,1185,0.04000001,"{'SVM__C': 0.751, 'SVM__class_weight': 'balanced', 'SVM__max_iter': 1185, 'SVM__tol': 0.04000001}",0.8145363408521303,0.7828164160401003,0.8714755639097742,0.8982612781954887,0.8710289236605027,0.8475959732293139,0.04238637312223001,26,0.8834775697633347,0.8847286000235489,0.8658012480866597,0.8536736135641114,0.8759790100250625,0.8727320082925434,0.011672070693670007
0.009963035583496094,0.013600301316989844,0.010022544860839843,0.017150237337349498,0.751,balanced,1185,0.050000010000000004,"{'SVM__C': 0.751, 'SVM__class_weight': 'balanced', 'SVM__max_iter': 1185, 'SVM__tol': 0.050000010000000004}",0.8145363408521303,0.7828164160401003,0.8714755639097742,0.8982612781954887,0.8710289236605027,0.8475959732293139,0.04238637312223001,26,0.8834775697633347,0.8847286000235489,0.8658012480866597,0.8536736135641114,0.8759790100250625,0.8727320082925434,0.011672070693670007
0.009263086318969726,0.00827263582527666,0.0005012989044189453,3.7288116977877694e-05,0.751,balanced,1185,0.06000001,"{'SVM__C': 0.751, 'SVM__class_weight': 'balanced', 'SVM__max_iter': 1185, 'SVM__tol': 0.06000001}",0.8145363408521303,0.7828164160401003,0.8713189223057644,0.8982612781954887,0.8710289236605027,0.8475646077896483,0.042368745179405864,28,0.8834775697633347,0.8847286000235489,0.8602525609325327,0.8536736135641114,0.8759790100250625,0.8716222708617181,0.012511832439279986
0.005399656295776367,0.005244736945868387,0.0005192279815673829,5.953849936981649e-05,0.751,balanced,1185,0.07000001,"{'SVM__C': 0.751, 'SVM__class_weight': 'balanced', 'SVM__max_iter': 1185, 'SVM__tol': 0.07000001}",0.8100720551378446,0.7828164160401003,0.8713189223057644,0.9068765664160401,0.8620199146514936,0.846602529484015,0.04448595906681571,39,0.8890704109266456,0.8847286000235489,0.8602525609325327,0.8502737548569409,0.8725916353383459,0.8713833924156029,0.014573244307511545
0.005387353897094727,0.005272743780740569,0.0005229473114013672,8.03065976319641e-05,0.751,balanced,1185,0.08000001,"{'SVM__C': 0.751, 'SVM__class_weight': 'balanced', 'SVM__max_iter': 1185, 'SVM__tol': 0.08000001}",0.8100720551378446,0.7828164160401003,0.8713189223057644,0.9068765664160401,0.8620199146514936,0.846602529484015,0.04448595906681571,39,0.8890704109266456,0.8847286000235489,0.8602525609325327,0.8502737548569409,0.8725916353383459,0.8713833924156029,0.014573244307511545
0.006891584396362305,0.005584134232057069,0.0004790306091308594,2.163569459439654e-05,0.751,balanced,1185,0.09000000999999999,"{'SVM__C': 0.751, 'SVM__class_weight': 'balanced', 'SVM__max_iter': 1185, 'SVM__tol': 0.09000000999999999}",0.8100720551378446,0.7960526315789473,0.8713189223057644,0.9068765664160401,0.8620199146514936,0.8492529091357509,0.0408526890651775,10,0.8890704109266456,0.872512657482633,0.8602525609325327,0.8502737548569409,0.8725916353383459,0.8689402039074198,0.01307847140373773
0.015038156509399414,0.01701777809557474,0.002073240280151367,0.003113579911358202,1.001,balanced,-1,1e-08,"{'SVM__C': 1.001, 'SVM__class_weight': 'balanced', 'SVM__max_iter': -1, 'SVM__tol': 1e-08}",0.5,0.5,0.5,0.5,0.5000000000000002,0.5000000000000001,1.1102230246251565e-16,101,0.5,0.5,0.5,0.5,0.5,0.5,0.0
0.001434469223022461,5.269182212186958e-05,0.0009682655334472656,0.0009597409337726019,1.001,balanced,-1,0.01000001,"{'SVM__C': 1.001, 'SVM__class_weight': 'balanced', 'SVM__max_iter': -1, 'SVM__tol': 0.01000001}",0.5,0.5,0.5,0.5,0.5000000000000002,0.5000000000000001,1.1102230246251565e-16,101,0.5,0.5,0.5,0.5,0.5,0.5,0.0
0.0011821746826171874,4.166738311920264e-05,0.00043463706970214844,1.0218120754988765e-05,1.001,balanced,-1,0.020000010000000002,"{'SVM__C': 1.001, 'SVM__class_weight': 'balanced', 'SVM__max_iter': -1, 'SVM__tol': 0.020000010000000002}",0.5,0.5,0.5,0.5,0.5000000000000002,0.5000000000000001,1.1102230246251565e-16,101,0.5,0.5,0.5,0.5,0.5,0.5,0.0
0.0012037277221679688,1.720080583675519e-05,0.0004436492919921875,4.433303565662177e-06,1.001,balanced,-1,0.03000001,"{'SVM__C': 1.001, 'SVM__class_weight': 'balanced', 'SVM__max_iter': -1, 'SVM__tol': 0.03000001}",0.5,0.5,0.5,0.5,0.5000000000000002,0.5000000000000001,1.1102230246251565e-16,101,0.5,0.5,0.5,0.5,0.5,0.5,0.0
0.001943206787109375,0.0013942526611828848,0.0004536151885986328,9.84250111299681e-06,1.001,balanced,-1,0.04000001,"{'SVM__C': 1.001, 'SVM__class_weight': 'balanced', 'SVM__max_iter': -1, 'SVM__tol': 0.04000001}",0.5,0.5,0.5,0.5,0.5000000000000002,0.5000000000000001,1.1102230246251565e-16,101,0.5,0.5,0.5,0.5,0.5,0.5,0.0
0.001251554489135742,4.420092701139308e-05,0.0004505634307861328,9.07419984489057e-06,1.001,balanced,-1,0.050000010000000004,"{'SVM__C': 1.001, 'SVM__class_weight': 'balanced', 'SVM__max_iter': -1, 'SVM__tol': 0.050000010000000004}",0.5,0.5,0.5,0.5,0.5000000000000002,0.5000000000000001,1.1102230246251565e-16,101,0.5,0.5,0.5,0.5,0.5,0.5,0.0
0.0011891365051269532,2.335217180983452e-05,0.009534883499145507,0.011159194438422846,1.001,balanced,-1,0.06000001,"{'SVM__C': 1.001, 'SVM__class_weight': 'balanced', 'SVM__max_iter': -1, 'SVM__tol': 0.06000001}",0.5,0.5,0.5,0.5,0.5000000000000002,0.5000000000000001,1.1102230246251565e-16,101,0.5,0.5,0.5,0.5,0.5,0.5,0.0
0.004194927215576172,0.0035417618322116074,0.0004658699035644531,1.3258302624588213e-05,1.001,balanced,-1,0.07000001,"{'SVM__C': 1.001, 'SVM__class_weight': 'balanced', 'SVM__max_iter': -1, 'SVM__tol': 0.07000001}",0.5,0.5,0.5,0.5,0.5000000000000002,0.5000000000000001,1.1102230246251565e-16,101,0.5,0.5,0.5,0.5,0.5,0.5,0.0
0.0023395061492919923,0.0019471912824760844,0.002853584289550781,0.004775072518741711,1.001,balanced,-1,0.08000001,"{'SVM__C': 1.001, 'SVM__class_weight': 'balanced', 'SVM__max_iter': -1, 'SVM__tol': 0.08000001}",0.5,0.5,0.5,0.5,0.5000000000000002,0.5000000000000001,1.1102230246251565e-16,101,0.5,0.5,0.5,0.5,0.5,0.5,0.0
0.0017415523529052735,0.0010084056416369033,0.0004561901092529297,1.551780798679083e-05,1.001,balanced,-1,0.09000000999999999,"{'SVM__C': 1.001, 'SVM__class_weight': 'balanced', 'SVM__max_iter': -1, 'SVM__tol': 0.09000000999999999}",0.5,0.5,0.5,0.5,0.5000000000000002,0.5000000000000001,1.1102230246251565e-16,101,0.5,0.5,0.5,0.5,0.5,0.5,0.0
0.09279556274414062,0.021742136334320424,0.0005455970764160156,1.8545594190965124e-05,1.001,balanced,1185,1e-08,"{'SVM__C': 1.001, 'SVM__class_weight': 'balanced', 'SVM__max_iter': 1185, 'SVM__tol': 1e-08}",0.7925281954887218,0.7783521303258146,0.8804041353383459,0.8937969924812029,0.8755334281650072,0.844085760184694,0.04851051896458856,75,0.8901889791593078,0.884772754032733,0.8646826798539974,0.8547480277875896,0.8759790100250625,0.8740742901717381,0.01295743068645949
0.029761028289794923,0.020780359921612875,0.010335302352905274,0.019105301429952527,1.001,balanced,1185,0.01000001,"{'SVM__C': 1.001, 'SVM__class_weight': 'balanced', 'SVM__max_iter': 1185, 'SVM__tol': 0.01000001}",0.7925281954887218,0.787124060150376,0.8804041353383459,0.9025689223057645,0.8755334281650072,0.8475986894272315,0.048119220673369295,25,0.89130754739197,0.8836541858000708,0.8669198163193219,0.8536294595549274,0.8759790100250625,0.8742980038182706,0.013124898997438688
0.03561520576477051,0.03237151589781013,0.00131683349609375,0.0015810515648522828,1.001,balanced,1185,0.020000010000000002,"{'SVM__C': 1.001, 'SVM__class_weight': 'balanced', 'SVM__max_iter': 1185, 'SVM__tol': 0.020000010000000002}",0.7925281954887218,0.7828164160401003,0.8759398496240601,0.8848684210526316,0.8755334281650072,0.8422979301237596,0.04487556298496014,84,0.8901889791593078,0.8869215824796892,0.8669198163193219,0.8547480277875896,0.8759790100250625,0.8749514831541942,0.013032326382769865
0.010594749450683593,0.005573455499041115,0.00048656463623046874,3.244995105223072e-05,1.001,balanced,1185,0.03000001,"{'SVM__C': 1.001, 'SVM__class_weight': 'balanced', 'SVM__max_iter': 1185, 'SVM__tol': 0.03000001}",0.8057644110275689,0.7828164160401003,0.8804041353383459,0.8982612781954887,0.8710289236605027,0.8476273386689793,0.04504992169707308,22,0.8824031555398566,0.8847286000235489,0.8658012480866597,0.8558665960202518,0.8759790100250625,0.872955721939076,0.010772368835666788
0.008246374130249024,0.006076702944882504,0.004410600662231446,0.007818806010884577,1.001,balanced,1185,0.04000001,"{'SVM__C': 1.001, 'SVM__class_weight': 'balanced', 'SVM__max_iter': 1185, 'SVM__tol': 0.04000001}",0.8057644110275689,0.7828164160401003,0.8804041353383459,0.8982612781954887,0.8710289236605027,0.8476273386689793,0.04504992169707308,22,0.8824031555398566,0.8847286000235489,0.8658012480866597,0.8558665960202518,0.8759790100250625,0.872955721939076,0.010772368835666788
0.003092336654663086,6.234714679082731e-05,0.00048117637634277345,3.083827966162081e-05,1.001,balanced,1185,0.050000010000000004,"{'SVM__C': 1.001, 'SVM__class_weight': 'balanced', 'SVM__max_iter': 1185, 'SVM__tol': 0.050000010000000004}",0.8057644110275689,0.7828164160401003,0.8804041353383459,0.8982612781954887,0.8710289236605027,0.8476273386689793,0.04504992169707308,22,0.8824031555398566,0.8847286000235489,0.8658012480866597,0.8558665960202518,0.8759790100250625,0.872955721939076,0.010772368835666788
0.0041162967681884766,0.0020947410336831828,0.0004580974578857422,1.2782971704342976e-05,1.001,balanced,1185,0.06000001,"{'SVM__C': 1.001, 'SVM__class_weight': 'balanced', 'SVM__max_iter': 1185, 'SVM__tol': 0.06000001}",0.8057644110275689,0.7828164160401003,0.8713189223057644,0.8982612781954887,0.8710289236605027,0.8458081431683795,0.043857256517752,70,0.8824031555398566,0.8847286000235489,0.8602525609325327,0.8558665960202518,0.8759790100250625,0.8718459845082505,0.011698255162925828
0.012307453155517577,0.015665092662857018,0.000473785400390625,3.725847011929747e-05,1.001,balanced,1185,0.07000001,"{'SVM__C': 1.001, 'SVM__class_weight': 'balanced', 'SVM__max_iter': 1185, 'SVM__tol': 0.07000001}",0.8100720551378446,0.7828164160401003,0.8713189223057644,0.9068765664160401,0.8620199146514936,0.846602529484015,0.04448595906681571,39,0.8912633933827859,0.8847286000235489,0.8602525609325327,0.8502737548569409,0.8725916353383459,0.871821988906831,0.015121635020504435
0.009691190719604493,0.013189999202895094,0.00046238899230957033,2.2396427626929625e-05,1.001,balanced,1185,0.08000001,"{'SVM__C': 1.001, 'SVM__class_weight': 'balanced', 'SVM__max_iter': 1185, 'SVM__tol': 0.08000001}",0.8100720551378446,0.7828164160401003,0.8713189223057644,0.9068765664160401,0.8620199146514936,0.846602529484015,0.04448595906681571,39,0.8912633933827859,0.8847286000235489,0.8602525609325327,0.8502737548569409,0.8725916353383459,0.871821988906831,0.015121635020504435
0.006521797180175782,0.004823951764234466,0.00047941207885742186,2.8106466436381484e-05,1.001,balanced,1185,0.09000000999999999,"{'SVM__C': 1.001, 'SVM__class_weight': 'balanced', 'SVM__max_iter': 1185, 'SVM__tol': 0.09000000999999999}",0.8100720551378446,0.7960526315789473,0.8713189223057644,0.9068765664160401,0.8620199146514936,0.8492529091357509,0.0408526890651775,10,0.8912633933827859,0.8736312257152952,0.8602525609325327,0.8502737548569409,0.8725916353383459,0.8696025140451802,0.01382303593621998
0.003734302520751953,0.0030716163264158827,0.0004624366760253906,1.0912801484960094e-05,1.251,balanced,-1,1e-08,"{'SVM__C': 1.251, 'SVM__class_weight': 'balanced', 'SVM__max_iter': -1, 'SVM__tol': 1e-08}",0.5,0.5,0.5,0.5,0.5000000000000002,0.5000000000000001,1.1102230246251565e-16,101,0.5,0.5,0.5,0.5,0.5,0.5,0.0
0.0013257980346679688,8.30503871282363e-05,0.0004584789276123047,1.4285232714600794e-05,1.251,balanced,-1,0.01000001,"{'SVM__C': 1.251, 'SVM__class_weight': 'balanced', 'SVM__max_iter': -1, 'SVM__tol': 0.01000001}",0.5,0.5,0.5,0.5,0.5000000000000002,0.5000000000000001,1.1102230246251565e-16,101,0.5,0.5,0.5,0.5,0.5,0.5,0.0
0.0013062000274658204,6.460828527114427e-05,0.0004633426666259766,2.375663785635865e-05,1.251,balanced,-1,0.020000010000000002,"{'SVM__C': 1.251, 'SVM__class_weight': 'balanced', 'SVM__max_iter': -1, 'SVM__tol': 0.020000010000000002}",0.5,0.5,0.5,0.5,0.5000000000000002,0.5000000000000001,1.1102230246251565e-16,101,0.5,0.5,0.5,0.5,0.5,0.5,0.0
0.0019040584564208984,0.001198297626588868,0.0004557132720947266,1.0138369874928983e-05,1.251,balanced,-1,0.03000001,"{'SVM__C': 1.251, 'SVM__class_weight': 'balanced', 'SVM__max_iter': -1, 'SVM__tol': 0.03000001}",0.5,0.5,0.5,0.5,0.5000000000000002,0.5000000000000001,1.1102230246251565e-16,101,0.5,0.5,0.5,0.5,0.5,0.5,0.0
0.001196908950805664,5.35465836167095e-05,0.000435638427734375,1.5427284953401515e-05,1.251,balanced,-1,0.04000001,"{'SVM__C': 1.251, 'SVM__class_weight': 'balanced', 'SVM__max_iter': -1, 'SVM__tol': 0.04000001}",0.5,0.5,0.5,0.5,0.5000000000000002,0.5000000000000001,1.1102230246251565e-16,101,0.5,0.5,0.5,0.5,0.5,0.5,0.0
0.0012479305267333984,1.0332523194632334e-05,0.00044684410095214845,4.840308204822357e-06,1.251,balanced,-1,0.050000010000000004,"{'SVM__C': 1.251, 'SVM__class_weight': 'balanced', 'SVM__max_iter': -1, 'SVM__tol': 0.050000010000000004}",0.5,0.5,0.5,0.5,0.5000000000000002,0.5000000000000001,1.1102230246251565e-16,101,0.5,0.5,0.5,0.5,0.5,0.5,0.0
0.0012805938720703125,3.897291346916923e-05,0.00044431686401367185,4.084131833145877e-06,1.251,balanced,-1,0.06000001,"{'SVM__C': 1.251, 'SVM__class_weight': 'balanced', 'SVM__max_iter': -1, 'SVM__tol': 0.06000001}",0.5,0.5,0.5,0.5,0.5000000000000002,0.5000000000000001,1.1102230246251565e-16,101,0.5,0.5,0.5,0.5,0.5,0.5,0.0
0.0012403488159179687,8.834630608780626e-05,0.00045990943908691406,3.0904419161331865e-05,1.251,balanced,-1,0.07000001,"{'SVM__C': 1.251, 'SVM__class_weight': 'balanced', 'SVM__max_iter': -1, 'SVM__tol': 0.07000001}",0.5,0.5,0.5,0.5,0.5000000000000002,0.5000000000000001,1.1102230246251565e-16,101,0.5,0.5,0.5,0.5,0.5,0.5,0.0
0.0012569427490234375,0.00010771423164287351,0.0004581451416015625,3.094471100498685e-05,1.251,balanced,-1,0.08000001,"{'SVM__C': 1.251, 'SVM__class_weight': 'balanced', 'SVM__max_iter': -1, 'SVM__tol': 0.08000001}",0.5,0.5,0.5,0.5,0.5000000000000002,0.5000000000000001,1.1102230246251565e-16,101,0.5,0.5,0.5,0.5,0.5,0.5,0.0
0.0012798786163330078,7.676773183696784e-05,0.0004646778106689453,2.864041325695221e-05,1.251,balanced,-1,0.09000000999999999,"{'SVM__C': 1.251, 'SVM__class_weight': 'balanced', 'SVM__max_iter': -1, 'SVM__tol': 0.09000000999999999}",0.5,0.5,0.5,0.5,0.5000000000000002,0.5000000000000001,1.1102230246251565e-16,101,0.5,0.5,0.5,0.5,0.5,0.5,0.0
0.07190275192260742,0.04143045059271793,0.004777193069458008,0.00840702256563074,1.251,balanced,1185,1e-08,"{'SVM__C': 1.251, 'SVM__class_weight': 'balanced', 'SVM__max_iter': 1185, 'SVM__tol': 1e-08}",0.7925281954887218,0.7783521303258146,0.8804041353383459,0.8937969924812029,0.8755334281650072,0.844085760184694,0.04851051896458856,75,0.8901889791593078,0.884772754032733,0.8646826798539974,0.8525550453314493,0.877095081453634,0.8738589079662245,0.013669775459049965
0.025618934631347658,0.012268961490056806,0.0073778629302978516,0.011483642216708239,1.251,balanced,1185,0.01000001,"{'SVM__C': 1.251, 'SVM__class_weight': 'balanced', 'SVM__max_iter': 1185, 'SVM__tol': 0.01000001}",0.7925281954887218,0.7783521303258146,0.8759398496240602,0.9025689223057645,0.8755334281650072,0.8449483097754955,0.049815918075124435,72,0.89130754739197,0.884772754032733,0.8669198163193219,0.8547480277875896,0.8759790100250625,0.8747454311113355,0.012942248677607616
0.026343059539794923,0.01777284689722167,0.0005393028259277344,3.506228726689785e-05,1.251,balanced,1185,0.020000010000000002,"{'SVM__C': 1.251, 'SVM__class_weight': 'balanced', 'SVM__max_iter': 1185, 'SVM__tol': 0.020000010000000002}",0.7925281954887218,0.7783521303258146,0.8759398496240601,0.8893327067669172,0.8755334281650072,0.8422979301237596,0.046949432155860484,84,0.8868774284705052,0.884772754032733,0.8669198163193219,0.8547480277875896,0.8759790100250625,0.8738594073270425,0.011886677228419696
0.009535455703735351,0.007938833837238065,0.006078004837036133,0.011154234577345282,1.251,balanced,1185,0.03000001,"{'SVM__C': 1.251, 'SVM__class_weight': 'balanced', 'SVM__max_iter': 1185, 'SVM__tol': 0.03000001}",0.7969924812030075,0.7828164160401003,0.8804041353383459,0.8982612781954887,0.8710289236605027,0.8458708740477107,0.046785461032605946,52,0.8835217237725187,0.8836100317908867,0.8658012480866597,0.8558665960202518,0.8759790100250625,0.872955721939076,0.010747275978478542
0.0162294864654541,0.01577273145615094,0.00767674446105957,0.014268959185485616,1.251,balanced,1185,0.04000001,"{'SVM__C': 1.251, 'SVM__class_weight': 'balanced', 'SVM__max_iter': 1185, 'SVM__tol': 0.04000001}",0.7969924812030075,0.7828164160401003,0.8804041353383459,0.8982612781954887,0.8710289236605027,0.8458708740477107,0.046785461032605946,52,0.8835217237725187,0.8836100317908867,0.8658012480866597,0.8558665960202518,0.8759790100250625,0.872955721939076,0.010747275978478542
0.014603996276855468,0.014213992595645342,0.0004930496215820312,1.9975436491734742e-05,1.251,balanced,1185,0.050000010000000004,"{'SVM__C': 1.251, 'SVM__class_weight': 'balanced', 'SVM__max_iter': 1185, 'SVM__tol': 0.050000010000000004}",0.7969924812030075,0.7828164160401003,0.8804041353383459,0.8982612781954887,0.8710289236605027,0.8458708740477107,0.046785461032605946,52,0.8835217237725187,0.8836100317908867,0.8658012480866597,0.8558665960202518,0.8759790100250625,0.872955721939076,0.010747275978478542
0.005720376968383789,0.0053139217682405164,0.006683969497680664,0.01238345160371955,1.251,balanced,1185,0.06000001,"{'SVM__C': 1.251, 'SVM__class_weight': 'balanced', 'SVM__max_iter': 1185, 'SVM__tol': 0.06000001}",0.7969924812030075,0.7828164160401003,0.8713189223057644,0.8982612781954887,0.8710289236605027,0.8440516785471107,0.045568104671063765,79,0.8835217237725187,0.8836100317908867,0.8602525609325327,0.8558665960202518,0.8759790100250625,0.8718459845082505,0.011675152439384147
0.01320028305053711,0.009635728140212524,0.0005557537078857422,9.206366031191234e-05,1.251,balanced,1185,0.07000001,"{'SVM__C': 1.251, 'SVM__class_weight': 'balanced', 'SVM__max_iter': 1185, 'SVM__tol': 0.07000001}",0.8100720551378446,0.7828164160401003,0.8713189223057644,0.9068765664160401,0.8620199146514936,0.846602529484015,0.04448595906681571,39,0.8912633933827859,0.8836100317908867,0.8602525609325327,0.8502737548569409,0.8714755639097744,0.8713750609745841,0.014927997218319744
0.004147243499755859,0.003255854690693252,0.0004952430725097656,4.323217213014383e-05,1.251,balanced,1185,0.08000001,"{'SVM__C': 1.251, 'SVM__class_weight': 'balanced', 'SVM__max_iter': 1185, 'SVM__tol': 0.08000001}",0.8100720551378446,0.7828164160401003,0.8713189223057644,0.9068765664160401,0.8620199146514936,0.846602529484015,0.04448595906681571,39,0.8912633933827859,0.8836100317908867,0.8602525609325327,0.8502737548569409,0.8714755639097744,0.8713750609745841,0.014927997218319744
0.012280607223510742,0.019538980936633175,0.007485342025756836,0.008349157442302397,1.251,balanced,1185,0.09000000999999999,"{'SVM__C': 1.251, 'SVM__class_weight': 'balanced', 'SVM__max_iter': 1185, 'SVM__tol': 0.09000000999999999}",0.8100720551378446,0.7960526315789473,0.8713189223057644,0.9068765664160401,0.8620199146514936,0.8492529091357509,0.0408526890651775,10,0.8912633933827859,0.8736312257152952,0.8602525609325327,0.8502737548569409,0.8714755639097744,0.8693792997594658,0.013781915389911588
0.0013201713562011718,6.22069482829927e-05,0.00046324729919433594,2.1086233004717565e-05,1.501,balanced,-1,1e-08,"{'SVM__C': 1.501, 'SVM__class_weight': 'balanced', 'SVM__max_iter': -1, 'SVM__tol': 1e-08}",0.5,0.5,0.5,0.5,0.5000000000000002,0.5000000000000001,1.1102230246251565e-16,101,0.5,0.5,0.5,0.5,0.5,0.5,0.0
0.003311824798583984,0.003976514394452639,0.00046486854553222655,1.6340563087605185e-05,1.501,balanced,-1,0.01000001,"{'SVM__C': 1.501, 'SVM__class_weight': 'balanced', 'SVM__max_iter': -1, 'SVM__tol': 0.01000001}",0.5,0.5,0.5,0.5,0.5000000000000002,0.5000000000000001,1.1102230246251565e-16,101,0.5,0.5,0.5,0.5,0.5,0.5,0.0
0.001256704330444336,8.367656600844965e-05,0.00045680999755859375,2.287029520993577e-05,1.501,balanced,-1,0.020000010000000002,"{'SVM__C': 1.501, 'SVM__class_weight': 'balanced', 'SVM__max_iter': -1, 'SVM__tol': 0.020000010000000002}",0.5,0.5,0.5,0.5,0.5000000000000002,0.5000000000000001,1.1102230246251565e-16,101,0.5,0.5,0.5,0.5,0.5,0.5,0.0
0.0012625694274902345,8.027431409499602e-05,0.0004565715789794922,1.8875163894705666e-05,1.501,balanced,-1,0.03000001,"{'SVM__C': 1.501, 'SVM__class_weight': 'balanced', 'SVM__max_iter': -1, 'SVM__tol': 0.03000001}",0.5,0.5,0.5,0.5,0.5000000000000002,0.5000000000000001,1.1102230246251565e-16,101,0.5,0.5,0.5,0.5,0.5,0.5,0.0
0.0012500286102294922,5.347468832863137e-05,0.00044641494750976565,1.094504886439623e-05,1.501,balanced,-1,0.04000001,"{'SVM__C': 1.501, 'SVM__class_weight': 'balanced', 'SVM__max_iter': -1, 'SVM__tol': 0.04000001}",0.5,0.5,0.5,0.5,0.5000000000000002,0.5000000000000001,1.1102230246251565e-16,101,0.5,0.5,0.5,0.5,0.5,0.5,0.0
0.0015026092529296874,0.00030415672538402453,0.0038751602172851563,0.0068369556634277,1.501,balanced,-1,0.050000010000000004,"{'SVM__C': 1.501, 'SVM__class_weight': 'balanced', 'SVM__max_iter': -1, 'SVM__tol': 0.050000010000000004}",0.5,0.5,0.5,0.5,0.5000000000000002,0.5000000000000001,1.1102230246251565e-16,101,0.5,0.5,0.5,0.5,0.5,0.5,0.0
0.0012667655944824218,5.041984205885689e-05,0.00045680999755859375,1.3965712971245128e-05,1.501,balanced,-1,0.06000001,"{'SVM__C': 1.501, 'SVM__class_weight': 'balanced', 'SVM__max_iter': -1, 'SVM__tol': 0.06000001}",0.5,0.5,0.5,0.5,0.5000000000000002,0.5000000000000001,1.1102230246251565e-16,101,0.5,0.5,0.5,0.5,0.5,0.5,0.0
0.0016356468200683593,0.00047138638254084857,0.0004727363586425781,1.0368768909401822e-05,1.501,balanced,-1,0.07000001,"{'SVM__C': 1.501, 'SVM__class_weight': 'balanced', 'SVM__max_iter': -1, 'SVM__tol': 0.07000001}",0.5,0.5,0.5,0.5,0.5000000000000002,0.5000000000000001,1.1102230246251565e-16,101,0.5,0.5,0.5,0.5,0.5,0.5,0.0
0.0022727489471435548,0.0019101015287450506,0.0004696369171142578,1.5456733669673607e-05,1.501,balanced,-1,0.08000001,"{'SVM__C': 1.501, 'SVM__class_weight': 'balanced', 'SVM__max_iter': -1, 'SVM__tol': 0.08000001}",0.5,0.5,0.5,0.5,0.5000000000000002,0.5000000000000001,1.1102230246251565e-16,101,0.5,0.5,0.5,0.5,0.5,0.5,0.0
0.0018913745880126953,0.0012367227980545443,0.00045886039733886717,1.5550741019462834e-05,1.501,balanced,-1,0.09000000999999999,"{'SVM__C': 1.501, 'SVM__class_weight': 'balanced', 'SVM__max_iter': -1, 'SVM__tol': 0.09000000999999999}",0.5,0.5,0.5,0.5,0.5000000000000002,0.5000000000000001,1.1102230246251565e-16,101,0.5,0.5,0.5,0.5,0.5,0.5,0.0
0.12382993698120118,0.07059522833658749,0.0005866527557373047,5.60898342187852e-05,1.501,balanced,1185,1e-08,"{'SVM__C': 1.501, 'SVM__class_weight': 'balanced', 'SVM__max_iter': 1185, 'SVM__tol': 1e-08}",0.7925281954887218,0.7783521303258146,0.8804041353383459,0.9025689223057645,0.8755334281650072,0.8458422248059628,0.05040064392705734,68,0.8901889791593078,0.884772754032733,0.8658012480866597,0.8525550453314493,0.8782111528822055,0.8743058358984712,0.013583129388740312
0.026781368255615234,0.017490744741409048,0.0005368709564208985,4.033134800251977e-05,1.501,balanced,1185,0.01000001,"{'SVM__C': 1.501, 'SVM__class_weight': 'balanced', 'SVM__max_iter': 1185, 'SVM__tol': 0.01000001}",0.7925281954887218,0.7783521303258146,0.8804041353383459,0.9070332080200502,0.8755334281650072,0.84673613983643,0.05142795165402079,31,0.8923819616154481,0.884772754032733,0.8646826798539974,0.8536736135641114,0.8782111528822055,0.8747444323896991,0.013920388595214562
0.017606782913208007,0.015095241529427436,0.0005259037017822266,5.318121878711269e-05,1.501,balanced,1185,0.020000010000000002,"{'SVM__C': 1.501, 'SVM__class_weight': 'balanced', 'SVM__max_iter': 1185, 'SVM__tol': 0.020000010000000002}",0.7925281954887218,0.7783521303258146,0.8714755639097744,0.8893327067669172,0.8710289236605027,0.8405073838649076,0.04570915323543543,87,0.885758860237843,0.884772754032733,0.8669198163193219,0.8558665960202518,0.8737468671679197,0.8734129787556139,0.011239336910259893
0.009296512603759766,0.008981522543893217,0.008086919784545898,0.015174887191850532,1.501,balanced,1185,0.03000001,"{'SVM__C': 1.501, 'SVM__class_weight': 'balanced', 'SVM__max_iter': 1185, 'SVM__tol': 0.03000001}",0.7925281954887218,0.7828164160401003,0.8804041353383459,0.8982612781954887,0.8710289236605027,0.8449769590172435,0.04774366169566398,71,0.885758860237843,0.8847286000235489,0.8646826798539974,0.8536294595549274,0.877095081453634,0.87317893622479,0.012339804097923785
0.014052248001098633,0.01444183836811737,0.00616922378540039,0.01132803040834248,1.501,balanced,1185,0.04000001,"{'SVM__C': 1.501, 'SVM__class_weight': 'balanced', 'SVM__max_iter': 1185, 'SVM__tol': 0.04000001}",0.7969924812030075,0.7828164160401003,0.8804041353383459,0.8982612781954887,0.8710289236605027,0.8458708740477107,0.046785461032605946,52,0.8812845873071943,0.8847286000235489,0.8646826798539974,0.8536294595549274,0.877095081453634,0.8722840816386604,0.011530803038120038
0.004406499862670899,0.0027811271394058766,0.00044374465942382814,2.7074946530491617e-06,1.501,balanced,1185,0.050000010000000004,"{'SVM__C': 1.501, 'SVM__class_weight': 'balanced', 'SVM__max_iter': 1185, 'SVM__tol': 0.050000010000000004}",0.7969924812030075,0.7828164160401003,0.8804041353383459,0.8982612781954887,0.8710289236605027,0.8458708740477107,0.046785461032605946,52,0.8812845873071943,0.8847286000235489,0.8646826798539974,0.8536294595549274,0.877095081453634,0.8722840816386604,0.011530803038120038
0.0029045581817626954,0.00016819396450163193,0.0004443645477294922,1.1316622683320587e-05,1.501,balanced,1185,0.06000001,"{'SVM__C': 1.501, 'SVM__class_weight': 'balanced', 'SVM__max_iter': 1185, 'SVM__tol': 0.06000001}",0.7969924812030075,0.7828164160401003,0.8713189223057644,0.8982612781954887,0.8710289236605027,0.8440516785471107,0.045568104671063765,79,0.8812845873071943,0.8847286000235489,0.8602525609325327,0.8536294595549274,0.877095081453634,0.8713980578543674,0.01222986577357274
0.002558612823486328,0.00021012772830354082,0.0077060222625732425,0.01451702470875607,1.501,balanced,1185,0.07000001,"{'SVM__C': 1.501, 'SVM__class_weight': 'balanced', 'SVM__max_iter': 1185, 'SVM__tol': 0.07000001}",0.8100720551378446,0.7828164160401003,0.8713189223057644,0.9068765664160401,0.8620199146514936,0.846602529484015,0.04448595906681571,39,0.8912633933827859,0.8847286000235489,0.8602525609325327,0.8502737548569409,0.8725916353383459,0.871821988906831,0.015121635020504435
0.008293056488037109,0.01131385098348767,0.002744579315185547,0.004522161978126325,1.501,balanced,1185,0.08000001,"{'SVM__C': 1.501, 'SVM__class_weight': 'balanced', 'SVM__max_iter': 1185, 'SVM__tol': 0.08000001}",0.8100720551378446,0.7828164160401003,0.8713189223057644,0.9068765664160401,0.8620199146514936,0.846602529484015,0.04448595906681571,39,0.8912633933827859,0.8847286000235489,0.8602525609325327,0.8502737548569409,0.8725916353383459,0.871821988906831,0.015121635020504435
0.01877570152282715,0.013715906455376854,0.0009671688079833984,0.000934092892104225,1.501,balanced,1185,0.09000000999999999,"{'SVM__C': 1.501, 'SVM__class_weight': 'balanced', 'SVM__max_iter': 1185, 'SVM__tol': 0.09000000999999999}",0.8100720551378446,0.7960526315789473,0.8713189223057644,0.9068765664160401,0.8620199146514936,0.8492529091357509,0.0408526890651775,10,0.8912633933827859,0.8736312257152952,0.8602525609325327,0.8502737548569409,0.8725916353383459,0.8696025140451802,0.01382303593621998
0.004716157913208008,0.006968650997938922,0.0004523277282714844,1.4089226863421546e-05,1.751,balanced,-1,1e-08,"{'SVM__C': 1.751, 'SVM__class_weight': 'balanced', 'SVM__max_iter': -1, 'SVM__tol': 1e-08}",0.5,0.5,0.5,0.5,0.5000000000000002,0.5000000000000001,1.1102230246251565e-16,101,0.5,0.5,0.5,0.5,0.5,0.5,0.0
0.0013607978820800782,9.9731446333877e-05,0.00415349006652832,0.007346247757914615,1.751,balanced,-1,0.01000001,"{'SVM__C': 1.751, 'SVM__class_weight': 'balanced', 'SVM__max_iter': -1, 'SVM__tol': 0.01000001}",0.5,0.5,0.5,0.5,0.5000000000000002,0.5000000000000001,1.1102230246251565e-16,101,0.5,0.5,0.5,0.5,0.5,0.5,0.0
0.001869535446166992,0.0009380010938999581,0.0004856109619140625,1.3613178924602875e-05,1.751,balanced,-1,0.020000010000000002,"{'SVM__C': 1.751, 'SVM__class_weight': 'balanced', 'SVM__max_iter': -1, 'SVM__tol': 0.020000010000000002}",0.5,0.5,0.5,0.5,0.5000000000000002,0.5000000000000001,1.1102230246251565e-16,101,0.5,0.5,0.5,0.5,0.5,0.5,0.0
0.001289033889770508,4.123541514426773e-05,0.0004745960235595703,4.461947494762199e-05,1.751,balanced,-1,0.03000001,"{'SVM__C': 1.751, 'SVM__class_weight': 'balanced', 'SVM__max_iter': -1, 'SVM__tol': 0.03000001}",0.5,0.5,0.5,0.5,0.5000000000000002,0.5000000000000001,1.1102230246251565e-16,101,0.5,0.5,0.5,0.5,0.5,0.5,0.0
0.0013128280639648437,4.749800758877538e-05,0.0004639148712158203,1.4790716956623546e-05,1.751,balanced,-1,0.04000001,"{'SVM__C': 1.751, 'SVM__class_weight': 'balanced', 'SVM__max_iter': -1, 'SVM__tol': 0.04000001}",0.5,0.5,0.5,0.5,0.5000000000000002,0.5000000000000001,1.1102230246251565e-16,101,0.5,0.5,0.5,0.5,0.5,0.5,0.0
0.001375722885131836,0.00014733052126382454,0.0004549503326416016,9.958250589727657e-06,1.751,balanced,-1,0.050000010000000004,"{'SVM__C': 1.751, 'SVM__class_weight': 'balanced', 'SVM__max_iter': -1, 'SVM__tol': 0.050000010000000004}",0.5,0.5,0.5,0.5,0.5000000000000002,0.5000000000000001,1.1102230246251565e-16,101,0.5,0.5,0.5,0.5,0.5,0.5,0.0
0.0013300418853759766,8.469540744421349e-05,0.010910844802856446,0.020877322881266962,1.751,balanced,-1,0.06000001,"{'SVM__C': 1.751, 'SVM__class_weight': 'balanced', 'SVM__max_iter': -1, 'SVM__tol': 0.06000001}",0.5,0.5,0.5,0.5,0.5000000000000002,0.5000000000000001,1.1102230246251565e-16,101,0.5,0.5,0.5,0.5,0.5,0.5,0.0
0.0012733936309814453,0.00010449546612181601,0.000466156005859375,3.2893608298743724e-05,1.751,balanced,-1,0.07000001,"{'SVM__C': 1.751, 'SVM__class_weight': 'balanced', 'SVM__max_iter': -1, 'SVM__tol': 0.07000001}",0.5,0.5,0.5,0.5,0.5000000000000002,0.5000000000000001,1.1102230246251565e-16,101,0.5,0.5,0.5,0.5,0.5,0.5,0.0
0.00844416618347168,0.014340073814764879,0.0004608631134033203,2.349747850469919e-05,1.751,balanced,-1,0.08000001,"{'SVM__C': 1.751, 'SVM__class_weight': 'balanced', 'SVM__max_iter': -1, 'SVM__tol': 0.08000001}",0.5,0.5,0.5,0.5,0.5000000000000002,0.5000000000000001,1.1102230246251565e-16,101,0.5,0.5,0.5,0.5,0.5,0.5,0.0
0.0011755943298339844,2.82581440603608e-05,0.00043997764587402346,7.423360693137692e-06,1.751,balanced,-1,0.09000000999999999,"{'SVM__C': 1.751, 'SVM__class_weight': 'balanced', 'SVM__max_iter': -1, 'SVM__tol': 0.09000000999999999}",0.5,0.5,0.5,0.5,0.5000000000000002,0.5000000000000001,1.1102230246251565e-16,101,0.5,0.5,0.5,0.5,0.5,0.5,0.0
0.0746957778930664,0.03888999557399869,0.0014820098876953125,0.0018756094766949017,1.751,balanced,1185,1e-08,"{'SVM__C': 1.751, 'SVM__class_weight': 'balanced', 'SVM__max_iter': 1185, 'SVM__tol': 1e-08}",0.7925281954887218,0.7783521303258146,0.8804041353383459,0.9070332080200502,0.8755334281650072,0.84673613983643,0.05142795165402079,31,0.8901889791593078,0.884772754032733,0.8658012480866597,0.8525550453314493,0.8770950814536342,0.874082621612757,0.013526169353465317
0.022080183029174805,0.011032982771445475,0.006001853942871093,0.006074855029093474,1.751,balanced,1185,0.01000001,"{'SVM__C': 1.751, 'SVM__class_weight': 'balanced', 'SVM__max_iter': 1185, 'SVM__tol': 0.01000001}",0.7925281954887218,0.7783521303258146,0.8804041353383459,0.9070332080200502,0.8755334281650072,0.84673613983643,0.05142795165402079,31,0.8901889791593078,0.884772754032733,0.8669198163193219,0.8536736135641114,0.8782111528822055,0.874753263191536,0.013086810486762449
0.011937093734741212,0.009546132184694888,0.0005376815795898437,5.9694870370878466e-05,1.751,balanced,1185,0.020000010000000002,"{'SVM__C': 1.751, 'SVM__class_weight': 'balanced', 'SVM__max_iter': 1185, 'SVM__tol': 0.020000010000000002}",0.7925281954887218,0.7783521303258146,0.8714755639097744,0.8893327067669172,0.8665244191559981,0.8396107526365229,0.0451423137412085,89,0.8879518426939834,0.884772754032733,0.8669198163193219,0.8547480277875896,0.8748629385964912,0.8738510758860238,0.012100473958400821
0.003090095520019531,9.638734466165682e-05,0.00411372184753418,0.0072764122075779794,1.751,balanced,1185,0.03000001,"{'SVM__C': 1.751, 'SVM__class_weight': 'balanced', 'SVM__max_iter': 1185, 'SVM__tol': 0.03000001}",0.7969924812030075,0.7828164160401003,0.8804041353383459,0.8982612781954887,0.8710289236605027,0.8458708740477107,0.046785461032605946,52,0.8824031555398565,0.8847286000235489,0.8646826798539974,0.8536294595549274,0.8782111528822055,0.8727310095709072,0.011808212220919984
0.015118265151977539,0.024255670137476072,0.0004658699035644531,4.260347214677095e-05,1.751,balanced,1185,0.04000001,"{'SVM__C': 1.751, 'SVM__class_weight': 'balanced', 'SVM__max_iter': 1185, 'SVM__tol': 0.04000001}",0.7969924812030075,0.7828164160401003,0.8804041353383459,0.8982612781954887,0.8710289236605027,0.8458708740477107,0.046785461032605946,52,0.8824031555398565,0.8847286000235489,0.8646826798539974,0.8536294595549274,0.8782111528822055,0.8727310095709072,0.011808212220919984
0.003112316131591797,7.391483535564841e-05,0.010791015625,0.013818957505623886,1.751,balanced,1185,0.050000010000000004,"{'SVM__C': 1.751, 'SVM__class_weight': 'balanced', 'SVM__max_iter': 1185, 'SVM__tol': 0.050000010000000004}",0.7969924812030075,0.7828164160401003,0.8804041353383459,0.8982612781954887,0.8710289236605027,0.8458708740477107,0.046785461032605946,52,0.8824031555398565,0.8847286000235489,0.8646826798539974,0.8536294595549274,0.8782111528822055,0.8727310095709072,0.011808212220919984
0.005566263198852539,0.0029761996284181228,0.00046749114990234374,2.1240084849028604e-05,1.751,balanced,1185,0.06000001,"{'SVM__C': 1.751, 'SVM__class_weight': 'balanced', 'SVM__max_iter': 1185, 'SVM__tol': 0.06000001}",0.7969924812030075,0.7828164160401003,0.8713189223057644,0.8982612781954887,0.8710289236605027,0.8440516785471107,0.045568104671063765,79,0.8824031555398565,0.8847286000235489,0.8602525609325327,0.8536294595549274,0.8782111528822055,0.8718449857866142,0.012523420121741614
0.0026178359985351562,0.0003088169140250836,0.00045123100280761717,1.345965265696517e-05,1.751,balanced,1185,0.07000001,"{'SVM__C': 1.751, 'SVM__class_weight': 'balanced', 'SVM__max_iter': 1185, 'SVM__tol': 0.07000001}",0.8100720551378446,0.7828164160401003,0.8713189223057644,0.9068765664160401,0.8620199146514936,0.846602529484015,0.04448595906681571,39,0.8912633933827859,0.8847286000235489,0.8602525609325327,0.8502737548569409,0.8725916353383459,0.871821988906831,0.015121635020504435
0.0026551246643066405,0.00029144736481242936,0.000458526611328125,1.4641618631657392e-05,1.751,balanced,1185,0.08000001,"{'SVM__C': 1.751, 'SVM__class_weight': 'balanced', 'SVM__max_iter': 1185, 'SVM__tol': 0.08000001}",0.8100720551378446,0.7828164160401003,0.8713189223057644,0.9068765664160401,0.8620199146514936,0.846602529484015,0.04448595906681571,39,0.8912633933827859,0.8847286000235489,0.8602525609325327,0.8502737548569409,0.8725916353383459,0.871821988906831,0.015121635020504435
0.008007192611694336,0.00871810938019008,0.0012226104736328125,0.0014973711628675117,1.751,balanced,1185,0.09000000999999999,"{'SVM__C': 1.751, 'SVM__class_weight': 'balanced', 'SVM__max_iter': 1185, 'SVM__tol': 0.09000000999999999}",0.8100720551378446,0.7915883458646618,0.8713189223057644,0.9068765664160401,0.8620199146514936,0.8483589941052836,0.04203863541244861,17,0.8912633933827859,0.8747497939479574,0.8602525609325327,0.8502737548569409,0.8725916353383459,0.8698262276917127,0.013895289462033772
0.0060501575469970705,0.007069246674209393,0.0004682064056396484,2.9512868946739265e-05,2.001,balanced,-1,1e-08,"{'SVM__C': 2.001, 'SVM__class_weight': 'balanced', 'SVM__max_iter': -1, 'SVM__tol': 1e-08}",0.5,0.5,0.5,0.5,0.5000000000000002,0.5000000000000001,1.1102230246251565e-16,101,0.5,0.5,0.5,0.5,0.5,0.5,0.0
0.0012335777282714844,5.5285150762009346e-05,0.0004538059234619141,2.1044461268497933e-05,2.001,balanced,-1,0.01000001,"{'SVM__C': 2.001, 'SVM__class_weight': 'balanced', 'SVM__max_iter': -1, 'SVM__tol': 0.01000001}",0.5,0.5,0.5,0.5,0.5000000000000002,0.5000000000000001,1.1102230246251565e-16,101,0.5,0.5,0.5,0.5,0.5,0.5,0.0
0.0012733936309814453,7.505483517962826e-05,0.00046029090881347654,2.746457852099509e-05,2.001,balanced,-1,0.020000010000000002,"{'SVM__C': 2.001, 'SVM__class_weight': 'balanced', 'SVM__max_iter': -1, 'SVM__tol': 0.020000010000000002}",0.5,0.5,0.5,0.5,0.5000000000000002,0.5000000000000001,1.1102230246251565e-16,101,0.5,0.5,0.5,0.5,0.5,0.5,0.0
0.0012020111083984376,9.019417388295367e-05,0.0004352569580078125,1.5642584651041166e-05,2.001,balanced,-1,0.03000001,"{'SVM__C': 2.001, 'SVM__class_weight': 'balanced', 'SVM__max_iter': -1, 'SVM__tol': 0.03000001}",0.5,0.5,0.5,0.5,0.5000000000000002,0.5000000000000001,1.1102230246251565e-16,101,0.5,0.5,0.5,0.5,0.5,0.5,0.0
0.0012959957122802735,9.366560254058942e-05,0.003134346008300781,0.005352122248244145,2.001,balanced,-1,0.04000001,"{'SVM__C': 2.001, 'SVM__class_weight': 'balanced', 'SVM__max_iter': -1, 'SVM__tol': 0.04000001}",0.5,0.5,0.5,0.5,0.5000000000000002,0.5000000000000001,1.1102230246251565e-16,101,0.5,0.5,0.5,0.5,0.5,0.5,0.0
0.002508068084716797,0.002593952467878175,0.00044713020324707033,6.433945239990376e-06,2.001,balanced,-1,0.050000010000000004,"{'SVM__C': 2.001, 'SVM__class_weight': 'balanced', 'SVM__max_iter': -1, 'SVM__tol': 0.050000010000000004}",0.5,0.5,0.5,0.5,0.5000000000000002,0.5000000000000001,1.1102230246251565e-16,101,0.5,0.5,0.5,0.5,0.5,0.5,0.0
0.0025947093963623047,0.002367737763548803,0.00048580169677734373,2.862754933312609e-05,2.001,balanced,-1,0.06000001,"{'SVM__C': 2.001, 'SVM__class_weight': 'balanced', 'SVM__max_iter': -1, 'SVM__tol': 0.06000001}",0.5,0.5,0.5,0.5,0.5000000000000002,0.5000000000000001,1.1102230246251565e-16,101,0.5,0.5,0.5,0.5,0.5,0.5,0.0
0.0018667221069335938,0.0009402411983486603,0.00048980712890625,2.9527965359556088e-05,2.001,balanced,-1,0.07000001,"{'SVM__C': 2.001, 'SVM__class_weight': 'balanced', 'SVM__max_iter': -1, 'SVM__tol': 0.07000001}",0.5,0.5,0.5,0.5,0.5000000000000002,0.5000000000000001,1.1102230246251565e-16,101,0.5,0.5,0.5,0.5,0.5,0.5,0.0
0.0012278556823730469,5.984695771452735e-05,0.0004458904266357422,1.385242721163195e-05,2.001,balanced,-1,0.08000001,"{'SVM__C': 2.001, 'SVM__class_weight': 'balanced', 'SVM__max_iter': -1, 'SVM__tol': 0.08000001}",0.5,0.5,0.5,0.5,0.5000000000000002,0.5000000000000001,1.1102230246251565e-16,101,0.5,0.5,0.5,0.5,0.5,0.5,0.0
0.0011296272277832031,6.543276173749707e-06,0.0004246234893798828,2.900487198971853e-06,2.001,balanced,-1,0.09000000999999999,"{'SVM__C': 2.001, 'SVM__class_weight': 'balanced', 'SVM__max_iter': -1, 'SVM__tol': 0.09000000999999999}",0.5,0.5,0.5,0.5,0.5000000000000002,0.5000000000000001,1.1102230246251565e-16,101,0.5,0.5,0.5,0.5,0.5,0.5,0.0
0.06514601707458496,0.028444323680242488,0.0005550384521484375,2.8636046523324698e-05,2.001,balanced,1185,1e-08,"{'SVM__C': 2.001, 'SVM__class_weight': 'balanced', 'SVM__max_iter': 1185, 'SVM__tol': 1e-08}",0.7925281954887218,0.7783521303258146,0.8804041353383459,0.9070332080200502,0.8755334281650072,0.84673613983643,0.05142795165402079,31,0.8901889791593078,0.884772754032733,0.8658012480866597,0.8536736135641114,0.8770950814536342,0.8743063352592891,0.013172904895254177
0.017016172409057617,0.012886488892386002,0.0005173206329345704,4.07324448970196e-05,2.001,balanced,1185,0.01000001,"{'SVM__C': 2.001, 'SVM__class_weight': 'balanced', 'SVM__max_iter': 1185, 'SVM__tol': 0.01000001}",0.7925281954887218,0.7828164160401003,0.8804041353383459,0.9070332080200502,0.8755334281650072,0.8476300548668971,0.050257007784552866,21,0.8901889791593078,0.884772754032733,0.8646826798539974,0.8525550453314493,0.8793272243107769,0.8743053365376529,0.01380396303936498
0.0075852394104003905,0.006330195622592544,0.0005098819732666015,6.632024950895086e-05,2.001,balanced,1185,0.020000010000000002,"{'SVM__C': 2.001, 'SVM__class_weight': 'balanced', 'SVM__max_iter': 1185, 'SVM__tol': 0.020000010000000002}",0.7925281954887218,0.7783521303258146,0.8714755639097744,0.8893327067669172,0.8665244191559981,0.8396107526365229,0.0451423137412085,89,0.8890704109266456,0.884772754032733,0.8680383845519841,0.8536294595549274,0.8748629385964912,0.8740747895325564,0.012604649835457544
0.0038078784942626952,0.001253365482557059,0.0004752635955810547,3.2620889679695315e-05,2.001,balanced,1185,0.03000001,"{'SVM__C': 2.001, 'SVM__class_weight': 'balanced', 'SVM__max_iter': 1185, 'SVM__tol': 0.03000001}",0.7969924812030075,0.7828164160401003,0.8804041353383459,0.8982612781954887,0.8710289236605027,0.8458708740477107,0.046785461032605946,52,0.8824031555398565,0.8847286000235489,0.8646826798539974,0.8547480277875896,0.8782111528822055,0.8729547232174397,0.011449345493078203
0.0040683746337890625,0.002171838835493587,0.00044507980346679686,1.0446325755605402e-05,2.001,balanced,1185,0.04000001,"{'SVM__C': 2.001, 'SVM__class_weight': 'balanced', 'SVM__max_iter': 1185, 'SVM__tol': 0.04000001}",0.7969924812030075,0.7828164160401003,0.8804041353383459,0.8982612781954887,0.8710289236605027,0.8458708740477107,0.046785461032605946,52,0.8824031555398565,0.8847286000235489,0.8646826798539974,0.8547480277875896,0.8782111528822055,0.8729547232174397,0.011449345493078203
0.017106342315673827,0.012690582111395255,0.000488901138305664,4.242902285434785e-05,2.001,balanced,1185,0.050000010000000004,"{'SVM__C': 2.001, 'SVM__class_weight': 'balanced', 'SVM__max_iter': 1185, 'SVM__tol': 0.050000010000000004}",0.7969924812030075,0.7828164160401003,0.8804041353383459,0.8982612781954887,0.8710289236605027,0.8458708740477107,0.046785461032605946,52,0.8824031555398565,0.8847286000235489,0.8646826798539974,0.8547480277875896,0.8782111528822055,0.8729547232174397,0.011449345493078203
0.008509969711303711,0.010903386053473988,0.00048313140869140627,3.253783874229055e-05,2.001,balanced,1185,0.06000001,"{'SVM__C': 2.001, 'SVM__class_weight': 'balanced', 'SVM__max_iter': 1185, 'SVM__tol': 0.06000001}",0.7969924812030075,0.7828164160401003,0.8804041353383459,0.8982612781954887,0.8710289236605027,0.8458708740477107,0.046785461032605946,52,0.8824031555398565,0.8847286000235489,0.8646826798539974,0.8547480277875896,0.8782111528822055,0.8729547232174397,0.011449345493078203
0.005695056915283203,0.005873356375665899,0.010834264755249023,0.012712982213548184,2.001,balanced,1185,0.07000001,"{'SVM__C': 2.001, 'SVM__class_weight': 'balanced', 'SVM__max_iter': 1185, 'SVM__tol': 0.07000001}",0.8100720551378446,0.7828164160401003,0.8713189223057644,0.9068765664160401,0.8620199146514936,0.846602529484015,0.04448595906681571,39,0.8912633933827859,0.8847286000235489,0.8602525609325327,0.8513923230896031,0.8725916353383459,0.8720457025533633,0.014806173335627766
0.014726543426513672,0.02155263883220296,0.007288789749145508,0.013564530651194088,2.001,balanced,1185,0.08000001,"{'SVM__C': 2.001, 'SVM__class_weight': 'balanced', 'SVM__max_iter': 1185, 'SVM__tol': 0.08000001}",0.8100720551378446,0.7828164160401003,0.8713189223057644,0.9068765664160401,0.8620199146514936,0.846602529484015,0.04448595906681571,39,0.8912633933827859,0.8847286000235489,0.8602525609325327,0.8513923230896031,0.8725916353383459,0.8720457025533633,0.014806173335627766
0.002572965621948242,8.14645827764824e-05,0.0004611015319824219,9.818678036677361e-06,2.001,balanced,1185,0.09000000999999999,"{'SVM__C': 2.001, 'SVM__class_weight': 'balanced', 'SVM__max_iter': 1185, 'SVM__tol': 0.09000000999999999}",0.8100720551378446,0.7915883458646618,0.8713189223057644,0.9068765664160401,0.8620199146514936,0.8483589941052836,0.04203863541244861,17,0.8912633933827859,0.8747497939479574,0.8602525609325327,0.8513923230896031,0.8725916353383459,0.8700499413382451,0.013584216960248375
0.018129873275756835,0.03379036223020055,0.0004904270172119141,5.3517616165971154e-05,2.251,balanced,-1,1e-08,"{'SVM__C': 2.251, 'SVM__class_weight': 'balanced', 'SVM__max_iter': -1, 'SVM__tol': 1e-08}",0.5,0.5,0.5,0.5,0.5000000000000002,0.5000000000000001,1.1102230246251565e-16,101,0.5,0.5,0.5,0.5,0.5,0.5,0.0
0.00217742919921875,0.0018660257287735412,0.0004504203796386719,1.512964553503219e-05,2.251,balanced,-1,0.01000001,"{'SVM__C': 2.251, 'SVM__class_weight': 'balanced', 'SVM__max_iter': -1, 'SVM__tol': 0.01000001}",0.5,0.5,0.5,0.5,0.5000000000000002,0.5000000000000001,1.1102230246251565e-16,101,0.5,0.5,0.5,0.5,0.5,0.5,0.0
0.0021047115325927733,0.0015055834623019181,0.0004786968231201172,2.90571121065114e-05,2.251,balanced,-1,0.020000010000000002,"{'SVM__C': 2.251, 'SVM__class_weight': 'balanced', 'SVM__max_iter': -1, 'SVM__tol': 0.020000010000000002}",0.5,0.5,0.5,0.5,0.5000000000000002,0.5000000000000001,1.1102230246251565e-16,101,0.5,0.5,0.5,0.5,0.5,0.5,0.0
0.0012588977813720703,5.487564995123215e-06,0.000461578369140625,2.1017108252173202e-05,2.251,balanced,-1,0.03000001,"{'SVM__C': 2.251, 'SVM__class_weight': 'balanced', 'SVM__max_iter': -1, 'SVM__tol': 0.03000001}",0.5,0.5,0.5,0.5,0.5000000000000002,0.5000000000000001,1.1102230246251565e-16,101,0.5,0.5,0.5,0.5,0.5,0.5,0.0
0.012289285659790039,0.02205650131711626,0.00047473907470703126,3.0241552412447112e-05,2.251,balanced,-1,0.04000001,"{'SVM__C': 2.251, 'SVM__class_weight': 'balanced', 'SVM__max_iter': -1, 'SVM__tol': 0.04000001}",0.5,0.5,0.5,0.5,0.5000000000000002,0.5000000000000001,1.1102230246251565e-16,101,0.5,0.5,0.5,0.5,0.5,0.5,0.0
0.0030483245849609376,0.0036237359653804144,0.00044770240783691405,1.0409257960859545e-05,2.251,balanced,-1,0.050000010000000004,"{'SVM__C': 2.251, 'SVM__class_weight': 'balanced', 'SVM__max_iter': -1, 'SVM__tol': 0.050000010000000004}",0.5,0.5,0.5,0.5,0.5000000000000002,0.5000000000000001,1.1102230246251565e-16,101,0.5,0.5,0.5,0.5,0.5,0.5,0.0
0.001282072067260742,5.138008333767694e-05,0.0004579067230224609,1.2562283756472374e-05,2.251,balanced,-1,0.06000001,"{'SVM__C': 2.251, 'SVM__class_weight': 'balanced', 'SVM__max_iter': -1, 'SVM__tol': 0.06000001}",0.5,0.5,0.5,0.5,0.5000000000000002,0.5000000000000001,1.1102230246251565e-16,101,0.5,0.5,0.5,0.5,0.5,0.5,0.0
0.0012969970703125,8.579995346788037e-05,0.0004794597625732422,3.6386143480325745e-05,2.251,balanced,-1,0.07000001,"{'SVM__C': 2.251, 'SVM__class_weight': 'balanced', 'SVM__max_iter': -1, 'SVM__tol': 0.07000001}",0.5,0.5,0.5,0.5,0.5000000000000002,0.5000000000000001,1.1102230246251565e-16,101,0.5,0.5,0.5,0.5,0.5,0.5,0.0
0.0013448715209960938,0.00014606911502556354,0.00046753883361816406,2.0254075768463968e-05,2.251,balanced,-1,0.08000001,"{'SVM__C': 2.251, 'SVM__class_weight': 'balanced', 'SVM__max_iter': -1, 'SVM__tol': 0.08000001}",0.5,0.5,0.5,0.5,0.5000000000000002,0.5000000000000001,1.1102230246251565e-16,101,0.5,0.5,0.5,0.5,0.5,0.5,0.0
0.00141754150390625,0.00011964856276392138,0.0004885196685791016,3.8020101809836696e-05,2.251,balanced,-1,0.09000000999999999,"{'SVM__C': 2.251, 'SVM__class_weight': 'balanced', 'SVM__max_iter': -1, 'SVM__tol': 0.09000000999999999}",0.5,0.5,0.5,0.5,0.5000000000000002,0.5000000000000001,1.1102230246251565e-16,101,0.5,0.5,0.5,0.5,0.5,0.5,0.0
0.04500389099121094,0.04886411513680258,0.0005376815795898437,2.8196522631378197e-05,2.251,balanced,1185,1e-08,"{'SVM__C': 2.251, 'SVM__class_weight': 'balanced', 'SVM__max_iter': 1185, 'SVM__tol': 1e-08}",0.7925281954887218,0.7783521303258146,0.8804041353383459,0.9070332080200502,0.8755334281650072,0.84673613983643,0.05142795165402079,31,0.8901889791593078,0.884772754032733,0.8658012480866597,0.8525550453314493,0.8770950814536342,0.874082621612757,0.013526169353465317
0.004948234558105469,0.00035682070879674557,0.00046458244323730467,1.1987120919266015e-05,2.251,balanced,1185,0.01000001,"{'SVM__C': 2.251, 'SVM__class_weight': 'balanced', 'SVM__max_iter': 1185, 'SVM__tol': 0.01000001}",0.7925281954887218,0.7828164160401003,0.8759398496240602,0.9070332080200502,0.8710289236605027,0.8458395086080452,0.04921339034266887,69,0.8901889791593078,0.884772754032733,0.8669198163193219,0.8536736135641114,0.8793272243107769,0.8749764774772503,0.013153235645292246
0.015813159942626952,0.016945838810415514,0.0004817962646484375,4.0429042756887476e-05,2.251,balanced,1185,0.020000010000000002,"{'SVM__C': 2.251, 'SVM__class_weight': 'balanced', 'SVM__max_iter': 1185, 'SVM__tol': 0.020000010000000002}",0.7925281954887218,0.7783521303258146,0.8714755639097744,0.8893327067669172,0.8710289236605027,0.8405073838649076,0.04570915323543543,87,0.8879518426939834,0.8869657364888733,0.8680383845519841,0.8525108913222653,0.8759790100250627,0.8742891730164338,0.01314218599230893
0.0030846595764160156,9.044634345603353e-05,0.0037502288818359376,0.00656419642155793,2.251,balanced,1185,0.03000001,"{'SVM__C': 2.251, 'SVM__class_weight': 'balanced', 'SVM__max_iter': 1185, 'SVM__tol': 0.03000001}",0.7969924812030075,0.7828164160401003,0.8804041353383459,0.8982612781954887,0.8710289236605027,0.8458708740477107,0.046785461032605946,52,0.8824031555398565,0.8858471682562111,0.8646826798539974,0.8536294595549274,0.8782111528822055,0.8729547232174397,0.012041682459539866
0.0044882774353027345,0.002960665301581825,0.0004582405090332031,8.323506407010978e-06,2.251,balanced,1185,0.04000001,"{'SVM__C': 2.251, 'SVM__class_weight': 'balanced', 'SVM__max_iter': 1185, 'SVM__tol': 0.04000001}",0.7969924812030075,0.7828164160401003,0.8804041353383459,0.8982612781954887,0.8710289236605027,0.8458708740477107,0.046785461032605946,52,0.8824031555398565,0.8858471682562111,0.8646826798539974,0.8536294595549274,0.8782111528822055,0.8729547232174397,0.012041682459539866
0.003023529052734375,9.840544246062987e-05,0.003722524642944336,0.006549445650236361,2.251,balanced,1185,0.050000010000000004,"{'SVM__C': 2.251, 'SVM__class_weight': 'balanced', 'SVM__max_iter': 1185, 'SVM__tol': 0.050000010000000004}",0.7969924812030075,0.7828164160401003,0.8804041353383459,0.8982612781954887,0.8710289236605027,0.8458708740477107,0.046785461032605946,52,0.8824031555398565,0.8858471682562111,0.8646826798539974,0.8536294595549274,0.8782111528822055,0.8729547232174397,0.012041682459539866
0.017791080474853515,0.012193546071229853,0.0004957199096679687,3.5409581906754796e-05,2.251,balanced,1185,0.06000001,"{'SVM__C': 2.251, 'SVM__class_weight': 'balanced', 'SVM__max_iter': 1185, 'SVM__tol': 0.06000001}",0.7969924812030075,0.7828164160401003,0.8804041353383459,0.8982612781954887,0.8710289236605027,0.8458708740477107,0.046785461032605946,52,0.8824031555398565,0.8858471682562111,0.8646826798539974,0.8536294595549274,0.8782111528822055,0.8729547232174397,0.012041682459539866
0.005551767349243164,0.005738674028781392,0.00047411918640136717,3.757422345149189e-05,2.251,balanced,1185,0.07000001,"{'SVM__C': 2.251, 'SVM__class_weight': 'balanced', 'SVM__max_iter': 1185, 'SVM__tol': 0.07000001}",0.8100720551378446,0.7828164160401003,0.8713189223057644,0.9068765664160401,0.8620199146514936,0.846602529484015,0.04448595906681571,39,0.8912633933827859,0.8858471682562111,0.8602525609325327,0.8513923230896031,0.8725916353383459,0.8722694161998957,0.015003254130705733
0.0026804447174072266,0.00020279658419680192,0.005816507339477539,0.010743715835978567,2.251,balanced,1185,0.08000001,"{'SVM__C': 2.251, 'SVM__class_weight': 'balanced', 'SVM__max_iter': 1185, 'SVM__tol': 0.08000001}",0.8100720551378446,0.7915883458646618,0.8713189223057644,0.9068765664160401,0.8620199146514936,0.8483589941052836,0.04203863541244861,17,0.8912633933827859,0.8747497939479574,0.8602525609325327,0.8513923230896031,0.8725916353383459,0.8700499413382451,0.013584216960248375
0.0025603771209716797,0.00010037926187796061,0.00046091079711914064,1.3619023533501295e-05,2.251,balanced,1185,0.09000000999999999,"{'SVM__C': 2.251, 'SVM__class_weight': 'balanced', 'SVM__max_iter': 1185, 'SVM__tol': 0.09000000999999999}",0.8100720551378446,0.7915883458646618,0.8713189223057644,0.9068765664160401,0.8620199146514936,0.8483589941052836,0.04203863541244861,17,0.8912633933827859,0.8747497939479574,0.8602525609325327,0.8513923230896031,0.8725916353383459,0.8700499413382451,0.013584216960248375
