,0,1,2,3,4
0.001,0.7504378350974759,0.7418021138985759,0.7445040173290522,0.7394285867912064,0.7419493344783169
0.101,0.7471099042907839,0.7532760819135698,0.749852134638133,0.745145407340267,0.7506593878427283
0.201,0.7469735609051664,0.7534124252991873,0.749852134638133,0.745145407340267,0.7515717966018525
0.30100000000000005,0.7480239810732338,0.7534124252991873,0.749852134638133,0.7431809103897501,0.7515717966018525
0.401,0.7480239810732338,0.7534124252991873,0.749852134638133,0.7431809103897501,0.7515717966018525
0.501,0.7480239810732338,0.7534124252991873,0.749852134638133,0.7431809103897501,0.7515717966018525
0.6010000000000001,0.7480239810732338,0.7534124252991873,0.749852134638133,0.7431809103897501,0.7515717966018525
0.7010000000000001,0.7480239810732338,0.7534124252991873,0.749852134638133,0.7431809103897501,0.7515717966018525
0.801,0.7480239810732338,0.7534124252991873,0.749852134638133,0.7440949871721997,0.7515717966018525
0.901,0.7480239810732338,0.7534124252991873,0.749852134638133,0.7440949871721997,0.7515717966018525
1.001,0.7480239810732338,0.7534124252991873,0.749852134638133,0.7440949871721997,0.7515717966018525
1.101,0.7480239810732338,0.7534124252991873,0.749852134638133,0.7440949871721997,0.7515717966018525
1.201,0.7480239810732338,0.7534124252991873,0.749852134638133,0.7440949871721997,0.7515717966018525
1.301,0.7480239810732338,0.7534124252991873,0.749852134638133,0.7440949871721997,0.7515717966018525
1.401,0.7480239810732338,0.7534124252991873,0.749852134638133,0.7440949871721997,0.7515717966018525
1.501,0.7480239810732338,0.7534124252991873,0.749852134638133,0.7440949871721997,0.7515717966018525
1.601,0.7480239810732338,0.7534124252991873,0.749852134638133,0.7440949871721997,0.7515717966018525
1.701,0.7480239810732338,0.7534124252991873,0.749852134638133,0.7440949871721997,0.7515717966018525
1.801,0.7480239810732338,0.7534124252991873,0.749852134638133,0.7440949871721997,0.7515717966018525
1.901,0.7480239810732338,0.7534124252991873,0.749852134638133,0.7440949871721997,0.7515717966018525
2.001,0.7480239810732338,0.7534124252991873,0.749852134638133,0.7440949871721997,0.7515717966018525
2.101,0.7480239810732338,0.7534124252991873,0.749852134638133,0.7440949871721997,0.7515717966018525
2.201,0.7480239810732338,0.7534124252991873,0.749852134638133,0.7440949871721997,0.7515717966018525
2.301,0.7480239810732338,0.7534124252991873,0.749852134638133,0.7440949871721997,0.7515717966018525
2.4010000000000002,0.7480239810732338,0.7534124252991873,0.749852134638133,0.7440949871721997,0.7515717966018525
