,train,test
0.1,0.009459799999945062,0.023191599999972824
0.2,0.017238599999973302,0.0036904000000049565
0.3,0.02270059999998466,0.01869179999998778
0.4,0.02522900000003574,0.021555400000011105
0.5,0.02769020000000637,0.018506000000002132
0.6,0.03440579999999045,0.013479999999981373
0.7,0.03544859999999517,0.01146840000001248
0.8,0.0390386000000035,0.002386799999999312
0.9,0.04535180000000309,0.0020090000000436703
