k,QSAR sse (left)
2,26962.797854200307
3,24961.214898258382
4,23241.897275825468
5,21535.90983996757
6,20191.80705405531
7,19118.621680679058
8,18238.329461373512
9,17567.111644438843
10,16591.49734833092
15,13672.894257332968
20,11426.166737714793
25,10153.625195076069
30,9063.553686861002
35,8334.580986314635
40,7802.08556122892
