k,Wine Quality sse (left)
2,10055.22722872655
3,8880.14390424713
4,7883.198027009784
5,7054.899128929089
6,6454.650728519948
7,5942.891323883694
8,5709.302877794881
9,5461.11603172826
10,5287.423495750732
15,4607.67187476328
20,4143.959600263446
25,3746.2796304757876
30,3468.8735465113964
35,3249.1725097344643
40,3055.8965656603086
