,x,y,target
0,-42.72920608520508,13.233745574951172,0.0
1,-12.440628051757812,23.335918426513672,1.0
2,-38.92645263671875,13.335451126098633,1.0
3,14.783434867858887,37.12105178833008,1.0
4,22.717262268066406,14.1982421875,1.0
5,1.7678250074386597,-31.75340461730957,0.0
6,7.465702056884766,18.163066864013672,1.0
7,19.500118255615234,-7.193857192993164,1.0
8,-27.95620346069336,28.867733001708984,1.0
9,18.301666259765625,-17.706466674804688,0.0
10,31.305837631225586,7.2310872077941895,1.0
11,-29.230297088623047,32.62099075317383,1.0
12,21.10801887512207,-11.332099914550781,1.0
13,-31.43770408630371,-6.345254421234131,0.0
14,7.204380035400391,4.999937057495117,1.0
15,16.884971618652344,-27.530794143676758,0.0
16,-22.33036231994629,33.20751190185547,1.0
17,27.464603424072266,-10.40177059173584,1.0
18,19.8104248046875,-4.440650939941406,1.0
19,-12.269707679748535,-23.107982635498047,0.0
20,34.29384994506836,-26.461191177368164,0.0
21,0.783061146736145,-14.976637840270996,0.0
22,4.829476356506348,-25.470277786254883,1.0
23,23.137752532958984,-35.51898956298828,1.0
24,5.237330913543701,30.045230865478516,1.0
25,-11.445440292358398,22.74394989013672,1.0
26,-26.70686912536621,28.309253692626953,1.0
27,-3.6790974140167236,40.35205841064453,1.0
28,-9.208660125732422,25.28084373474121,1.0
29,-10.331782341003418,18.981582641601562,0.0
30,-39.73287582397461,14.709102630615234,0.0
31,-8.197181701660156,24.849884033203125,0.0
32,14.755876541137695,2.10601544380188,1.0
33,-7.487433910369873,37.993865966796875,1.0
34,19.632036209106445,-33.14753723144531,0.0
35,-34.5386848449707,-4.109914302825928,1.0
36,-33.84553527832031,-9.805240631103516,0.0
37,-21.30426788330078,40.772918701171875,0.0
38,32.77326202392578,-22.03885841369629,1.0
39,-9.512797355651855,27.86054229736328,1.0
40,7.193717956542969,11.48447322845459,0.0
41,8.504047393798828,15.172181129455566,1.0
42,-6.983043193817139,27.662370681762695,1.0
43,32.67382049560547,-22.853111267089844,1.0
44,-31.75958251953125,-6.455256462097168,0.0
45,9.99100112915039,-13.947628021240234,0.0
46,40.53193664550781,2.0893163681030273,0.0
47,23.01280403137207,-27.015832901000977,0.0
48,3.955368995666504,-17.508779525756836,1.0
49,14.988141059875488,-27.857358932495117,1.0
50,-9.383454322814941,-37.12871170043945,0.0
51,-6.389407634735107,31.577342987060547,1.0
52,-21.1849365234375,32.148258209228516,1.0
53,-17.55318260192871,40.653167724609375,1.0
54,7.279594898223877,25.73595428466797,1.0
55,-1.7652603387832642,-16.605247497558594,1.0
56,-17.697240829467773,14.011727333068848,0.0
57,-15.250577926635742,22.54693031311035,1.0
58,-17.882305145263672,16.373018264770508,1.0
59,-22.817699432373047,-4.767909049987793,1.0
60,-16.50174903869629,23.84296226501465,0.0
61,-17.69727897644043,14.012478828430176,0.0
62,-8.418556213378906,39.15909957885742,1.0
63,5.112086296081543,-39.13070297241211,0.0
64,11.508621215820312,22.704479217529297,1.0
65,-25.27414321899414,23.616453170776367,0.0
66,-12.638577461242676,8.720805168151855,0.0
67,-7.969458103179932,-14.118782997131348,0.0
68,9.201974868774414,-0.7278372049331665,1.0
69,-7.990103244781494,-14.458878517150879,0.0
70,-11.135476112365723,28.37828254699707,1.0
71,-20.107898712158203,-6.039505958557129,0.0
72,44.445247650146484,1.1056702136993408,1.0
73,-10.390819549560547,21.907562255859375,1.0
74,-20.01997947692871,-10.441344261169434,0.0
75,27.283687591552734,1.508694052696228,1.0
76,38.223052978515625,10.059954643249512,1.0
77,-1.8175040483474731,42.95036315917969,1.0
78,-29.42897605895996,38.34102249145508,0.0
79,-38.74923324584961,-10.125632286071777,1.0
80,1.851420521736145,2.609137535095215,1.0
81,-10.145033836364746,16.942888259887695,0.0
82,19.588476181030273,-13.71406364440918,1.0
83,11.657257080078125,-37.387054443359375,0.0
84,33.219032287597656,1.5785572528839111,0.0
85,13.113585472106934,-39.81182098388672,0.0
86,-7.851898193359375,20.240205764770508,1.0
87,-12.08240795135498,-25.789459228515625,0.0
88,9.231101036071777,-31.280607223510742,0.0
89,14.542708396911621,-27.093332290649414,0.0
90,27.300228118896484,-11.619974136352539,1.0
91,-0.21847306191921234,-25.660327911376953,1.0
92,0.2930600345134735,3.0724661350250244,1.0
93,-19.14519691467285,23.435684204101562,0.0
94,37.954532623291016,0.0518454946577549,1.0
95,-7.542463779449463,8.061178207397461,1.0
96,-26.10914421081543,31.35761260986328,1.0
97,25.016807556152344,-32.74846649169922,0.0
98,21.42823028564453,6.219181060791016,1.0
99,30.38379669189453,-3.5879158973693848,0.0
100,-3.036057710647583,-13.369805335998535,0.0
101,5.6201348304748535,28.44679832458496,1.0
102,10.094910621643066,-34.96354675292969,0.0
103,24.179147720336914,-30.93636703491211,0.0
104,-3.686772584915161,-17.980932235717773,1.0
105,-33.24393081665039,-9.882400512695312,0.0
106,-20.893964767456055,26.084217071533203,1.0
107,31.06005859375,-4.648759841918945,1.0
108,-18.427289962768555,33.59405517578125,0.0
109,-8.602790832519531,1.2280125617980957,0.0
110,-42.41404724121094,12.40277099609375,0.0
111,-35.51361083984375,15.839707374572754,1.0
112,4.986316680908203,-30.693706512451172,0.0
113,-7.092075347900391,-33.08098602294922,0.0
114,-24.414810180664062,25.574462890625,1.0
115,-23.090599060058594,25.505624771118164,1.0
116,-16.747774124145508,-5.725146770477295,1.0
117,-8.546953201293945,4.387347221374512,0.0
118,-26.52865982055664,-22.288084030151367,0.0
119,5.0308709144592285,-38.196449279785156,0.0
120,11.170022010803223,-36.803157806396484,0.0
121,9.999163627624512,-19.900604248046875,1.0
122,27.596309661865234,-17.129297256469727,0.0
123,5.78010368347168,-37.80094528198242,0.0
124,-0.947223424911499,-11.678446769714355,0.0
125,-25.240325927734375,-27.431415557861328,0.0
126,-8.5074462890625,1.0501128435134888,1.0
127,7.220643043518066,1.8064334392547607,0.0
128,-10.804648399353027,28.31183433532715,1.0
129,-7.890086650848389,-6.177148342132568,1.0
130,-27.445646286010742,37.2711296081543,0.0
131,-13.137251853942871,-34.53089904785156,0.0
132,8.704607963562012,1.0773146152496338,1.0
133,5.780957221984863,-37.80105972290039,0.0
134,4.140547275543213,22.773923873901367,1.0
135,5.606734275817871,-33.60160827636719,0.0
136,11.57950496673584,-21.56534194946289,0.0
137,-23.195096969604492,-5.475224494934082,1.0
138,-18.767698287963867,-12.791878700256348,0.0
139,15.293980598449707,-13.195794105529785,0.0
140,8.993818283081055,5.333214282989502,1.0
141,-23.090869903564453,25.505311965942383,1.0
142,-15.19434928894043,24.570810317993164,1.0
143,-28.60503387451172,36.398860931396484,0.0
144,-1.487815022468567,19.3807430267334,1.0
145,2.6834659576416016,-1.9030190706253052,0.0
146,1.1880172491073608,12.909416198730469,1.0
147,38.04269790649414,4.146291732788086,1.0
148,-1.5125163793563843,-34.03742980957031,0.0
149,-10.130766868591309,-24.04582977294922,0.0
150,4.708332538604736,-37.39394760131836,1.0
151,-1.5054872035980225,-14.893423080444336,0.0
152,-13.620898246765137,-25.140016555786133,0.0
153,-25.351001739501953,-23.517406463623047,0.0
154,3.703589677810669,-25.32818603515625,1.0
155,19.089923858642578,-13.72971248626709,1.0
156,-20.25929832458496,39.63359069824219,1.0
157,-18.771743774414062,-5.684805870056152,0.0
158,40.68595886230469,-1.2826753854751587,0.0
159,4.896798610687256,-12.442803382873535,1.0
160,-6.182950973510742,-11.788886070251465,0.0
161,-21.089956283569336,-27.235868453979492,1.0
162,-26.682153701782227,36.80655288696289,1.0
163,-11.859272003173828,30.414033889770508,1.0
164,-38.829978942871094,-9.348092079162598,0.0
165,-9.076709747314453,-11.642473220825195,0.0
166,-6.045135021209717,30.73040008544922,1.0
167,-11.806262016296387,12.24367904663086,1.0
168,17.15740966796875,-7.606786251068115,0.0
169,-0.6313385367393494,1.1100866794586182,0.0
170,17.584230422973633,-13.876180648803711,1.0
171,-6.234986305236816,24.068151473999023,1.0
172,25.676918029785156,2.8914995193481445,1.0
173,-3.483884334564209,4.682677268981934,1.0
174,-37.9102783203125,-6.808030605316162,1.0
175,-29.680936813354492,-1.9781742095947266,0.0
176,-26.258445739746094,-24.682043075561523,0.0
177,-34.6718864440918,16.09331703186035,0.0
178,10.739072799682617,25.5115909576416,1.0
179,-33.13459396362305,-4.523479461669922,0.0
180,-7.11229944229126,-14.921381950378418,0.0
181,7.692354202270508,-6.880973815917969,0.0
182,44.53986358642578,5.017632961273193,1.0
183,-24.327926635742188,-20.388751983642578,0.0
184,-2.1440024375915527,2.832542657852173,0.0
185,25.50156593322754,5.825057029724121,1.0
186,34.432044982910156,5.837385654449463,1.0
187,-3.871274948120117,25.62763786315918,1.0
188,-20.801515579223633,-20.904870986938477,0.0
189,-34.470306396484375,14.730010032653809,1.0
190,28.489412307739258,-5.322457790374756,1.0
191,12.328693389892578,21.355388641357422,1.0
192,-27.686979293823242,-25.896207809448242,0.0
193,-6.485927104949951,-8.329340934753418,0.0
194,2.4377291202545166,-17.608808517456055,0.0
195,6.347481727600098,-1.3561524152755737,0.0
196,14.180950164794922,4.018233299255371,1.0
197,20.227670669555664,-14.960933685302734,1.0
198,13.773175239562988,-32.63483810424805,0.0
199,6.899690628051758,-24.55275535583496,0.0
200,-18.89812469482422,-7.300800323486328,0.0
201,4.68678092956543,1.430715799331665,1.0
202,-18.849851608276367,-0.6743496656417847,0.0
203,28.049938201904297,-3.3113222122192383,1.0
204,23.592226028442383,-33.26051712036133,0.0
205,2.3450725078582764,1.7842588424682617,0.0
206,2.1597201824188232,-37.26795959472656,0.0
207,5.16451358795166,2.2855477333068848,0.0
208,5.54901123046875,32.22280502319336,1.0
209,20.528038024902344,-31.098573684692383,1.0
210,39.63429260253906,0.48248037695884705,0.0
211,-8.672942161560059,-11.370850563049316,1.0
212,30.563703536987305,-1.9951307773590088,0.0
213,37.437889099121094,-6.334624290466309,0.0
214,4.904658794403076,36.66118621826172,1.0
215,29.592782974243164,-10.475415229797363,1.0
216,6.45938777923584,10.1323823928833,1.0
217,-5.943637371063232,44.150142669677734,1.0
218,-18.530044555664062,9.156610488891602,1.0
219,6.926577091217041,12.655104637145996,1.0
220,35.593421936035156,9.538808822631836,1.0
221,16.302671432495117,30.576221466064453,1.0
222,-0.9122120141983032,3.645509719848633,0.0
223,23.15028190612793,14.219654083251953,1.0
224,9.712179183959961,-20.624788284301758,1.0
225,-16.292659759521484,29.13632583618164,1.0
226,9.11881160736084,-29.71505355834961,0.0
227,-14.146456718444824,-17.288583755493164,0.0
228,15.554427146911621,36.4494743347168,1.0
229,10.769808769226074,-29.13548469543457,0.0
230,41.204952239990234,6.3885087966918945,1.0
231,24.283069610595703,0.5745372772216797,1.0
232,14.83151912689209,34.40228271484375,1.0
233,-2.4222381114959717,0.8267146944999695,0.0
234,-10.082914352416992,-37.6854133605957,1.0
235,26.470415115356445,-15.182565689086914,0.0
236,7.2043938636779785,5.000168800354004,1.0
237,35.892181396484375,-1.4000731706619263,1.0
238,30.163143157958984,-26.388763427734375,0.0
239,-3.139202356338501,-9.64829158782959,0.0
240,10.778088569641113,-17.27420425415039,1.0
241,-21.910091400146484,-22.743009567260742,0.0
242,29.472492218017578,-16.909122467041016,0.0
243,-16.763626098632812,-7.922100067138672,0.0
244,-35.49786376953125,15.840812683105469,1.0
245,-3.9734320640563965,17.098342895507812,0.0
246,6.4693074226379395,-15.12093448638916,1.0
247,20.880142211914062,-8.329734802246094,1.0
248,17.96123504638672,34.422813415527344,1.0
249,42.00345230102539,4.844446182250977,1.0
250,-3.7065322399139404,-16.241737365722656,1.0
251,13.251147270202637,15.855642318725586,0.0
252,12.403733253479004,-22.65353775024414,1.0
253,44.39350891113281,2.0797359943389893,1.0
254,-38.70871353149414,10.62491512298584,0.0
255,24.0172061920166,-28.194204330444336,1.0
256,-20.438556671142578,31.039602279663086,1.0
257,10.438514709472656,22.237377166748047,1.0
258,5.708133220672607,12.023990631103516,1.0
259,-6.659417152404785,34.158409118652344,1.0
260,-16.830991744995117,-32.44395446777344,0.0
261,-16.33357048034668,-27.446104049682617,0.0
262,0.9447283744812012,-20.205055236816406,1.0
263,-12.920217514038086,21.164308547973633,1.0
264,-17.318822860717773,29.275400161743164,1.0
265,-3.7417194843292236,-21.528564453125,0.0
266,-8.068848609924316,20.458545684814453,1.0
267,-27.698972702026367,-25.945980072021484,0.0
268,31.946609497070312,7.992619514465332,1.0
269,7.082213401794434,32.48504638671875,1.0
270,8.414709091186523,3.5412774085998535,1.0
271,25.445554733276367,-17.347509384155273,0.0
272,-6.394009113311768,31.57770347595215,1.0
273,-1.6973183155059814,-7.566644191741943,0.0
274,34.43907165527344,-13.038058280944824,1.0
275,24.315092086791992,-11.009140014648438,1.0
276,-31.845876693725586,35.732486724853516,0.0
277,-17.37421417236328,-29.86381721496582,0.0
278,7.358310222625732,-14.454530715942383,0.0
279,6.376077175140381,3.7160091400146484,0.0
280,-11.127096176147461,0.006041748449206352,0.0
281,-16.660808563232422,3.774733543395996,1.0
282,-28.32555389404297,-19.281986236572266,0.0
283,-30.044824600219727,-15.9956636428833,0.0
284,-26.435298919677734,44.38129425048828,1.0
285,2.1936187744140625,-29.55394744873047,0.0
286,-17.906248092651367,-18.34257698059082,0.0
287,38.33896255493164,-7.7899956703186035,0.0
288,34.48680877685547,-6.659677505493164,1.0
289,30.334976196289062,-20.100582122802734,0.0
290,-26.90151596069336,25.812583923339844,1.0
291,-0.5083156824111938,34.709449768066406,1.0
292,-2.6244540214538574,43.77037048339844,0.0
293,14.524356842041016,33.145938873291016,1.0
294,44.60065460205078,5.799471855163574,1.0
295,30.72150230407715,6.71187686920166,1.0
296,1.242109775543213,33.88386917114258,1.0
297,-38.78400802612305,-7.390929222106934,0.0
298,22.73029899597168,-19.686317443847656,0.0
299,-24.801435470581055,32.78045654296875,1.0
300,-20.402515411376953,33.09750747680664,1.0
301,-17.623199462890625,16.18494415283203,1.0
302,23.14415168762207,-30.394412994384766,0.0
303,-16.3410587310791,26.53001594543457,1.0
304,22.59706687927246,3.8547513484954834,1.0
305,-15.784934043884277,-22.698949813842773,1.0
306,18.90555763244629,-8.18577766418457,0.0
307,32.16622543334961,-20.9938907623291,1.0
308,-29.810222625732422,28.232324600219727,0.0
309,23.061738967895508,-23.237154006958008,0.0
310,21.926128387451172,-29.75674819946289,0.0
311,-21.624011993408203,-21.1348819732666,0.0
312,22.328428268432617,-3.2057032585144043,0.0
313,-12.638084411621094,8.72078800201416,0.0
314,-11.57255744934082,11.0625581741333,1.0
315,13.396540641784668,28.166309356689453,0.0
316,-5.943631649017334,44.150169372558594,1.0
317,8.08261775970459,17.28095245361328,1.0
318,-16.25265121459961,38.5259895324707,1.0
319,-5.253413200378418,-15.852191925048828,0.0
320,-22.988388061523438,35.789302825927734,1.0
321,28.17290687561035,-16.385578155517578,0.0
322,11.671416282653809,-12.283661842346191,0.0
323,9.332723617553711,-10.815000534057617,1.0
324,14.530506134033203,-31.06818962097168,0.0
325,-17.41830825805664,-6.501221179962158,0.0
326,3.0662856101989746,1.6941829919815063,0.0
327,7.602362632751465,-27.41848373413086,1.0
328,-7.634806156158447,-16.559431076049805,0.0
329,3.782728672027588,-35.79710006713867,0.0
330,-19.955184936523438,34.08894348144531,1.0
331,8.173145294189453,30.200368881225586,1.0
332,4.014454364776611,24.74044418334961,1.0
333,34.250396728515625,8.121709823608398,1.0
334,5.744059085845947,-17.929821014404297,1.0
335,-24.34199333190918,34.6497802734375,0.0
336,-26.733455657958984,39.95186233520508,1.0
337,15.008803367614746,2.2947585582733154,0.0
338,-44.529666900634766,13.847007751464844,0.0
339,30.44966697692871,-12.73550796508789,1.0
340,20.930103302001953,-1.6714848279953003,1.0
341,-7.295064449310303,2.6884658336639404,1.0
342,-4.066989898681641,-11.985448837280273,0.0
343,5.016741752624512,14.638958930969238,0.0
344,-38.256690979003906,15.039046287536621,0.0
345,35.884002685546875,3.086334466934204,1.0
346,-9.88795280456543,-29.146345138549805,0.0
347,-9.713933944702148,-17.735069274902344,1.0
348,-15.602005004882812,2.061866044998169,0.0
349,9.628447532653809,17.835607528686523,1.0
350,35.329097747802734,-17.22355079650879,0.0
351,-28.53815269470215,-20.50937843322754,0.0
352,-3.9157235622406006,24.21536636352539,1.0
353,-36.160831451416016,-8.00965404510498,1.0
354,-28.851655960083008,-25.74704933166504,0.0
355,15.348274230957031,-27.888952255249023,1.0
356,19.136445999145508,-14.148957252502441,1.0
357,3.062129020690918,-0.935863733291626,0.0
358,-2.648524284362793,40.501895904541016,1.0
359,36.01523971557617,8.33772087097168,1.0
360,-20.270395278930664,-24.8260555267334,1.0
361,-13.445405006408691,19.024932861328125,1.0
362,33.57803726196289,-12.617265701293945,0.0
363,-41.711090087890625,13.091818809509277,0.0
364,6.221896648406982,16.269371032714844,1.0
365,15.573830604553223,30.3353328704834,0.0
366,22.411766052246094,-29.519142150878906,0.0
367,-9.076687812805176,-11.642539024353027,0.0
368,25.016807556152344,-32.74846649169922,0.0
369,3.7806339263916016,22.262605667114258,1.0
370,-23.504335403442383,-7.962916851043701,1.0
371,11.887399673461914,35.247161865234375,1.0
372,-4.337672233581543,-6.413331508636475,0.0
373,5.501307964324951,-13.64864444732666,0.0
374,-23.23764419555664,-30.463134765625,1.0
375,5.87249755859375,33.916038513183594,1.0
376,10.6683349609375,-31.79744529724121,0.0
377,-13.483636856079102,38.45805358886719,1.0
378,-16.252674102783203,38.52607727050781,1.0
379,9.640475273132324,30.352298736572266,1.0
380,7.5510077476501465,-21.512588500976562,0.0
381,9.934036254882812,-29.324419021606445,0.0
382,-29.234411239624023,24.27489471435547,0.0
383,-19.296504974365234,33.21599197387695,1.0
384,-20.770278930664062,-8.507322311401367,1.0
385,-8.852302551269531,35.9322509765625,1.0
386,18.902084350585938,-12.9224271774292,1.0
387,4.425497531890869,8.137923240661621,1.0
388,-23.214229583740234,-31.315444946289062,0.0
389,6.890986442565918,2.1864044666290283,0.0
390,4.346185207366943,36.31282043457031,1.0
391,-20.486652374267578,7.5860795974731445,1.0
392,-11.553637504577637,11.047042846679688,0.0
393,7.122529983520508,14.582138061523438,1.0
394,28.781005859375,-13.802234649658203,1.0
395,-14.373625755310059,-20.850492477416992,1.0
396,-12.473737716674805,-28.637996673583984,0.0
397,-9.538946151733398,31.366872787475586,1.0
398,7.243716716766357,33.95730209350586,1.0
399,17.96128273010254,34.42275619506836,1.0
400,-22.61845588684082,-22.912906646728516,1.0
401,3.455949068069458,-12.078453063964844,0.0
402,7.882591724395752,-26.878799438476562,1.0
403,27.45707130432129,-11.618330955505371,1.0
404,14.71237564086914,-30.138736724853516,0.0
405,-26.055971145629883,35.66530990600586,1.0
406,-7.879877090454102,36.801544189453125,1.0
407,-35.80559158325195,-21.158533096313477,1.0
408,0.2721203565597534,-28.588823318481445,0.0
409,38.369956970214844,6.040077209472656,0.0
410,10.037069320678711,4.764631748199463,1.0
411,15.533764839172363,-10.906436920166016,1.0
412,28.287553787231445,-22.35135841369629,1.0
413,19.099206924438477,-25.013286590576172,0.0
414,-22.840272903442383,-11.978643417358398,1.0
415,-17.57684326171875,-25.28531265258789,1.0
416,7.563511848449707,-26.648876190185547,1.0
417,5.434839248657227,-36.3196907043457,1.0
418,-3.3012678623199463,-22.022693634033203,0.0
419,35.4035758972168,-16.416425704956055,1.0
420,-17.629653930664062,33.505226135253906,0.0
421,5.91108512878418,-16.808853149414062,0.0
422,27.25310707092285,-22.31822395324707,0.0
423,-10.01055908203125,39.52318572998047,1.0
424,-5.745793342590332,-7.164566516876221,0.0
425,-32.42311477661133,-11.978584289550781,0.0
426,33.127925872802734,0.1729506552219391,1.0
427,-18.258344650268555,35.5111083984375,1.0
428,4.694905757904053,6.743851184844971,0.0
429,-0.7206820845603943,-10.059887886047363,0.0
430,16.80509376525879,31.42791748046875,1.0
431,-7.911329746246338,19.930644989013672,1.0
432,10.62765884399414,2.7209701538085938,1.0
433,9.529923439025879,2.6398329734802246,0.0
434,-20.03557014465332,-27.28327751159668,0.0
435,-21.622480392456055,-35.70453643798828,0.0
436,8.173224449157715,30.200319290161133,1.0
437,-8.757716178894043,-16.31765365600586,0.0
438,-3.7700541019439697,32.84016036987305,1.0
439,-3.2221529483795166,-26.813732147216797,0.0
440,6.271223545074463,-2.8376545906066895,0.0
441,-3.9734320640563965,17.098342895507812,0.0
442,-29.42283058166504,38.07362365722656,1.0
443,-14.593095779418945,39.83425521850586,1.0
444,-16.917232513427734,-9.222574234008789,0.0
445,-36.982730865478516,-5.140038013458252,1.0
446,-9.20743179321289,-38.49652099609375,0.0
447,-9.834649085998535,-26.467010498046875,0.0
448,-3.274590015411377,34.11697769165039,1.0
449,32.99158477783203,-28.68720245361328,0.0
450,26.386152267456055,-21.848785400390625,1.0
451,5.048324108123779,-28.503049850463867,0.0
452,-4.871679306030273,21.94438362121582,0.0
453,-18.4130802154541,26.050941467285156,1.0
454,-24.451236724853516,29.363916397094727,1.0
455,-24.06700325012207,-27.970947265625,0.0
456,8.414679527282715,3.541224479675293,1.0
457,-11.871688842773438,12.903626441955566,0.0
458,-6.698272228240967,-32.97563552856445,0.0
459,21.706857681274414,-13.091175079345703,1.0
460,9.202234268188477,-32.28780746459961,0.0
461,31.03226089477539,-16.35054588317871,1.0
462,7.279808521270752,25.736724853515625,1.0
463,42.383575439453125,5.483455181121826,1.0
464,13.822083473205566,-13.526731491088867,0.0
465,-22.577531814575195,-26.378740310668945,0.0
466,-9.465706825256348,-17.557327270507812,0.0
467,30.466426849365234,-3.234919786453247,1.0
468,-12.884734153747559,-28.27906608581543,0.0
469,-4.299671173095703,-19.53322410583496,0.0
470,21.736013412475586,-3.1766390800476074,1.0
471,17.050371170043945,29.39423370361328,1.0
472,-9.75757884979248,-39.52857208251953,1.0
473,-28.732986450195312,5.213484287261963,1.0
474,-25.986526489257812,29.851329803466797,0.0
475,12.454107284545898,-38.16432571411133,1.0
476,31.458187103271484,0.46703076362609863,1.0
477,7.280591011047363,-26.881807327270508,1.0
478,24.4749755859375,-3.761049509048462,1.0
479,15.35935115814209,-20.44842529296875,0.0
480,3.2826693058013916,22.456281661987305,1.0
481,-3.159196615219116,39.23872756958008,1.0
482,9.125066757202148,-5.129980087280273,0.0
483,-30.558618545532227,-27.81595230102539,0.0
484,9.809635162353516,9.972282409667969,1.0
485,-35.80482482910156,-21.160690307617188,1.0
486,20.108190536499023,-26.271251678466797,1.0
487,31.700368881225586,-21.96471405029297,1.0
488,13.557632446289062,29.06226348876953,1.0
489,13.23043441772461,-23.030563354492188,0.0
490,-28.473426818847656,4.553489685058594,0.0
491,-18.694238662719727,31.83789825439453,1.0
492,-28.10295295715332,25.56525993347168,0.0
493,-10.581198692321777,-11.574089050292969,0.0
494,33.81629180908203,-21.761781692504883,1.0
495,14.92810344696045,-19.004133224487305,1.0
496,32.477352142333984,4.484976768493652,0.0
497,3.4133334159851074,-19.902999877929688,1.0
498,2.9548184871673584,2.4769062995910645,0.0
499,-2.825042486190796,-30.360441207885742,0.0
500,6.909890174865723,34.78614044189453,1.0
501,-28.536046981811523,33.85887908935547,1.0
502,8.16425895690918,19.48868179321289,1.0
503,-31.56015968322754,-6.503922939300537,0.0
504,7.795517444610596,-12.764168739318848,0.0
505,22.932289123535156,-23.044906616210938,0.0
506,8.463404655456543,37.68689727783203,1.0
507,3.9753336906433105,25.4033203125,0.0
508,-21.034923553466797,12.428831100463867,0.0
509,-18.476337432861328,-1.2296795845031738,0.0
510,-2.2958245277404785,-40.35288619995117,0.0
511,18.76177978515625,33.708580017089844,1.0
512,-14.277420043945312,-30.90485382080078,0.0
513,1.7378212213516235,13.980000495910645,1.0
514,-40.81740188598633,13.071030616760254,0.0
515,-28.056278228759766,-20.88261604309082,0.0
516,26.393861770629883,-4.3847761154174805,1.0
517,35.19460678100586,-1.4188178777694702,0.0
518,10.343167304992676,-22.503219604492188,1.0
519,34.19023895263672,4.242621898651123,1.0
520,-16.3501033782959,5.4436492919921875,1.0
521,24.19870948791504,-35.110755920410156,1.0
522,-43.405147552490234,12.755157470703125,1.0
523,31.058937072753906,-4.648596286773682,1.0
524,25.46101188659668,-9.880484580993652,1.0
525,-14.712045669555664,27.79790687561035,1.0
526,22.98015594482422,-11.656266212463379,1.0
527,0.7949617505073547,40.111961364746094,1.0
528,19.3640193939209,-26.66272735595703,1.0
529,-27.97509002685547,-14.312398910522461,1.0
530,-22.817699432373047,-4.767908573150635,1.0
531,-41.528839111328125,14.332526206970215,1.0
532,23.648916244506836,-33.46965789794922,0.0
533,33.95109176635742,7.115791320800781,0.0
534,-2.143988609313965,2.832568645477295,0.0
535,20.38794708251953,-14.779026985168457,1.0
536,14.868240356445312,-3.777473211288452,1.0
537,-28.933032989501953,33.29399108886719,1.0
538,16.443822860717773,35.51115798950195,1.0
539,28.193124771118164,6.5708794593811035,1.0
540,-31.613039016723633,-31.057523727416992,0.0
541,-14.380913734436035,27.170928955078125,1.0
542,38.22340393066406,10.06037425994873,1.0
543,-24.235599517822266,-27.218631744384766,0.0
544,9.603752136230469,26.112728118896484,1.0
545,-3.9668211936950684,-37.8721809387207,1.0
546,-30.10879135131836,-29.848024368286133,0.0
547,12.506797790527344,18.310501098632812,1.0
548,43.0064811706543,6.008708477020264,1.0
549,-30.115882873535156,-15.757620811462402,0.0
550,-0.1189468577504158,40.61737060546875,1.0
551,-6.640379428863525,-23.214824676513672,0.0
552,-32.663360595703125,-5.160743713378906,0.0
553,13.87156867980957,-15.622742652893066,1.0
554,-14.955204963684082,-21.59303855895996,0.0
555,-29.851032257080078,27.72504997253418,0.0
556,18.98516273498535,-25.683805465698242,0.0
557,-9.471681594848633,-28.956384658813477,0.0
558,3.48342227935791,-8.542654037475586,0.0
559,9.275492668151855,17.628854751586914,1.0
560,-5.579000473022461,25.37352180480957,1.0
561,3.1137852668762207,-36.36260986328125,0.0
562,3.050826072692871,-12.089003562927246,1.0
563,37.24966049194336,8.19536018371582,1.0
564,-3.215599775314331,43.5473747253418,1.0
565,6.0908589363098145,-28.99807357788086,0.0
566,39.59244918823242,-7.1663312911987305,1.0
567,-5.787625789642334,-13.889763832092285,0.0
568,19.710803985595703,-24.09159278869629,1.0
569,17.021774291992188,-21.947961807250977,0.0
570,-16.383718490600586,31.909231185913086,1.0
571,-21.246545791625977,-21.83829116821289,0.0
572,8.65151596069336,-22.209091186523438,0.0
573,-13.445547103881836,19.025056838989258,1.0
574,10.95103645324707,9.813433647155762,1.0
575,12.61706256866455,-20.045438766479492,0.0
576,-9.538881301879883,31.36697769165039,1.0
577,-6.285105228424072,-27.370412826538086,0.0
578,-15.338726043701172,-6.069276809692383,0.0
579,-6.420101642608643,26.17821502685547,1.0
580,0.353482186794281,-6.821056842803955,0.0
581,8.751965522766113,12.533461570739746,1.0
582,-19.286788940429688,-26.43363380432129,0.0
583,14.603342056274414,30.04490852355957,1.0
584,22.59706687927246,3.8547513484954834,1.0
585,4.621609687805176,30.858463287353516,1.0
586,19.272462844848633,-18.25302505493164,0.0
587,0.7418619990348816,-21.88862419128418,0.0
588,-10.171026229858398,-38.19189453125,1.0
589,13.119457244873047,32.58765411376953,1.0
590,37.98692321777344,-23.99078369140625,0.0
591,-25.08994483947754,-28.937835693359375,0.0
592,14.549793243408203,30.624988555908203,1.0
593,-27.918678283691406,26.35300064086914,1.0
594,-2.468982696533203,4.137937068939209,1.0
595,9.084181785583496,21.715599060058594,1.0
596,26.323223114013672,-3.3883204460144043,0.0
597,25.676973342895508,2.8911616802215576,1.0
598,22.54532814025879,-12.760560989379883,1.0
599,-42.1144905090332,13.63658618927002,0.0
600,-35.24320983886719,14.93680191040039,1.0
601,-37.91018295288086,-6.80759859085083,1.0
602,-12.483152389526367,40.415496826171875,1.0
603,7.665693283081055,37.11170959472656,1.0
604,-21.345273971557617,28.8914852142334,1.0
605,-9.856575012207031,35.9246826171875,1.0
606,22.925762176513672,-22.81157875061035,0.0
607,-7.544254779815674,29.894561767578125,1.0
608,-17.297780990600586,41.00469970703125,1.0
609,8.735610008239746,-32.733619689941406,0.0
610,10.320085525512695,37.7109489440918,1.0
611,-27.972869873046875,-14.310242652893066,1.0
612,24.4903564453125,-2.856894016265869,1.0
613,13.839280128479004,2.1691465377807617,0.0
614,7.555013656616211,-33.195396423339844,0.0
615,-30.53403091430664,-30.805509567260742,0.0
616,-13.92837905883789,-21.345745086669922,0.0
617,-4.158431529998779,15.10889720916748,0.0
618,3.918107271194458,26.96515655517578,1.0
619,-19.141101837158203,23.443265914916992,0.0
620,39.868770599365234,3.0036404132843018,0.0
621,33.21979904174805,1.5771052837371826,0.0
622,-20.27085304260254,-24.826980590820312,1.0
623,6.90983772277832,-12.137715339660645,1.0
624,-4.5277180671691895,1.9979352951049805,0.0
625,37.98691940307617,-23.99077796936035,0.0
626,13.076654434204102,-38.93718338012695,0.0
627,-1.316003680229187,25.084861755371094,1.0
628,-8.995054244995117,-38.00312042236328,0.0
629,-41.64046859741211,11.588293075561523,0.0
630,-4.278961658477783,-16.814151763916016,1.0
631,35.699459075927734,-13.002534866333008,0.0
632,11.221816062927246,21.68729019165039,1.0
633,-25.14481544494629,-27.791784286499023,0.0
634,31.445823669433594,-23.026700973510742,0.0
635,-8.624895095825195,-39.043758392333984,0.0
636,7.535501956939697,-19.056591033935547,1.0
637,7.691632270812988,-6.9979729652404785,1.0
638,24.28307342529297,0.5745373368263245,1.0
639,19.819997787475586,-29.38180923461914,1.0
640,19.983692169189453,-18.578115463256836,1.0
641,-21.974180221557617,26.024940490722656,0.0
642,-26.756717681884766,-22.698619842529297,0.0
643,-2.6816301345825195,27.926090240478516,1.0
644,-26.269996643066406,-17.100025177001953,0.0
645,-22.151700973510742,-28.133867263793945,0.0
646,6.246893405914307,-29.537948608398438,0.0
647,17.73204803466797,-18.517269134521484,0.0
648,-11.377415657043457,25.263410568237305,1.0
649,10.998210906982422,10.751555442810059,1.0
650,-9.952291488647461,37.261962890625,1.0
651,-30.78938865661621,-22.277528762817383,0.0
652,8.367189407348633,20.377477645874023,1.0
653,-16.33893394470215,40.354164123535156,1.0
654,39.23600769042969,1.4706695079803467,0.0
655,38.325958251953125,8.625272750854492,0.0
656,1.2671419382095337,-0.10835490375757217,0.0
657,1.257285714149475,-30.960750579833984,0.0
658,18.495594024658203,-29.070711135864258,1.0
659,11.215185165405273,-33.19441604614258,0.0
660,23.012821197509766,-27.015615463256836,0.0
661,-23.89221954345703,-20.004581451416016,0.0
662,4.986205577850342,-30.693649291992188,0.0
663,-0.4822446405887604,35.76206970214844,1.0
664,-0.11894684284925461,40.61737060546875,1.0
665,-21.215452194213867,13.078046798706055,0.0
666,4.334392547607422,5.597274303436279,1.0
667,-18.761913299560547,-13.151632308959961,0.0
668,-23.45067596435547,27.764944076538086,1.0
669,14.164749145507812,-24.2558650970459,1.0
670,-24.12077522277832,-25.665847778320312,0.0
671,-40.35726547241211,12.545771598815918,1.0
672,-13.315784454345703,38.22703170776367,1.0
673,-4.96193265914917,20.713428497314453,1.0
674,-27.271297454833984,37.70722198486328,1.0
675,-16.850811004638672,27.287439346313477,1.0
676,-6.182974338531494,-11.788853645324707,0.0
677,20.926834106445312,-1.678067684173584,1.0
678,-19.921039581298828,3.185652732849121,0.0
679,-4.208165168762207,33.656681060791016,1.0
680,-16.061767578125,-6.701150417327881,0.0
681,6.761053562164307,11.947993278503418,0.0
682,1.107988953590393,-29.290117263793945,0.0
683,8.770017623901367,-16.777048110961914,0.0
684,-6.387372016906738,-22.944875717163086,0.0
685,-9.590764045715332,-23.788305282592773,0.0
686,-13.968154907226562,-25.1678524017334,0.0
687,-4.258596897125244,22.804819107055664,1.0
688,9.302101135253906,18.33332061767578,1.0
689,17.148340225219727,-14.800741195678711,0.0
690,44.53985595703125,5.017632961273193,1.0
691,9.491426467895508,19.962135314941406,1.0
692,32.98490524291992,-28.689132690429688,0.0
693,-18.497562408447266,11.286087036132812,1.0
694,3.944737434387207,-11.470117568969727,0.0
695,-6.594734191894531,23.60161018371582,1.0
696,-7.459859371185303,8.019886016845703,0.0
697,8.357601165771484,-38.20287322998047,0.0
698,8.824071884155273,-29.08580207824707,0.0
699,16.286277770996094,-12.546829223632812,1.0
700,6.469324588775635,-15.120954513549805,1.0
701,0.7625737190246582,-22.312158584594727,0.0
702,30.103811264038086,-13.465258598327637,1.0
703,29.472436904907227,-16.909151077270508,0.0
704,24.244613647460938,-5.300466537475586,0.0
705,-16.492616653442383,-5.124759674072266,1.0
706,44.23404312133789,7.427003860473633,1.0
707,11.310653686523438,29.126340866088867,1.0
708,-18.26255226135254,9.545390129089355,1.0
709,14.85283374786377,-19.06699562072754,1.0
710,22.971643447875977,-30.575471878051758,0.0
711,-26.77100944519043,37.964351654052734,1.0
712,41.44124221801758,0.39654073119163513,1.0
713,-18.15641212463379,10.887140274047852,1.0
714,25.420429229736328,1.9475148916244507,1.0
715,-21.783180236816406,32.577919006347656,0.0
716,-3.943605422973633,13.4197998046875,1.0
717,-2.86286997795105,-12.776644706726074,1.0
718,11.059449195861816,17.576854705810547,1.0
719,4.9847331047058105,28.71593475341797,1.0
720,1.1880173683166504,12.909416198730469,1.0
721,30.75572967529297,-22.165746688842773,0.0
722,-24.752229690551758,32.39304733276367,1.0
723,-12.281998634338379,30.279582977294922,1.0
724,-8.854679107666016,19.928998947143555,1.0
725,-33.200958251953125,-2.928189992904663,0.0
726,-19.44365882873535,-30.246950149536133,0.0
727,33.66749572753906,3.6819705963134766,1.0
728,11.795732498168945,19.994531631469727,1.0
729,2.3531413078308105,1.3398429155349731,0.0
730,0.6087650060653687,-6.557846546173096,1.0
731,1.7026779651641846,-12.72380542755127,1.0
732,-21.03478240966797,12.428916931152344,0.0
733,-24.291954040527344,38.85938262939453,1.0
734,40.68605041503906,-1.2835614681243896,0.0
735,-9.544206619262695,1.7675251960754395,0.0
736,20.724746704101562,-31.056127548217773,1.0
737,31.785354614257812,4.424980163574219,1.0
738,-15.848993301391602,4.940296173095703,1.0
739,-24.414810180664062,25.574462890625,1.0
740,-10.028157234191895,29.423812866210938,0.0
741,-2.6873114109039307,34.790348052978516,1.0
742,-3.3097054958343506,6.408599376678467,1.0
743,-23.743961334228516,-22.523286819458008,0.0
744,25.54844093322754,-0.36602523922920227,1.0
745,22.98162269592285,-11.649073600769043,1.0
746,-29.891685485839844,-27.569664001464844,0.0
747,-0.8766091465950012,41.07830047607422,1.0
748,-26.036983489990234,-23.719484329223633,0.0
749,-35.123443603515625,-9.573236465454102,1.0
750,-28.344749450683594,-19.246047973632812,0.0
751,27.22561264038086,-1.4785257577896118,1.0
752,0.4397423565387726,-14.637319564819336,0.0
753,23.540485382080078,-34.30376434326172,0.0
754,23.90660285949707,2.863863468170166,1.0
755,22.650455474853516,-27.895936965942383,1.0
756,10.631546020507812,-33.70243453979492,0.0
757,37.077510833740234,-0.5379009246826172,1.0
758,-20.32097625732422,-8.055325508117676,1.0
759,15.080022811889648,-9.705133438110352,0.0
760,7.819141864776611,-8.666756629943848,1.0
761,-18.09792709350586,-27.305742263793945,0.0
762,15.4419584274292,28.80803680419922,1.0
763,-16.595829010009766,6.194397926330566,1.0
764,5.414241313934326,22.037094116210938,1.0
765,42.33478546142578,6.267623424530029,1.0
766,35.359031677246094,-15.049281120300293,1.0
767,-12.809142112731934,26.335264205932617,1.0
768,-6.177205562591553,4.195186138153076,0.0
769,-15.336859703063965,-28.843297958374023,1.0
770,35.4035758972168,-16.416425704956055,1.0
771,3.317688226699829,23.283863067626953,1.0
772,-7.467780113220215,-19.306781768798828,1.0
773,10.189287185668945,31.4501953125,1.0
774,-11.484736442565918,-23.13835906982422,0.0
775,20.577728271484375,-12.318462371826172,1.0
776,16.150737762451172,33.03495788574219,1.0
777,5.272040367126465,25.967599868774414,1.0
778,-8.434782028198242,25.64348030090332,1.0
779,30.533845901489258,-26.30013084411621,0.0
780,38.64768600463867,-7.410906791687012,0.0
781,-40.789100646972656,13.94705581665039,1.0
782,-25.274145126342773,23.616371154785156,0.0
783,6.890678405761719,7.940725803375244,0.0
784,-11.127095222473145,0.006041753105819225,0.0
785,0.27098047733306885,33.87188720703125,0.0
786,-31.533061981201172,-30.93461799621582,0.0
787,10.441720008850098,18.71837615966797,1.0
788,13.251147270202637,15.855642318725586,0.0
789,7.476916790008545,35.662376403808594,1.0
790,18.429039001464844,-26.157808303833008,0.0
791,-7.92110013961792,-38.17151641845703,0.0
792,13.773149490356445,-32.63490295410156,0.0
793,-3.1111361980438232,-31.222497940063477,0.0
794,36.14628219604492,6.905202865600586,1.0
795,-2.346268892288208,29.291637420654297,1.0
796,-39.5147590637207,11.256972312927246,0.0
797,-23.436161041259766,-24.275920867919922,0.0
798,6.695358753204346,0.4424739181995392,1.0
799,-17.067766189575195,-25.969675064086914,0.0
800,-5.211517810821533,35.238372802734375,1.0
801,11.017852783203125,-22.760452270507812,1.0
802,34.488372802734375,-17.555503845214844,0.0
803,-21.365358352661133,-17.123912811279297,0.0
804,2.4507181644439697,31.70211410522461,1.0
805,-38.427425384521484,-9.563204765319824,0.0
806,24.50664710998535,12.167638778686523,1.0
807,31.828344345092773,-1.7911291122436523,1.0
808,-16.082082748413086,12.139735221862793,1.0
809,24.918907165527344,-3.5342888832092285,1.0
810,11.520211219787598,-18.272705078125,0.0
811,-2.9621541500091553,30.16911506652832,1.0
812,-17.817941665649414,-26.274986267089844,0.0
813,-27.95620346069336,28.867733001708984,1.0
814,-29.801633834838867,28.22942352294922,0.0
815,27.031930923461914,-14.349069595336914,1.0
816,-26.43531036376953,44.38128662109375,1.0
817,-8.796354293823242,-7.00007963180542,1.0
818,12.566094398498535,-14.689849853515625,1.0
819,13.267617225646973,20.4793701171875,0.0
820,10.038740158081055,32.74895477294922,1.0
821,-19.28639793395996,-26.43526840209961,0.0
822,-21.77891731262207,30.88052749633789,0.0
823,15.880356788635254,-16.869216918945312,0.0
824,-6.561273097991943,-26.89663314819336,0.0
825,2.2116386890411377,4.544580459594727,0.0
826,24.3563289642334,-1.5899755954742432,1.0
827,7.66800594329834,3.689666271209717,0.0
828,-22.20612144470215,7.329653739929199,0.0
829,14.766432762145996,-17.365367889404297,1.0
830,-6.422208786010742,4.416152000427246,1.0
831,1.1892578601837158,27.313982009887695,1.0
832,14.918286323547363,-15.50497055053711,0.0
833,-0.7206211090087891,-10.060009956359863,0.0
834,3.3784353733062744,-25.89087677001953,0.0
835,-21.13776969909668,-16.911436080932617,0.0
836,8.133265495300293,33.12599182128906,1.0
837,37.08359909057617,-23.509336471557617,1.0
838,4.931255340576172,34.31260681152344,1.0
839,-13.97906494140625,-7.288054943084717,1.0
840,10.103419303894043,-25.33020782470703,1.0
841,3.35781192779541,7.173264503479004,0.0
842,-42.697452545166016,11.129020690917969,0.0
843,10.205037117004395,11.60973834991455,1.0
844,5.657824516296387,35.8355712890625,1.0
845,-27.7823543548584,-22.43368911743164,0.0
846,-25.75579261779785,27.465105056762695,1.0
847,-33.87961196899414,-12.066734313964844,0.0
848,-11.55855941772461,32.074684143066406,1.0
849,9.19601821899414,-6.111347675323486,0.0
850,8.777345657348633,35.55274200439453,1.0
851,13.843409538269043,-3.1792378425598145,0.0
852,-8.19564437866211,-38.84170150756836,0.0
853,-16.00230598449707,-3.5079143047332764,1.0
854,9.32744312286377,14.950824737548828,1.0
855,-26.40355110168457,26.19331169128418,0.0
856,9.809263229370117,9.972379684448242,1.0
857,-17.783342361450195,-5.133975028991699,1.0
858,22.29955291748047,-29.545391082763672,0.0
859,-3.667351245880127,28.015960693359375,1.0
860,-4.715368270874023,2.503476142883301,0.0
861,28.248275756835938,8.064607620239258,1.0
862,-30.362104415893555,-23.339237213134766,0.0
863,-10.914800643920898,-21.06433868408203,0.0
864,8.82406997680664,-24.746265411376953,1.0
865,-29.256519317626953,-0.6934322118759155,0.0
866,-22.61898422241211,24.58924102783203,0.0
867,11.775396347045898,-18.07323455810547,0.0
868,34.72344970703125,-4.364777088165283,0.0
869,7.699803352355957,37.766849517822266,1.0
870,-5.787625789642334,-13.889763832092285,0.0
871,35.1630973815918,7.050918102264404,1.0
872,-18.434919357299805,-22.24193572998047,0.0
873,-30.124441146850586,-28.268404006958008,0.0
874,7.741983890533447,26.017419815063477,1.0
875,9.63112735748291,35.53812026977539,1.0
876,27.92441749572754,-18.578990936279297,0.0
877,34.2508659362793,-0.2868081331253052,1.0
878,-21.279935836791992,6.669046878814697,0.0
879,11.246198654174805,20.51120948791504,1.0
880,-2.2958245277404785,-40.352882385253906,0.0
881,15.439817428588867,31.766881942749023,1.0
882,1.083682894706726,2.8043370246887207,1.0
883,-3.2886812686920166,-14.387063980102539,1.0
884,23.441341400146484,-15.605504989624023,1.0
885,12.571510314941406,-33.6989860534668,0.0
886,36.31604766845703,2.829176187515259,1.0
887,36.80697250366211,-15.139199256896973,0.0
888,-36.66442108154297,15.41511058807373,1.0
889,15.05247974395752,-3.8037853240966797,1.0
890,-9.993623733520508,20.19841766357422,0.0
891,-17.2535343170166,3.128995180130005,1.0
892,-18.380565643310547,26.131729125976562,1.0
893,17.157514572143555,-7.606766223907471,0.0
894,17.966379165649414,1.9684932231903076,1.0
895,-20.01997947692871,-10.44134521484375,0.0
896,7.545816421508789,-38.29252243041992,1.0
897,-7.337771892547607,-4.834385871887207,0.0
898,14.929255485534668,27.62791633605957,1.0
899,-33.551353454589844,-12.652973175048828,0.0
900,-13.54651165008545,20.610103607177734,0.0
901,34.43905258178711,-4.960058689117432,1.0
902,-22.3856143951416,23.14764976501465,0.0
903,5.218235015869141,28.296627044677734,1.0
904,-20.650278091430664,-10.789080619812012,0.0
905,-11.860260009765625,26.042299270629883,0.0
906,4.346354007720947,-13.851040840148926,1.0
907,34.85663604736328,-6.743344783782959,1.0
908,0.47038793563842773,-20.78531837463379,1.0
909,4.846208572387695,-7.927725791931152,0.0
910,-4.821179389953613,40.03872299194336,1.0
911,10.323556900024414,-26.36903190612793,1.0
912,-32.970298767089844,-8.876622200012207,0.0
913,32.34902572631836,0.22900328040122986,1.0
914,-37.91057205200195,-4.585839748382568,1.0
915,28.367467880249023,-10.50455093383789,1.0
916,10.777874946594238,-17.27464485168457,1.0
917,-43.42621612548828,11.584891319274902,1.0
918,37.336612701416016,3.5930967330932617,1.0
919,-24.16592788696289,29.337678909301758,0.0
920,-14.89130687713623,27.48591423034668,1.0
921,-9.544106483459473,1.7677546739578247,0.0
922,-7.890086650848389,-6.177148342132568,1.0
923,-28.882360458374023,-14.684080123901367,0.0
924,-20.846906661987305,35.81989288330078,1.0
925,-17.46186637878418,7.3922553062438965,0.0
926,-31.871198654174805,35.70393371582031,0.0
927,25.858898162841797,-18.066654205322266,1.0
928,-16.618175506591797,-27.11241340637207,0.0
929,-20.846904754638672,35.81995391845703,1.0
930,-13.693928718566895,27.83458137512207,1.0
931,3.8410661220550537,17.94278335571289,1.0
932,-0.2199334353208542,-25.664127349853516,1.0
933,17.851398468017578,30.38401985168457,0.0
934,1.375045657157898,32.481910705566406,1.0
935,-25.616775512695312,30.071001052856445,0.0
936,-15.303876876831055,-14.38064956665039,1.0
937,-32.99638748168945,-3.083165168762207,1.0
938,39.31105041503906,2.8657054901123047,1.0
939,-12.693893432617188,-16.688011169433594,0.0
940,11.188898086547852,-11.610942840576172,0.0
941,18.139766693115234,-30.373231887817383,0.0
942,-26.004119873046875,-16.83673667907715,0.0
943,-39.16886520385742,-9.880104064941406,1.0
944,37.1340217590332,10.88938045501709,0.0
945,-13.507261276245117,25.849754333496094,1.0
946,3.365283966064453,-8.6832275390625,0.0
947,35.37052536010742,-23.669429779052734,0.0
948,-23.16950225830078,32.6582145690918,0.0
949,-24.750368118286133,36.628379821777344,1.0
950,-20.107898712158203,-6.039505958557129,0.0
951,-29.532154083251953,-11.777349472045898,0.0
952,19.611530303955078,-12.057727813720703,0.0
953,-28.746084213256836,5.244068145751953,0.0
954,-23.408233642578125,36.52046585083008,0.0
955,-20.574735641479492,1.2754548788070679,0.0
956,39.0540771484375,-1.5085737705230713,0.0
957,-24.366657257080078,-21.679222106933594,0.0
958,-14.514293670654297,-14.471945762634277,0.0
959,12.659409523010254,-29.818174362182617,0.0
960,-4.299216270446777,-19.533082962036133,0.0
961,-10.144877433776855,16.942590713500977,0.0
962,6.459342956542969,10.132474899291992,1.0
963,17.74837875366211,-20.901487350463867,0.0
964,41.44066619873047,0.39652541279792786,1.0
965,12.038514137268066,15.945425987243652,1.0
966,-21.30426788330078,40.772918701171875,0.0
967,-17.371206283569336,37.89506149291992,0.0
968,-22.988388061523438,35.789302825927734,1.0
969,17.89291763305664,28.612585067749023,1.0
970,-18.775575637817383,42.23863983154297,0.0
971,-29.427675247192383,25.64663314819336,0.0
972,-22.668136596679688,-25.657867431640625,0.0
973,32.97177505493164,-21.299654006958008,0.0
974,27.226917266845703,1.5161771774291992,1.0
975,-16.830970764160156,-32.443992614746094,0.0
976,10.898645401000977,-9.249760627746582,0.0
977,14.342606544494629,36.333168029785156,1.0
978,-10.828125,-28.128015518188477,1.0
979,5.491676330566406,29.245155334472656,1.0
980,15.354134559631348,-26.089262008666992,0.0
981,14.83151912689209,34.40228271484375,1.0
982,12.333240509033203,33.95280075073242,1.0
983,-8.620499610900879,36.82780075073242,1.0
984,44.44729232788086,1.1131747961044312,1.0
985,9.797134399414062,35.12763595581055,1.0
986,8.934379577636719,18.161970138549805,1.0
987,4.933149814605713,17.81248664855957,1.0
988,28.505163192749023,-21.858394622802734,0.0
989,7.890069007873535,-15.350788116455078,0.0
990,24.135568618774414,3.808969736099243,1.0
991,11.478527069091797,13.319517135620117,1.0
992,2.1182620525360107,35.39897918701172,1.0
993,10.925798416137695,-11.952197074890137,0.0
994,-13.61826229095459,-22.61526870727539,1.0
995,-33.77338790893555,-9.253986358642578,0.0
996,8.47111701965332,34.7376823425293,1.0
997,6.228732585906982,-2.3850252628326416,0.0
998,9.586777687072754,-0.2605781853199005,1.0
999,-0.6317533850669861,1.1105167865753174,0.0
1000,23.288036346435547,4.84118127822876,1.0
1001,30.73615264892578,-21.575286865234375,0.0
1002,-24.1532039642334,40.139617919921875,1.0
1003,2.309298276901245,-9.186727523803711,0.0
1004,29.14021873474121,-3.603533983230591,1.0
1005,22.251880645751953,-14.090030670166016,1.0
1006,-24.018280029296875,-25.104766845703125,0.0
1007,-31.61096954345703,-28.534711837768555,0.0
1008,9.03349494934082,14.070197105407715,0.0
1009,8.717175483703613,-12.952425003051758,1.0
1010,0.6322673559188843,35.108707427978516,1.0
1011,3.783740282058716,-20.859039306640625,0.0
1012,-5.2534308433532715,-15.852252960205078,0.0
1013,-42.8823127746582,14.244726181030273,0.0
1014,8.64575481414795,-33.275421142578125,0.0
1015,15.679496765136719,-11.079395294189453,0.0
1016,-13.618170738220215,-22.615734100341797,1.0
1017,4.167522430419922,38.501365661621094,1.0
1018,10.888312339782715,-9.196125030517578,0.0
1019,-22.21330451965332,35.23092269897461,1.0
1020,-16.56984519958496,-29.59393882751465,0.0
1021,11.177878379821777,11.100451469421387,1.0
1022,13.834736824035645,-24.640811920166016,1.0
1023,-8.325297355651855,35.09201431274414,1.0
1024,-20.085664749145508,-23.35831642150879,0.0
1025,34.77838134765625,-23.273963928222656,0.0
1026,-15.040929794311523,5.726414680480957,1.0
1027,-3.139188289642334,-9.648327827453613,0.0
1028,14.165225982666016,26.572908401489258,0.0
1029,-18.671154022216797,-2.854288339614868,1.0
1030,-24.34199333190918,34.6497802734375,0.0
1031,13.755982398986816,27.352214813232422,0.0
1032,18.963125228881836,-8.366209983825684,0.0
1033,-17.85711669921875,28.395565032958984,1.0
1034,11.004463195800781,-29.50788116455078,0.0
1035,-29.861385345458984,-15.377970695495605,0.0
1036,12.464594841003418,-28.74321174621582,0.0
1037,13.393322944641113,30.87017822265625,1.0
1038,-5.71880578994751,-27.29107666015625,0.0
1039,22.93079376220703,14.93919563293457,1.0
1040,10.297351837158203,25.093061447143555,1.0
1041,-21.93844223022461,-11.25644302368164,0.0
1042,-28.788352966308594,0.18352897465229034,1.0
1043,-22.686328887939453,-33.71253967285156,0.0
1044,25.85533905029297,-2.498426675796509,1.0
1045,15.2902250289917,-27.460912704467773,1.0
1046,5.910902500152588,-16.808944702148438,0.0
1047,6.736998558044434,23.59881591796875,1.0
1048,-15.475565910339355,1.6552165746688843,0.0
1049,-1.3027839660644531,42.708744049072266,0.0
1050,11.570111274719238,-34.77686309814453,0.0
1051,-8.302780151367188,-37.764259338378906,0.0
1052,-15.335813522338867,-8.914138793945312,0.0
1053,23.137752532958984,-35.51899337768555,1.0
1054,-2.9681735038757324,17.66100311279297,1.0
1055,8.471996307373047,-12.216813087463379,0.0
1056,23.441631317138672,-15.605682373046875,1.0
1057,-16.501863479614258,23.84319305419922,0.0
1058,-0.8400962948799133,-28.462146759033203,1.0
1059,10.891286849975586,29.588726043701172,0.0
1060,22.92453956604004,1.0320794582366943,1.0
1061,4.334380626678467,5.597346782684326,1.0
1062,34.065975189208984,-28.14086151123047,0.0
1063,-1.1547231674194336,-34.09021759033203,0.0
1064,-28.2531681060791,1.0508698225021362,0.0
1065,-17.211366653442383,4.583401203155518,0.0
1066,-32.66318893432617,-5.160610675811768,0.0
1067,19.501190185546875,-31.28581428527832,1.0
1068,20.579021453857422,-12.318943977355957,1.0
1069,-39.69733810424805,10.686421394348145,0.0
1070,0.9301807880401611,33.711822509765625,1.0
1071,-6.838595390319824,35.195220947265625,0.0
1072,13.077171325683594,-3.8324272632598877,0.0
1073,0.06171267107129097,-6.9852519035339355,0.0
1074,-28.056697845458984,-11.795677185058594,1.0
1075,-13.449628829956055,-19.497148513793945,1.0
1076,15.248663902282715,18.28050422668457,1.0
1077,-6.3064093589782715,36.13783264160156,1.0
1078,-5.120275497436523,-19.3866024017334,0.0
1079,-4.776711463928223,-17.258956909179688,1.0
1080,-0.11600161343812943,-10.994746208190918,1.0
1081,27.13587760925293,-11.571810722351074,1.0
1082,-2.721494197845459,-19.397497177124023,1.0
1083,29.177078247070312,-12.644881248474121,1.0
1084,-11.558382987976074,32.07518768310547,1.0
1085,-29.366275787353516,-29.321901321411133,0.0
1086,-22.57229995727539,-34.24147033691406,0.0
1087,-3.608275890350342,19.520341873168945,0.0
1088,38.9259033203125,5.7286176681518555,1.0
1089,3.955375909805298,-17.50876808166504,1.0
1090,3.4131641387939453,-19.90326499938965,1.0
1091,-23.901559829711914,-27.553003311157227,0.0
1092,-22.86326789855957,-12.000713348388672,0.0
1093,-41.415252685546875,12.151981353759766,0.0
1094,-9.563301086425781,-14.67097282409668,0.0
1095,1.2506115436553955,1.7903761863708496,1.0
1096,12.899947166442871,29.67842674255371,1.0
1097,32.445167541503906,-25.689258575439453,0.0
1098,28.103927612304688,8.010278701782227,1.0
1099,-3.4876394271850586,42.09347152709961,1.0
1100,5.802225112915039,4.495551109313965,0.0
1101,-22.31976318359375,-34.5922966003418,0.0
1102,-18.47651481628418,-22.246034622192383,0.0
1103,-30.883766174316406,-22.297948837280273,0.0
1104,15.357967376708984,-26.089672088623047,0.0
1105,-15.334203720092773,-9.863435745239258,0.0
1106,-1.9213896989822388,-22.098644256591797,0.0
1107,-27.50676155090332,38.50752258300781,1.0
1108,-5.483644485473633,29.034669876098633,1.0
1109,-23.92701530456543,38.58289337158203,1.0
1110,-4.009846210479736,13.834525108337402,1.0
1111,8.805436134338379,-21.713947296142578,0.0
1112,-4.497187614440918,-10.092446327209473,0.0
1113,-17.710712432861328,-27.236156463623047,0.0
1114,34.98689270019531,-13.600953102111816,1.0
1115,22.864891052246094,0.3156469464302063,1.0
1116,35.72794723510742,5.076514720916748,1.0
1117,-13.985352516174316,26.171180725097656,1.0
1118,-9.085121154785156,32.18917465209961,1.0
