2,1.5011584624727705
3,1.462155090146802
4,8.85822475301196
5,11.497276956498926
6,10.68138818231296
7,10.899867830933553
8,12.264491284461576
9,12.067117207256162
10,11.7987792860504
15,11.219581001294035
20,11.219581001294035
25,11.219581001294035
30,11.219581001294035
35,11.219581001294035
40,11.219581001294035
45,11.219581001294035
50,11.219581001294035
55,11.219581001294035
60,11.219581001294035
