,x,y,target
0,-11.308475494384766,-12.386265754699707,0.0
1,-3.7650630474090576,-1.2146986722946167,0.0
2,21.66951560974121,-12.794559478759766,0.0
3,-0.8052489757537842,11.822264671325684,1.0
4,0.25676602125167847,16.118865966796875,0.0
5,-0.8490189909934998,6.827532768249512,1.0
6,-11.466792106628418,11.710938453674316,1.0
7,-22.285572052001953,11.670327186584473,1.0
8,21.402576446533203,-13.941802024841309,0.0
9,-16.298526763916016,7.4652018547058105,0.0
10,-19.58829689025879,4.986815929412842,0.0
11,13.526654243469238,2.9031054973602295,0.0
12,13.706770896911621,-10.584271430969238,0.0
13,17.939708709716797,-3.2474780082702637,0.0
14,29.50436782836914,-23.412195205688477,0.0
15,22.04779624938965,-13.43320083618164,0.0
16,-22.751230239868164,15.580156326293945,1.0
17,-4.766902446746826,4.15916633605957,1.0
18,-9.106660842895508,-12.084610939025879,0.0
19,-3.329108476638794,-6.008917808532715,0.0
20,-20.14894676208496,17.390851974487305,1.0
21,-24.655818939208984,11.455968856811523,1.0
22,13.777887344360352,-9.765089988708496,0.0
23,-8.424529075622559,-15.78209114074707,1.0
24,15.846758842468262,-15.922364234924316,0.0
25,20.437774658203125,-8.717977523803711,0.0
26,10.40934944152832,-8.540445327758789,0.0
27,-21.14904022216797,22.066326141357422,1.0
28,16.078582763671875,0.1864427775144577,0.0
29,0.7533913850784302,-12.926705360412598,0.0
30,-16.08684539794922,6.333362102508545,1.0
31,8.717777252197266,7.298341274261475,0.0
32,4.5785651206970215,2.122271776199341,1.0
33,21.417816162109375,-13.10509967803955,0.0
34,-0.3387563228607178,-11.889177322387695,0.0
35,-2.8753280639648438,13.998905181884766,1.0
36,-25.094640731811523,13.549105644226074,0.0
37,-24.83832550048828,20.914676666259766,0.0
38,1.622183084487915,-9.99411392211914,0.0
39,26.472387313842773,-19.734657287597656,0.0
40,-18.317523956298828,3.0825819969177246,1.0
41,28.72142791748047,-24.55885124206543,0.0
42,-10.732385635375977,5.066023349761963,1.0
43,-9.152070999145508,-14.800766944885254,0.0
44,-27.136837005615234,17.66322135925293,1.0
45,0.07853478938341141,12.861124992370605,1.0
46,-5.6927642822265625,-6.777232646942139,1.0
47,-8.485305786132812,17.818161010742188,0.0
48,-1.760993480682373,-3.307955741882324,0.0
49,1.1649929285049438,-13.484410285949707,1.0
50,-18.16092872619629,5.609994888305664,0.0
51,-19.359825134277344,12.997025489807129,1.0
52,-15.817023277282715,12.751158714294434,1.0
53,21.51917839050293,-10.929940223693848,0.0
54,12.305940628051758,-6.6811628341674805,0.0
55,12.23896598815918,9.706499099731445,0.0
56,4.978749752044678,-17.44449234008789,0.0
57,-19.77912139892578,16.067825317382812,1.0
58,-23.6751708984375,22.667325973510742,1.0
59,-6.940602779388428,7.832762241363525,0.0
60,5.151979446411133,-20.47342300415039,1.0
61,-4.691821575164795,-13.138128280639648,0.0
62,9.283784866333008,1.094741940498352,0.0
63,-10.215408325195312,19.83101463317871,0.0
64,8.70306396484375,-17.351070404052734,0.0
65,9.642805099487305,-15.395861625671387,0.0
66,8.829130172729492,1.9490991830825806,0.0
67,-6.941329002380371,22.545333862304688,0.0
68,-23.85314178466797,9.43936824798584,0.0
69,-21.69942283630371,13.95850658416748,0.0
70,-21.324718475341797,23.914461135864258,1.0
71,-1.359626054763794,13.684338569641113,1.0
72,7.824428081512451,3.9186298847198486,0.0
73,-15.552846908569336,13.934311866760254,1.0
74,17.333078384399414,-14.056526184082031,0.0
75,26.471569061279297,-18.5792293548584,1.0
76,13.900477409362793,-7.948204517364502,0.0
77,17.319580078125,-12.049842834472656,0.0
78,6.438348293304443,-3.742708206176758,0.0
79,5.598265171051025,-14.200666427612305,0.0
80,-18.19127082824707,16.041872024536133,0.0
81,16.906911849975586,-2.1195945739746094,0.0
82,19.154193878173828,0.8662551641464233,0.0
83,-24.62601089477539,9.863127708435059,1.0
84,28.30522346496582,-18.050870895385742,0.0
85,1.8935872316360474,12.193984985351562,0.0
86,-23.615903854370117,21.82808494567871,1.0
87,9.729897499084473,6.341763496398926,0.0
88,16.194787979125977,-1.1893260478973389,0.0
89,11.543389320373535,-14.250749588012695,0.0
90,-5.555172920227051,-14.697225570678711,0.0
91,-26.715105056762695,23.87643051147461,1.0
92,3.0879790782928467,3.3724780082702637,0.0
93,-9.662623405456543,-10.767467498779297,0.0
94,0.5958045125007629,-9.056968688964844,0.0
95,-6.098141193389893,-12.416431427001953,0.0
96,-11.237675666809082,9.496953010559082,0.0
97,27.902881622314453,-18.21283721923828,0.0
98,8.195091247558594,2.7197935581207275,1.0
99,-23.065839767456055,18.962345123291016,1.0
100,9.413822174072266,3.1944706439971924,0.0
101,-16.64759635925293,5.672318935394287,1.0
102,9.588081359863281,-14.006439208984375,0.0
103,-22.382518768310547,10.506537437438965,0.0
104,14.806093215942383,5.915481090545654,0.0
105,-19.279142379760742,4.3404364585876465,1.0
106,9.48078727722168,-7.719088077545166,0.0
107,-17.858732223510742,13.694591522216797,1.0
108,6.497066020965576,-13.689779281616211,0.0
109,-0.7237516045570374,16.45840835571289,0.0
110,-4.303671836853027,8.522028923034668,0.0
111,19.78717041015625,-9.24345588684082,0.0
112,-23.085283279418945,11.527032852172852,0.0
113,-18.93099021911621,15.243470191955566,0.0
114,3.8587896823883057,6.059863567352295,1.0
115,15.002201080322266,-0.5671715140342712,0.0
116,-10.364645957946777,8.294621467590332,1.0
117,-23.27608871459961,10.511453628540039,1.0
118,-6.245138645172119,-19.139589309692383,0.0
119,28.679386138916016,-23.907852172851562,0.0
120,1.8359590768814087,7.470388889312744,1.0
121,-10.811498641967773,5.524646759033203,1.0
122,-0.9974218606948853,-13.383060455322266,0.0
123,8.988061904907227,-17.855684280395508,0.0
124,4.174440383911133,6.166131019592285,1.0
125,5.764254093170166,-13.459124565124512,0.0
126,-7.770206928253174,-12.160075187683105,1.0
127,-11.30463695526123,6.19543981552124,0.0
128,-24.6702938079834,16.857011795043945,1.0
129,-1.2220040559768677,4.411574363708496,0.0
130,11.9928617477417,-5.569735050201416,0.0
131,17.128007888793945,-15.159551620483398,0.0
132,-5.371970176696777,6.3486223220825195,1.0
133,19.785491943359375,-2.6613664627075195,0.0
134,17.060874938964844,-14.35071849822998,0.0
135,0.4091099500656128,15.363621711730957,1.0
136,13.41308879852295,-1.7914708852767944,0.0
137,21.23930549621582,-13.86443042755127,0.0
138,10.921096801757812,-11.969208717346191,1.0
139,2.076253652572632,15.306376457214355,1.0
140,11.14620590209961,3.2223644256591797,0.0
141,-19.660661697387695,22.194530487060547,1.0
142,2.1777515411376953,0.2762649357318878,0.0
143,-5.10719108581543,-8.362685203552246,1.0
144,10.23236083984375,-14.268391609191895,0.0
145,16.474058151245117,-10.993453979492188,0.0
146,8.509108543395996,5.353383541107178,0.0
147,0.947245717048645,-1.9206162691116333,0.0
148,-6.445191383361816,6.539822578430176,1.0
149,-9.57217025756836,-13.861529350280762,0.0
150,13.652914047241211,-17.649314880371094,1.0
151,3.3533995151519775,-18.5604190826416,0.0
152,-15.732915878295898,7.14777946472168,1.0
153,-4.268338203430176,-2.727667808532715,1.0
154,4.014679908752441,9.17522144317627,1.0
155,-2.5001540184020996,-6.577077865600586,0.0
156,11.03832721710205,-0.10230129212141037,1.0
157,-20.735050201416016,17.78900146484375,0.0
158,10.624211311340332,-12.893145561218262,0.0
159,1.2755048274993896,1.5689315795898438,1.0
160,-6.081051826477051,5.282107830047607,0.0
161,2.5848276615142822,9.218276977539062,1.0
162,0.35074570775032043,3.129995346069336,0.0
163,-25.599241256713867,16.10720443725586,1.0
164,5.426042556762695,-18.539508819580078,0.0
165,13.43982219696045,-8.275941848754883,0.0
166,-21.545673370361328,14.341185569763184,0.0
167,-15.096771240234375,12.56193733215332,0.0
168,-2.596794843673706,18.35912322998047,0.0
169,0.20357224345207214,3.2967634201049805,0.0
170,29.36903190612793,-20.032115936279297,0.0
171,21.67654800415039,-10.054978370666504,0.0
172,-1.1839956045150757,-7.4263105392456055,1.0
173,-8.251550674438477,-16.458221435546875,0.0
174,-28.101654052734375,17.035625457763672,1.0
175,3.8703999519348145,-19.200780868530273,0.0
176,21.067171096801758,-11.356858253479004,0.0
177,9.123868942260742,4.50942325592041,0.0
178,29.467496871948242,-24.286836624145508,0.0
179,-6.397205829620361,22.83614730834961,0.0
180,-19.291494369506836,21.566648483276367,1.0
181,1.2147166728973389,14.94410514831543,0.0
182,3.2051517963409424,-19.294034957885742,0.0
183,-0.5582095980644226,-3.969175100326538,0.0
184,16.270488739013672,-5.254541873931885,0.0
185,29.1845760345459,-20.7879695892334,0.0
186,17.845991134643555,-10.7127103805542,0.0
187,-16.401409149169922,12.879587173461914,1.0
188,5.195475101470947,-11.933516502380371,0.0
189,-8.615346908569336,20.623319625854492,0.0
190,-7.83354377746582,6.781161308288574,1.0
191,0.5510075688362122,-14.934707641601562,1.0
192,-1.5392651557922363,-4.511185169219971,1.0
193,-9.409056663513184,-9.736641883850098,0.0
194,-25.20124626159668,21.572856903076172,1.0
195,3.9116358757019043,-18.513080596923828,0.0
196,11.826912879943848,-1.7341805696487427,0.0
197,-9.691340446472168,-13.02182674407959,1.0
198,-9.16558837890625,19.645917892456055,0.0
199,27.893796920776367,-20.230560302734375,0.0
200,16.226905822753906,-16.346105575561523,0.0
201,-22.6632080078125,21.318880081176758,1.0
202,7.811093807220459,-15.4559907913208,0.0
203,-6.091989994049072,-18.98006248474121,0.0
204,16.253456115722656,0.5794981718063354,0.0
205,5.488893032073975,-1.6875591278076172,0.0
206,-11.96875286102295,-12.889754295349121,0.0
207,-5.551236629486084,16.585086822509766,0.0
208,4.137814998626709,-20.437374114990234,0.0
209,-7.694895267486572,-15.464296340942383,0.0
210,11.500012397766113,3.231855869293213,0.0
211,2.245710849761963,9.569470405578613,1.0
212,-16.911706924438477,11.958999633789062,1.0
213,26.502300262451172,-21.02328872680664,0.0
214,7.724522113800049,-18.817304611206055,0.0
215,26.926929473876953,-19.84514617919922,0.0
216,14.373483657836914,5.308615684509277,0.0
217,-17.1822509765625,13.88332748413086,1.0
218,-27.78465461730957,16.385940551757812,1.0
219,7.2464189529418945,1.3604849576950073,1.0
220,9.432684898376465,-18.034378051757812,0.0
221,11.398387908935547,-8.295831680297852,0.0
222,10.666921615600586,-1.584111213684082,0.0
223,6.763803482055664,-18.15119743347168,0.0
224,16.650243759155273,-1.160475254058838,0.0
225,13.778310775756836,-9.839771270751953,0.0
226,-18.43958854675293,21.21647834777832,0.0
227,2.20881986618042,-8.558387756347656,0.0
228,-1.5891242027282715,14.497817039489746,0.0
229,-10.915170669555664,18.07319450378418,0.0
230,0.3690119981765747,6.343052864074707,0.0
231,-17.839385986328125,15.857298851013184,0.0
232,18.50973892211914,1.3740640878677368,0.0
233,3.037233829498291,2.2788851261138916,0.0
234,-7.227811336517334,-13.58877944946289,1.0
235,28.146610260009766,-24.477325439453125,0.0
236,12.196479797363281,2.515249490737915,0.0
237,19.15913963317871,-10.051466941833496,0.0
238,-24.98276138305664,22.35367774963379,1.0
239,-26.56634521484375,23.10729217529297,1.0
240,28.61380958557129,-20.806873321533203,0.0
241,4.281078338623047,-19.13511085510254,0.0
242,-18.45260238647461,22.04633903503418,0.0
243,12.706219673156738,-0.12618188560009003,0.0
244,19.61916160583496,-6.01309871673584,0.0
245,16.082176208496094,-17.488353729248047,0.0
246,-11.476534843444824,12.795941352844238,1.0
247,-14.415266036987305,10.7128267288208,1.0
248,-0.4984031617641449,-6.080942630767822,0.0
249,0.627893328666687,-3.3252599239349365,0.0
250,-5.237264633178711,-13.763994216918945,0.0
251,5.38737154006958,-2.963754177093506,0.0
252,-13.179983139038086,7.94072961807251,1.0
253,7.768696308135986,-1.8137331008911133,0.0
254,26.111753463745117,-20.287887573242188,0.0
255,28.637075424194336,-21.387279510498047,0.0
256,-5.609556198120117,7.6643147468566895,1.0
257,-11.327765464782715,-11.23662281036377,0.0
258,10.059325218200684,7.243764400482178,0.0
259,-23.098962783813477,23.406112670898438,1.0
260,2.812737226486206,10.683520317077637,0.0
261,-25.229267120361328,24.33653450012207,1.0
262,-23.253358840942383,24.5499324798584,1.0
263,12.56993293762207,0.24908067286014557,0.0
264,-23.87795639038086,20.013669967651367,0.0
265,3.543883800506592,2.220447301864624,0.0
266,15.94765853881836,3.219386100769043,0.0
267,-17.034046173095703,14.990947723388672,1.0
268,-26.04814338684082,24.033546447753906,1.0
269,13.631011009216309,-4.695579528808594,0.0
270,15.131125450134277,-15.846858024597168,0.0
271,-23.10639190673828,4.65607213973999,1.0
272,9.449176788330078,7.864955902099609,0.0
273,-22.338394165039062,16.636402130126953,1.0
274,-3.7366673946380615,-3.835714340209961,0.0
275,1.1850965023040771,11.359496116638184,0.0
276,-6.725857257843018,-12.915451049804688,0.0
277,-26.385915756225586,21.617048263549805,1.0
278,2.0318503379821777,-13.3574857711792,0.0
279,-10.26977252960205,-12.988656997680664,0.0
280,-25.19816017150879,18.344066619873047,1.0
281,19.656761169433594,-5.279282569885254,0.0
282,-23.99770164489746,10.504220962524414,0.0
283,-4.773382663726807,-4.520809173583984,0.0
284,15.259395599365234,3.251382350921631,0.0
285,-14.25567626953125,8.524759292602539,1.0
286,1.4402538537979126,13.826786994934082,1.0
287,-27.31195831298828,16.320350646972656,1.0
288,11.30078125,-5.115289211273193,0.0
289,-18.44635009765625,4.5222015380859375,0.0
290,3.330355167388916,1.5716674327850342,0.0
291,-16.788963317871094,13.463846206665039,1.0
292,11.558238983154297,-0.7424772381782532,0.0
293,11.167675971984863,9.262834548950195,0.0
294,10.082499504089355,-0.697658360004425,0.0
295,-16.05707550048828,14.537727355957031,1.0
296,-9.56682014465332,-9.620844841003418,0.0
297,3.524035930633545,9.954106330871582,0.0
298,6.187340259552002,-20.34282684326172,1.0
299,-21.64429473876953,5.64084005355835,1.0
300,20.896953582763672,-4.64271354675293,0.0
301,14.918848991394043,-16.752426147460938,0.0
302,15.094256401062012,1.84512197971344,0.0
303,-13.464097023010254,7.216684341430664,1.0
304,-4.312981605529785,5.007645606994629,1.0
305,14.17424488067627,-16.69794464111328,0.0
306,-14.494438171386719,13.394913673400879,1.0
307,-0.7990421652793884,14.848223686218262,1.0
308,-20.43025779724121,22.65359115600586,1.0
309,-22.113126754760742,5.619898319244385,1.0
310,-1.4349576234817505,15.67614459991455,1.0
311,-3.5994021892547607,-4.678800106048584,0.0
312,0.27016976475715637,11.508727073669434,1.0
313,-1.2336794137954712,-11.757018089294434,0.0
314,-18.396583557128906,11.985934257507324,1.0
315,-4.770512104034424,7.521882057189941,1.0
316,18.29245948791504,-11.123509407043457,0.0
317,17.01177406311035,-10.334457397460938,0.0
318,10.247946739196777,-12.409778594970703,0.0
319,18.24795150756836,-1.5119988918304443,0.0
320,8.121223449707031,8.607714653015137,1.0
321,10.49570083618164,-16.506669998168945,0.0
322,13.628341674804688,-15.979975700378418,0.0
323,-2.49707293510437,-4.0954484939575195,0.0
324,4.619801998138428,8.55020809173584,0.0
325,30.00126838684082,-23.723495483398438,0.0
326,0.5718956589698792,-0.16458703577518463,0.0
327,-14.285903930664062,12.041583061218262,0.0
328,18.09446144104004,-6.015628814697266,0.0
329,12.044565200805664,-12.839694023132324,0.0
330,25.957082748413086,-20.745561599731445,0.0
331,24.598432540893555,-20.995452880859375,0.0
332,-4.153849124908447,-9.681061744689941,0.0
333,-8.453816413879395,22.374794006347656,0.0
334,-7.5516252517700195,21.188467025756836,0.0
335,-11.324347496032715,17.55426025390625,0.0
336,-5.481464862823486,-4.037276268005371,0.0
337,2.711083173751831,-19.8914737701416,0.0
338,-7.01370096206665,4.744134426116943,1.0
339,12.532119750976562,-0.9142162203788757,0.0
340,15.10643196105957,6.655541896820068,0.0
341,12.547720909118652,3.6577508449554443,0.0
342,7.2516984939575195,-18.828243255615234,0.0
343,-0.7070021033287048,-4.710106372833252,0.0
344,-1.1536082029342651,-2.5177559852600098,0.0
345,-24.353107452392578,24.542926788330078,1.0
346,0.044170353561639786,5.218024730682373,0.0
347,-2.46124005317688,-5.501104831695557,0.0
348,-23.225900650024414,10.126031875610352,1.0
349,-3.805652379989624,4.344302654266357,1.0
350,-16.127845764160156,9.285731315612793,1.0
351,-20.284149169921875,10.406002044677734,1.0
352,-24.089401245117188,16.813663482666016,1.0
353,-2.3674683570861816,-0.27912667393684387,1.0
354,-20.27773666381836,21.61591339111328,1.0
355,27.864299774169922,-23.785120010375977,0.0
356,-9.696215629577637,18.760900497436523,0.0
357,-10.504376411437988,3.3811585903167725,1.0
358,-7.343378067016602,19.885656356811523,0.0
359,22.37552261352539,-9.246057510375977,1.0
360,-22.589519500732422,19.153966903686523,1.0
361,14.130346298217773,6.208982467651367,0.0
362,-12.305244445800781,7.290430068969727,1.0
363,-23.746915817260742,15.154882431030273,1.0
364,4.689397811889648,-15.498136520385742,0.0
365,19.84370231628418,-8.819570541381836,0.0
366,-2.605435848236084,-3.264059066772461,0.0
367,18.041223526000977,-3.917726993560791,0.0
368,-10.427590370178223,19.16267967224121,0.0
369,14.243123054504395,-10.174860954284668,0.0
370,7.087351322174072,-13.611390113830566,0.0
371,-1.651949167251587,-9.18813705444336,0.0
372,15.451038360595703,-17.858915328979492,0.0
373,-6.193098545074463,-18.875999450683594,0.0
374,10.025016784667969,-13.031538963317871,0.0
375,10.600983619689941,8.994791030883789,1.0
376,-11.504023551940918,12.713550567626953,1.0
377,-25.51209831237793,19.182886123657227,1.0
378,25.3206787109375,-20.852779388427734,0.0
379,10.981940269470215,-16.49062728881836,0.0
380,-25.478778839111328,15.078557968139648,0.0
381,-2.343820333480835,15.253768920898438,1.0
382,16.476301193237305,-15.148393630981445,0.0
383,-20.077157974243164,15.493124961853027,1.0
384,-4.565625190734863,2.136570692062378,0.0
385,12.336453437805176,-8.581191062927246,0.0
386,27.03615379333496,-21.424509048461914,0.0
387,-19.32128143310547,3.9427616596221924,1.0
388,18.53123664855957,-3.0380876064300537,0.0
389,-20.598426818847656,10.913671493530273,1.0
390,-2.416588306427002,-14.959585189819336,0.0
391,-3.0266802310943604,14.684486389160156,1.0
392,0.1385219693183899,8.085907936096191,0.0
393,2.811432361602783,-18.045331954956055,0.0
394,4.037358283996582,-16.807964324951172,0.0
395,1.420341968536377,12.814173698425293,0.0
396,-12.628265380859375,19.531206130981445,1.0
397,6.288567066192627,-3.33691668510437,0.0
398,-10.415607452392578,4.4523138999938965,1.0
399,-7.054679870605469,-12.030110359191895,1.0
400,16.442169189453125,3.446585178375244,1.0
401,-23.754417419433594,14.192450523376465,1.0
402,-21.78485870361328,12.960090637207031,1.0
403,3.5113472938537598,0.1920090764760971,1.0
404,29.327648162841797,-21.308605194091797,0.0
405,12.128753662109375,8.374704360961914,0.0
406,-8.486958503723145,21.49509048461914,1.0
407,-3.2020673751831055,-0.7955822944641113,0.0
408,-17.597076416015625,5.072514057159424,1.0
409,13.945385932922363,-6.230161666870117,0.0
410,7.309045791625977,2.854597568511963,0.0
411,-6.761394023895264,19.99683380126953,1.0
412,12.68287181854248,-6.232944488525391,0.0
413,0.17098020017147064,10.302472114562988,1.0
414,-4.792616367340088,-3.6126179695129395,1.0
415,10.84346866607666,7.701658248901367,0.0
416,18.061555862426758,-13.432793617248535,0.0
417,-14.940360069274902,6.164928913116455,1.0
418,-2.0979561805725098,-13.439903259277344,0.0
419,16.31268882751465,-13.915070533752441,0.0
420,-2.0888497829437256,-2.260662078857422,0.0
421,-1.654446005821228,-11.213461875915527,0.0
422,-16.859825134277344,6.374461650848389,1.0
423,10.924272537231445,4.463613510131836,0.0
424,-20.990400314331055,10.070871353149414,1.0
425,-24.172780990600586,15.731231689453125,1.0
426,-4.414015293121338,-5.397605895996094,1.0
427,-9.532818794250488,7.514271259307861,0.0
428,-12.269233703613281,19.22842788696289,1.0
429,-26.67197608947754,16.95789337158203,1.0
430,15.516838073730469,6.169463634490967,0.0
431,10.237744331359863,8.017889976501465,0.0
432,-1.9278697967529297,-16.229324340820312,0.0
433,9.53334903717041,-1.500777006149292,1.0
434,1.499221920967102,-5.866002082824707,1.0
435,5.597472190856934,-17.720109939575195,0.0
436,-6.510913848876953,-18.832792282104492,0.0
437,-5.781788349151611,5.698354244232178,1.0
438,8.678449630737305,-1.1156154870986938,1.0
439,-0.7056866884231567,-3.330371856689453,1.0
440,-19.069602966308594,14.297372817993164,0.0
441,27.78778648376465,-21.36334991455078,0.0
442,20.389530181884766,-3.1799333095550537,0.0
443,27.851938247680664,-20.940595626831055,0.0
444,-7.895326614379883,20.98073387145996,1.0
445,-17.849994659423828,3.914191722869873,0.0
446,-25.41095542907715,15.785466194152832,0.0
447,-2.611776113510132,0.43417972326278687,0.0
448,3.1872105598449707,7.933174133300781,0.0
449,-24.456308364868164,18.549474716186523,1.0
450,4.446486949920654,-18.457603454589844,0.0
451,-2.155857563018799,14.333852767944336,0.0
452,6.04060173034668,-2.514167308807373,0.0
453,-5.09578275680542,-8.037169456481934,1.0
454,6.063652038574219,-12.055224418640137,0.0
455,-12.308449745178223,10.015409469604492,0.0
456,13.141040802001953,-7.117024898529053,0.0
457,-13.25844955444336,11.114789962768555,1.0
458,10.815149307250977,-0.7610343098640442,0.0
459,-1.5097774267196655,-6.0782470703125,1.0
460,15.38467788696289,5.0302815437316895,0.0
461,-22.304241180419922,10.054428100585938,1.0
462,2.411679267883301,8.181477546691895,0.0
463,11.965392112731934,-2.0466485023498535,0.0
464,-25.560441970825195,12.59766674041748,1.0
465,19.738304138183594,-0.08977091312408447,0.0
466,-24.216293334960938,21.600717544555664,0.0
467,-21.997365951538086,9.302099227905273,1.0
468,-22.578838348388672,4.502688884735107,1.0
469,19.477182388305664,-3.8863296508789062,0.0
470,-5.088799953460693,15.813689231872559,0.0
471,15.217072486877441,0.3386545479297638,0.0
472,-1.7766213417053223,-3.4720096588134766,0.0
473,-8.361920356750488,-14.462419509887695,0.0
474,-25.52625274658203,20.859046936035156,0.0
475,-16.97991943359375,4.352011203765869,0.0
476,-21.178375244140625,20.740943908691406,0.0
477,-3.7742395401000977,14.11032772064209,0.0
478,-3.0268871784210205,1.7728058099746704,0.0
479,8.479962348937988,-14.11725902557373,0.0
480,14.7396821975708,-17.327749252319336,0.0
481,20.428882598876953,-5.343795299530029,0.0
482,28.393566131591797,-23.416746139526367,0.0
483,-0.6082561016082764,-9.871737480163574,0.0
484,-2.8557183742523193,2.3082408905029297,0.0
485,-15.303098678588867,8.301708221435547,1.0
486,0.499472439289093,-13.105904579162598,0.0
487,-1.0049941539764404,3.54428768157959,0.0
488,11.612260818481445,-9.130867958068848,0.0
489,-3.7024900913238525,-10.217072486877441,0.0
490,-22.347631454467773,14.949604034423828,0.0
491,-1.7224342823028564,-6.811765193939209,1.0
492,20.74263572692871,-9.98292350769043,0.0
493,0.9783719778060913,6.630819797515869,0.0
494,1.4845571517944336,8.651206970214844,1.0
495,-1.819188117980957,15.042923927307129,1.0
496,20.463802337646484,1.396870732307434,0.0
497,-3.7595748901367188,7.80617618560791,0.0
498,1.6227006912231445,1.287383794784546,1.0
499,6.59430456161499,0.8387570381164551,0.0
500,-1.1470081806182861,-5.102874755859375,0.0
501,-1.8672693967819214,6.372272968292236,1.0
502,-11.964367866516113,-13.222733497619629,0.0
503,-11.664451599121094,7.34591007232666,1.0
504,15.849969863891602,-2.231372833251953,0.0
505,13.52259635925293,6.392703056335449,0.0
506,28.11790657043457,-17.673707962036133,0.0
507,-17.808992385864258,12.96938705444336,1.0
508,8.323387145996094,3.4073214530944824,0.0
509,-15.94197940826416,11.79028606414795,1.0
510,8.844208717346191,-8.35936450958252,0.0
511,5.824235439300537,-0.1056450679898262,1.0
512,-20.782812118530273,21.53721809387207,0.0
513,-1.131282925605774,-8.864710807800293,0.0
514,1.7003610134124756,9.404064178466797,0.0
515,-1.5143711566925049,13.122458457946777,1.0
