k,GMM,Kmeans
2,0.6627906976744186,0.6627906976744186
3,0.6627906976744186,0.7616279069767442
4,0.6627906976744186,0.7364341085271318
5,0.7209302325581395,0.748062015503876
6,0.6724806201550387,0.75
7,0.7034883720930233,0.7558139534883721
8,0.751937984496124,0.7577519379844961
9,0.75,0.7693798449612403
10,0.7538759689922481,0.7616279069767442
15,0.7655038759689923,0.7693798449612403
20,0.7965116279069767,0.7771317829457365
25,0.7674418604651163,0.7751937984496124
30,0.7926356589147286,0.7848837209302325
35,0.7868217054263565,0.7906976744186046
40,0.8003875968992248,0.8003875968992248
