k,QSAR log-likelihood
2,-3.099951634295784
3,-2.95519869051398
4,-2.70949334950521
5,-2.6483723585450223
6,-2.481855711185519
7,-2.4109947345765934
8,-2.2884825207549313
9,-2.2409989832771053
10,-2.215630713249609
15,-1.8702829094279407
20,-1.51812433806721
25,-1.4122635125999732
30,-1.1395142131145923
35,-0.8666246939998592
40,-0.6161060533615113
