k,GMM,Kmeans
2,0.31749837232433303,0.3282080713601684
3,0.3036183526743406,0.3294603480585937
4,0.22474969465244649,0.2833115876150827
5,0.25452603979630617,0.2861521099511222
6,0.17513998359365449,0.292643130547939
7,0.17059357334316608,0.2782770199501212
8,0.23883798073240528,0.275160770756438
9,0.22578985036488064,0.2663977226659525
10,0.15097984696598438,0.26484583303352793
15,0.15796308366737785,0.2584758700888353
20,0.16263662205911483,0.2669474036558633
25,0.166957633259566,0.2552128568146612
30,0.10870471696041901,0.25158399905556705
35,0.16392076262295313,0.25416198071378393
40,0.15823337739937327,0.25407233478129954
