k,QSAR log-likelihood
2,-11.043474034941088
3,-10.505574062644607
4,-10.260224337423093
5,-9.797583358835226
6,-9.591277014886204
7,-9.441336957921775
8,-9.114000280599637
9,-8.991611908158006
10,-8.904732054877076
15,-8.290227588911181
20,-7.538978869787979
25,-6.881333215193462
30,-6.5613152935347845
35,-5.957111786600203
40,-5.4121907658667565
