,x,y,target
0,24.814210891723633,-13.521435737609863,1.0
1,-12.653468132019043,30.805564880371094,1.0
2,-17.087020874023438,2.915849447250366,0.0
3,-0.5762695670127869,-17.800457000732422,1.0
4,-24.985069274902344,16.29220199584961,1.0
5,-6.081068515777588,-7.198307037353516,0.0
6,-4.8752923011779785,-11.588784217834473,0.0
7,23.596281051635742,-25.333141326904297,0.0
8,21.811241149902344,-1.6087303161621094,0.0
9,-13.576089859008789,-5.681526184082031,0.0
10,19.50606346130371,-4.291359901428223,1.0
11,-4.235971927642822,8.61068058013916,0.0
12,2.567861318588257,0.05914982780814171,1.0
13,15.845295906066895,-8.015239715576172,0.0
14,24.259132385253906,-6.721745491027832,1.0
15,-18.49497413635254,-10.059530258178711,0.0
16,-27.793792724609375,18.267608642578125,0.0
17,12.908120155334473,11.564176559448242,1.0
18,-16.980472564697266,9.025837898254395,1.0
19,-17.999130249023438,-1.050022840499878,0.0
20,24.242412567138672,-25.645183563232422,0.0
21,3.5594139099121094,25.0856990814209,1.0
22,-14.890252113342285,-5.721655368804932,1.0
23,4.017619609832764,-3.6431963443756104,0.0
24,25.135452270507812,-25.024639129638672,1.0
25,5.972591876983643,-23.322383880615234,0.0
26,-31.53072738647461,19.40949058532715,1.0
27,-20.0365047454834,0.6466357111930847,0.0
28,25.002254486083984,-15.563834190368652,1.0
29,-6.56059455871582,-3.3535990715026855,0.0
30,6.20032262802124,23.006269454956055,1.0
31,11.590353012084961,-13.05773639678955,0.0
32,3.175934076309204,22.580148696899414,1.0
33,-17.690149307250977,-2.937088966369629,1.0
34,-21.702150344848633,-11.931824684143066,0.0
35,17.29347038269043,10.639662742614746,1.0
36,-13.73367977142334,31.7867431640625,1.0
37,1.4470089673995972,15.863149642944336,1.0
38,11.427916526794434,13.528942108154297,1.0
39,-6.087600231170654,26.84290313720703,1.0
40,6.669305801391602,25.640886306762695,1.0
41,2.359534502029419,25.107845306396484,1.0
42,-11.787406921386719,22.12809944152832,1.0
43,-12.957847595214844,-8.06135368347168,0.0
44,10.717123985290527,-18.261960983276367,0.0
45,10.33520221710205,-10.577104568481445,0.0
46,22.569978713989258,-24.191497802734375,0.0
47,-7.237488269805908,-1.3916492462158203,0.0
48,-11.583196640014648,-0.7789688110351562,1.0
49,-3.13570237159729,27.52861213684082,1.0
50,14.112066268920898,8.239062309265137,1.0
51,-10.377168655395508,23.958681106567383,1.0
52,23.8975887298584,-1.2645165920257568,1.0
53,-17.60371971130371,1.086137056350708,0.0
54,12.912281036376953,8.368131637573242,0.0
55,12.095307350158691,-17.19929313659668,1.0
56,-31.029905319213867,18.32663345336914,1.0
57,-5.958993911743164,28.369245529174805,1.0
58,-27.735422134399414,23.586870193481445,0.0
59,-11.242859840393066,-13.121687889099121,0.0
60,-5.287846565246582,-6.644161701202393,0.0
61,-24.918170928955078,24.903038024902344,1.0
62,-5.686758518218994,-9.945165634155273,0.0
63,21.845245361328125,-21.521461486816406,1.0
64,-27.021974563598633,12.705674171447754,0.0
65,17.272716522216797,11.05344295501709,1.0
66,-17.13151741027832,-5.54582405090332,0.0
67,-20.220966339111328,19.203941345214844,1.0
68,-6.378084659576416,23.22160530090332,1.0
69,27.6678409576416,-3.9744932651519775,1.0
70,-26.219667434692383,26.77202606201172,1.0
71,26.885358810424805,-5.383275032043457,1.0
72,-11.882783889770508,-12.498658180236816,0.0
73,4.826155662536621,3.534050226211548,1.0
74,-21.463363647460938,3.28460955619812,0.0
75,19.743921279907227,8.026275634765625,1.0
76,25.950166702270508,-13.524480819702148,1.0
77,5.762837886810303,-21.23141860961914,0.0
78,1.160431146621704,-1.1239686012268066,0.0
79,-26.162275314331055,28.205698013305664,1.0
80,-11.20478630065918,23.171504974365234,1.0
81,0.44454964995384216,13.278202056884766,1.0
82,-21.385517120361328,-7.570448875427246,0.0
83,26.984195709228516,-4.305757999420166,1.0
84,9.725896835327148,1.1520503759384155,0.0
85,-9.834325790405273,1.429821491241455,0.0
86,-15.98876953125,28.520017623901367,1.0
87,-14.050211906433105,-5.0625505447387695,0.0
88,-4.399960041046143,-15.274606704711914,0.0
89,-26.910429000854492,18.272357940673828,0.0
90,30.119131088256836,-7.781440258026123,0.0
91,21.636629104614258,-13.449728012084961,0.0
92,24.875993728637695,-16.625375747680664,0.0
93,18.07029914855957,-16.342548370361328,1.0
94,-18.01433563232422,22.838218688964844,0.0
95,-29.434627532958984,11.588873863220215,1.0
96,0.844755232334137,-2.954463005065918,0.0
97,-10.414651870727539,26.6893310546875,1.0
98,-27.836711883544922,15.860840797424316,0.0
99,-17.910335540771484,-8.508520126342773,0.0
100,9.026555061340332,1.5007381439208984,1.0
101,-13.022862434387207,-12.908940315246582,0.0
102,-14.072714805603027,-11.34970474243164,0.0
103,-22.855188369750977,18.88216209411621,1.0
104,27.343629837036133,-11.507345199584961,1.0
105,-21.063125610351562,25.23276710510254,1.0
106,3.7727553844451904,19.317508697509766,1.0
107,-3.1563894748687744,-16.955337524414062,1.0
108,15.479181289672852,-8.172523498535156,1.0
109,32.400733947753906,-23.54994773864746,0.0
110,30.165239334106445,-24.00554084777832,0.0
111,-15.749855041503906,29.391456604003906,1.0
112,26.710525512695312,-23.346044540405273,0.0
113,-14.124441146850586,6.656734943389893,0.0
114,21.72450828552246,3.8061599731445312,0.0
115,-2.1451897621154785,-17.949825286865234,1.0
116,26.577796936035156,-19.54817008972168,1.0
117,-20.713607788085938,1.190948724746704,0.0
118,-3.621457576751709,11.189388275146484,1.0
119,20.557435989379883,-26.0643310546875,0.0
120,-25.3121337890625,9.453248977661133,1.0
121,27.853376388549805,-16.75504493713379,0.0
122,-4.2509989738464355,-2.6996397972106934,0.0
123,-13.883277893066406,-0.606798529624939,0.0
124,19.11520004272461,-3.8239076137542725,0.0
125,10.329070091247559,-23.176834106445312,0.0
126,-13.910239219665527,-1.3914363384246826,0.0
127,8.210460662841797,12.938959121704102,0.0
128,27.87188720703125,-19.17094612121582,0.0
129,9.812515258789062,17.780973434448242,1.0
130,15.89856243133545,-17.921689987182617,0.0
131,2.60455584526062,25.800573348999023,1.0
132,-26.154014587402344,15.11070442199707,0.0
133,26.87610626220703,-2.998373508453369,1.0
134,-11.498478889465332,30.83869743347168,1.0
135,17.988174438476562,11.495896339416504,0.0
136,7.236368656158447,-23.66425132751465,1.0
137,-7.869714736938477,27.722829818725586,1.0
138,-20.841676712036133,3.4721152782440186,1.0
139,17.481443405151367,-4.29913330078125,1.0
140,-16.350990295410156,-1.2962726354599,0.0
141,-0.740606427192688,-10.780315399169922,0.0
142,-16.316850662231445,0.538858950138092,0.0
143,-9.76351261138916,-1.7330011129379272,1.0
144,-5.139362812042236,28.186182022094727,1.0
145,14.874858856201172,-7.375112056732178,1.0
146,-12.864838600158691,7.652400970458984,1.0
147,-3.2446043491363525,13.731121063232422,1.0
148,5.244261741638184,19.664602279663086,1.0
149,-22.32496452331543,-4.913989543914795,0.0
150,8.828484535217285,1.068528413772583,1.0
151,20.119678497314453,-15.9317626953125,1.0
152,9.515159606933594,-13.96011734008789,1.0
153,27.02936363220215,-2.5284228324890137,1.0
154,-20.913103103637695,-11.144364356994629,0.0
155,25.277923583984375,-4.341445446014404,0.0
156,-12.136340141296387,5.456148624420166,0.0
157,-11.869197845458984,-13.749968528747559,0.0
158,18.15719985961914,-11.385454177856445,0.0
159,-4.700968265533447,-5.348673343658447,1.0
160,-3.8846638202667236,27.2663631439209,1.0
161,-0.9094731211662292,24.12882423400879,0.0
162,2.6389896869659424,2.4632108211517334,1.0
163,3.3170223236083984,-0.5658907890319824,1.0
164,-20.323396682739258,23.71483039855957,1.0
165,33.62195587158203,-16.101240158081055,0.0
166,-24.33349609375,26.609663009643555,1.0
167,10.94633674621582,-24.6850528717041,0.0
168,-23.364290237426758,-6.785679340362549,1.0
169,-28.761432647705078,24.52487564086914,0.0
170,-11.641886711120605,5.734379291534424,0.0
171,7.002320766448975,24.848093032836914,1.0
172,26.40388298034668,-5.973745822906494,0.0
173,-28.894607543945312,14.292604446411133,1.0
174,-4.3694610595703125,10.83436107635498,1.0
175,-14.741253852844238,-3.792282819747925,0.0
176,-29.830669403076172,22.402925491333008,1.0
177,12.046236991882324,12.105781555175781,1.0
178,-25.696104049682617,15.803457260131836,1.0
179,23.036880493164062,-5.3974928855896,1.0
180,1.0792325735092163,16.317167282104492,1.0
181,25.002702713012695,-6.55816650390625,0.0
182,-1.7414238452911377,14.143936157226562,1.0
183,14.29228401184082,8.503983497619629,0.0
184,-14.597677230834961,5.237395763397217,1.0
185,13.810043334960938,-11.059250831604004,0.0
186,23.176982879638672,-21.43526268005371,1.0
187,-17.541168212890625,-8.707200050354004,0.0
188,31.962726593017578,-21.098814010620117,0.0
189,23.836748123168945,-2.4935178756713867,1.0
190,10.933454513549805,-19.981237411499023,0.0
191,5.756787300109863,-24.605920791625977,1.0
192,-1.5559982061386108,13.521283149719238,1.0
193,25.962602615356445,-6.7220587730407715,0.0
194,21.50619125366211,-22.844219207763672,1.0
195,6.38140869140625,24.88669204711914,1.0
196,-23.774198532104492,17.465068817138672,1.0
197,17.815216064453125,-4.903837203979492,0.0
198,6.934877395629883,21.184314727783203,1.0
199,-18.419851303100586,8.614563941955566,0.0
200,19.53394889831543,6.615523338317871,1.0
201,25.76922607421875,-25.255863189697266,1.0
202,14.227340698242188,8.880362510681152,1.0
203,9.207239151000977,-23.279617309570312,0.0
204,-24.28130340576172,18.499624252319336,1.0
205,17.514177322387695,-10.711286544799805,0.0
206,19.838274002075195,-8.02077579498291,1.0
207,-25.855138778686523,-10.36115550994873,0.0
208,-11.76305103302002,-9.33499813079834,0.0
209,27.53506088256836,-15.516803741455078,0.0
210,30.8740234375,-10.837664604187012,0.0
211,0.45849019289016724,22.91226577758789,1.0
212,-16.55203628540039,28.16720962524414,1.0
213,-21.281091690063477,-12.41222858428955,0.0
214,-3.773378849029541,24.720088958740234,0.0
215,2.0221948623657227,-1.772405743598938,0.0
216,12.484314918518066,-12.89206600189209,1.0
217,25.529680252075195,-15.062180519104004,0.0
218,0.675277590751648,13.739912986755371,1.0
219,7.638351917266846,1.4434939622879028,1.0
220,32.79753875732422,-11.663893699645996,0.0
221,-15.319894790649414,30.97216033935547,1.0
222,25.697593688964844,-5.06518030166626,1.0
223,-11.388985633850098,6.580143928527832,1.0
224,-5.868526458740234,-3.288907051086426,1.0
225,-0.62447190284729,-7.906077861785889,0.0
226,-6.193868637084961,-7.3986077308654785,0.0
227,0.6057085990905762,-2.9099693298339844,0.0
228,-1.5283242464065552,18.434080123901367,1.0
229,-25.7311954498291,29.507781982421875,1.0
230,12.857511520385742,-17.92222785949707,1.0
231,32.802669525146484,-13.975469589233398,0.0
232,-14.887619018554688,29.24751853942871,1.0
233,21.97738265991211,-24.57504653930664,0.0
234,16.41157341003418,-23.883962631225586,0.0
235,-16.549894332885742,-13.426261901855469,0.0
236,-7.704178333282471,26.3596134185791,1.0
237,-5.153857707977295,13.933562278747559,0.0
238,-20.228090286254883,23.844560623168945,1.0
239,-19.759897232055664,-11.309110641479492,1.0
240,4.134186267852783,3.6179418563842773,1.0
241,5.060874938964844,-21.37850570678711,0.0
242,-9.97566032409668,-2.4338252544403076,0.0
243,22.102781295776367,-22.504833221435547,0.0
244,14.449922561645508,13.017189025878906,0.0
245,-16.544891357421875,-13.65248966217041,0.0
246,29.003026962280273,-20.98232078552246,0.0
247,-5.874232292175293,29.91136932373047,1.0
248,-21.181655883789062,0.5516701936721802,0.0
249,-18.530012130737305,2.362173318862915,0.0
250,9.361239433288574,16.129541397094727,1.0
251,7.401054859161377,-22.78969955444336,0.0
252,28.53461456298828,-20.276039123535156,0.0
253,-19.276569366455078,-5.889457702636719,0.0
254,10.927708625793457,15.739566802978516,1.0
255,7.081136703491211,12.8626708984375,0.0
256,-24.880538940429688,26.20656394958496,1.0
257,15.42124080657959,13.16506576538086,1.0
258,-2.674283742904663,14.551202774047852,1.0
259,6.524143695831299,20.063718795776367,1.0
260,15.630607604980469,-18.987300872802734,0.0
261,-14.53084659576416,5.150000095367432,1.0
262,8.450700759887695,-22.836523056030273,1.0
263,17.972087860107422,-3.8993709087371826,0.0
264,-16.950647354125977,-1.518760323524475,0.0
265,-2.0190415382385254,9.907821655273438,0.0
266,-2.223400115966797,19.77476692199707,1.0
267,1.0615410804748535,-1.730132818222046,1.0
268,23.223676681518555,-1.900856614112854,1.0
269,26.539152145385742,-12.916537284851074,0.0
270,0.9696707725524902,2.1018970012664795,1.0
271,13.758997917175293,-16.3347110748291,0.0
272,24.072858810424805,-15.962900161743164,1.0
273,17.899831771850586,10.804966926574707,0.0
274,-10.54007339477539,25.245817184448242,1.0
275,13.593977928161621,9.581603050231934,1.0
276,-13.455257415771484,-1.9228909015655518,0.0
277,7.098337650299072,8.069466590881348,1.0
278,28.195383071899414,-12.294639587402344,0.0
279,5.57926082611084,24.678726196289062,1.0
280,25.503250122070312,-24.37847900390625,1.0
281,30.37282943725586,-20.9211368560791,0.0
282,-31.101476669311523,23.29715347290039,0.0
283,9.120540618896484,-15.790607452392578,1.0
284,-12.179327964782715,-11.937822341918945,0.0
285,-7.239783763885498,-1.39186692237854,0.0
286,-10.252650260925293,22.270301818847656,1.0
287,-3.997438669204712,22.341983795166016,0.0
288,4.172135353088379,2.878235340118408,1.0
289,-28.685222625732422,23.071311950683594,0.0
290,-4.246692657470703,-1.945905089378357,1.0
291,12.107522964477539,12.844793319702148,1.0
292,-13.022159576416016,-12.90894603729248,0.0
293,-9.013394355773926,-8.86937427520752,0.0
294,18.811580657958984,-10.925592422485352,1.0
295,25.394723892211914,-12.697702407836914,0.0
296,-30.373828887939453,15.076400756835938,0.0
297,27.325510025024414,-12.755959510803223,0.0
298,-16.355180740356445,-13.763372421264648,0.0
299,-7.487659454345703,30.199581146240234,1.0
300,-10.871883392333984,0.23920956254005432,1.0
301,1.2712215185165405,21.93477439880371,1.0
302,-24.44394302368164,17.123966217041016,1.0
303,27.98099136352539,-5.387095928192139,1.0
304,-13.47787857055664,-11.865036010742188,0.0
305,-15.899739265441895,7.025150775909424,0.0
306,26.535062789916992,-16.99948501586914,1.0
307,23.0330867767334,-23.686767578125,0.0
308,4.1324992179870605,3.618710994720459,1.0
309,30.26808738708496,-22.92088508605957,0.0
310,-4.608575344085693,-13.391301155090332,0.0
311,21.769487380981445,3.565078020095825,0.0
312,32.720420837402344,-8.77166748046875,1.0
313,-24.709321975708008,29.037599563598633,1.0
314,22.822603225708008,-17.328166961669922,1.0
315,-30.75984764099121,22.234195709228516,1.0
316,7.134366512298584,-23.97165298461914,1.0
317,30.867883682250977,-19.92461395263672,0.0
318,31.34749984741211,-8.814519882202148,1.0
319,8.8090238571167,15.429437637329102,1.0
320,32.242523193359375,-22.155338287353516,0.0
321,12.273979187011719,-13.911450386047363,1.0
322,29.351165771484375,-8.091694831848145,0.0
323,23.52832794189453,-4.672228813171387,1.0
324,-11.825873374938965,24.2330322265625,1.0
325,-10.938909530639648,-3.624863624572754,0.0
326,2.584747314453125,25.312240600585938,1.0
327,-5.911050796508789,22.747529983520508,0.0
328,-12.189067840576172,-1.6589902639389038,0.0
329,-3.551356792449951,-14.056412696838379,0.0
330,-5.2738447189331055,-7.828783988952637,0.0
331,24.997600555419922,-6.250873565673828,0.0
332,31.459190368652344,-20.38250160217285,0.0
333,4.0846662521362305,23.86615753173828,1.0
334,0.1437571942806244,5.77511739730835,1.0
335,11.4927396774292,12.920578002929688,1.0
336,7.878080368041992,7.525968074798584,1.0
337,10.788572311401367,16.7910099029541,1.0
338,-18.81688690185547,-5.092797756195068,0.0
339,-2.892072916030884,-3.891585350036621,0.0
340,-25.93654441833496,23.493818283081055,1.0
341,-9.2168607711792,23.29961585998535,0.0
342,-7.820507526397705,27.058767318725586,1.0
343,8.707694053649902,7.760013103485107,1.0
344,-2.4482297897338867,-16.14442253112793,0.0
345,10.786088943481445,14.111398696899414,1.0
346,-1.9795167446136475,19.133533477783203,1.0
347,-19.050987243652344,7.089566707611084,0.0
348,30.99024200439453,-13.46498966217041,0.0
349,-10.120707511901855,1.835677981376648,0.0
350,-4.976048469543457,23.252986907958984,1.0
351,26.353620529174805,-23.635766983032227,0.0
352,-28.065814971923828,24.448810577392578,1.0
353,5.486761569976807,25.144779205322266,1.0
354,23.794841766357422,-4.421130657196045,1.0
355,13.915131568908691,-9.937868118286133,1.0
356,-1.5257734060287476,23.72579002380371,0.0
357,14.72299861907959,-19.10675621032715,1.0
358,-21.114179611206055,-6.500596523284912,0.0
359,-22.952272415161133,26.344581604003906,1.0
360,24.2098388671875,-21.506032943725586,0.0
361,32.964778900146484,-11.019784927368164,0.0
362,-22.42715072631836,24.82545280456543,0.0
363,-13.49731159210205,32.43168640136719,1.0
364,25.841014862060547,-20.27191734313965,0.0
365,12.773707389831543,-14.65809440612793,1.0
366,0.4343094229698181,-0.6824615597724915,0.0
367,30.57595443725586,-14.27967643737793,0.0
368,21.613969802856445,-2.7579097747802734,1.0
369,-26.037405014038086,24.59688377380371,1.0
370,-4.304396629333496,-7.021621227264404,1.0
371,-15.510418891906738,-13.39535140991211,0.0
372,-2.6423559188842773,24.944894790649414,1.0
373,-12.95325756072998,24.052000045776367,1.0
374,-25.681777954101562,23.523286819458008,1.0
375,22.324777603149414,-13.598164558410645,0.0
376,-25.722671508789062,17.559003829956055,1.0
377,1.6870169639587402,4.833278656005859,0.0
378,-13.855667114257812,26.988513946533203,0.0
379,10.425198554992676,6.853151321411133,1.0
380,0.3121315836906433,15.685036659240723,1.0
381,-2.2402472496032715,12.471420288085938,1.0
382,26.844560623168945,-18.502140045166016,0.0
383,21.963701248168945,-1.8635799884796143,0.0
384,9.443025588989258,1.866239070892334,0.0
385,18.19948387145996,-13.811631202697754,0.0
386,7.22575044631958,-0.25518086552619934,1.0
387,-26.382688522338867,22.57581329345703,0.0
388,15.688897132873535,-17.626018524169922,0.0
389,-19.88412094116211,7.404892921447754,1.0
390,-6.086297988891602,2.0293972492218018,1.0
391,-7.220450401306152,1.188010334968567,0.0
392,-17.231351852416992,22.62858772277832,0.0
393,-3.1694343090057373,-19.4578800201416,0.0
394,27.583284378051758,-22.947561264038086,0.0
395,-13.298171043395996,-11.106496810913086,0.0
396,13.95361042022705,-17.201976776123047,0.0
397,-15.30357551574707,-3.140637159347534,0.0
398,2.5424485206604004,14.324769020080566,1.0
399,-20.941518783569336,-1.4455246925354004,1.0
400,-4.577202320098877,-6.501718044281006,0.0
401,11.745667457580566,-24.183610916137695,0.0
402,-26.721988677978516,12.601865768432617,0.0
403,-18.936046600341797,-8.207558631896973,0.0
404,29.561866760253906,-23.149900436401367,1.0
405,-28.452980041503906,22.759851455688477,0.0
406,10.916330337524414,0.02234860323369503,0.0
407,4.8596625328063965,16.575502395629883,1.0
408,9.85790729522705,9.386383056640625,1.0
409,-11.307439804077148,29.9951229095459,1.0
410,-21.642166137695312,-6.10150146484375,0.0
411,-1.8042685985565186,-13.236661911010742,0.0
412,-6.281968116760254,26.736692428588867,1.0
413,-20.300321578979492,2.8817238807678223,0.0
414,24.870393753051758,-7.791146755218506,1.0
415,33.60834884643555,-15.797134399414062,0.0
416,-26.59415626525879,-5.966733455657959,1.0
417,17.512392044067383,-10.710583686828613,0.0
418,22.32105255126953,-26.524364471435547,0.0
419,31.8481502532959,-22.858861923217773,1.0
420,13.281946182250977,-21.812990188598633,0.0
421,-12.145161628723145,30.490100860595703,1.0
422,-3.7877354621887207,28.08349609375,1.0
423,-15.3928804397583,27.880598068237305,1.0
424,29.040122985839844,-22.044715881347656,1.0
425,26.80364227294922,-26.489099502563477,0.0
426,-1.5285452604293823,-3.5608768463134766,0.0
427,-0.933926522731781,15.161181449890137,1.0
428,13.327461242675781,10.398066520690918,1.0
429,-0.1574883610010147,-13.462220191955566,0.0
430,-25.611387252807617,16.7985897064209,0.0
431,-12.642117500305176,29.322467803955078,1.0
432,29.634973526000977,-11.60987663269043,1.0
433,5.18388032913208,4.221680164337158,1.0
434,-14.27540111541748,30.161128997802734,1.0
435,2.5945303440093994,-0.32324081659317017,1.0
436,-27.084863662719727,13.273481369018555,0.0
437,-18.473590850830078,-10.944880485534668,0.0
438,-26.64969825744629,15.900176048278809,0.0
439,-6.859523296356201,-0.38656046986579895,0.0
440,4.221768379211426,-3.368197202682495,1.0
441,-0.5296725034713745,-6.881528854370117,1.0
442,-3.0058488845825195,8.569775581359863,1.0
443,10.55748176574707,1.2506057024002075,0.0
444,-20.258825302124023,0.2595614492893219,1.0
445,-10.40701675415039,-3.4156455993652344,1.0
446,-3.621457576751709,11.189388275146484,1.0
447,-3.380843162536621,-16.24663543701172,0.0
448,18.820537567138672,6.915292739868164,0.0
449,-13.812650680541992,31.201642990112305,1.0
450,10.508671760559082,-15.900691986083984,0.0
451,-11.030835151672363,-7.641402244567871,1.0
452,2.9820756912231445,23.804691314697266,1.0
453,-29.76762580871582,21.642620086669922,0.0
454,14.529753684997559,-8.232505798339844,0.0
455,31.279251098632812,-24.73857307434082,1.0
456,29.649621963500977,-12.295894622802734,0.0
457,-17.134082794189453,-5.545825481414795,0.0
458,11.763667106628418,-15.935916900634766,0.0
459,25.79059600830078,-24.71965217590332,1.0
460,18.30149269104004,11.308235168457031,0.0
461,-18.721105575561523,-9.953352928161621,0.0
462,16.810579299926758,-18.358076095581055,0.0
463,-18.584463119506836,6.778059482574463,1.0
464,9.224382400512695,-9.37387752532959,0.0
465,30.52418327331543,-23.175350189208984,0.0
466,-25.765762329101562,27.86454200744629,0.0
467,6.091375350952148,-1.0762519836425781,1.0
468,22.040283203125,-25.359848022460938,1.0
469,28.534942626953125,-16.610929489135742,0.0
470,0.620581865310669,-1.3806558847427368,1.0
471,7.5445146560668945,0.3841474652290344,1.0
472,-11.836928367614746,29.515710830688477,1.0
473,-0.8011248707771301,-13.946322441101074,0.0
474,10.84256362915039,-15.133296012878418,0.0
475,5.245043754577637,25.851015090942383,1.0
476,5.959743022918701,5.625552654266357,1.0
477,19.351795196533203,-13.875171661376953,0.0
478,-7.393700122833252,-2.9983572959899902,0.0
479,-0.40158402919769287,23.117403030395508,1.0
480,-26.59414291381836,-5.965400218963623,1.0
481,-15.347993850708008,27.676124572753906,1.0
482,-2.65775465965271,23.505046844482422,1.0
483,-24.82003402709961,19.21117401123047,1.0
484,-19.834514617919922,-5.842857360839844,0.0
485,-2.971303701400757,-14.144270896911621,0.0
486,-15.408575057983398,31.23568344116211,1.0
487,-5.063612937927246,9.374732971191406,1.0
488,10.795169830322266,-12.259514808654785,1.0
489,-1.7582510709762573,-4.405817031860352,1.0
490,-14.219802856445312,-6.310006141662598,1.0
491,-20.01884651184082,-7.543567657470703,0.0
492,6.34926700592041,7.121918201446533,1.0
493,-13.872634887695312,18.808815002441406,1.0
494,31.402252197265625,-12.76095962524414,1.0
495,24.121274948120117,-4.951757907867432,1.0
496,-10.999297142028809,22.9490909576416,1.0
497,-0.4957563281059265,14.769813537597656,1.0
498,-25.82408332824707,-10.381855964660645,1.0
499,-23.250024795532227,20.98599624633789,1.0
500,-1.9751098155975342,22.95550537109375,0.0
501,-25.824085235595703,-10.381855964660645,1.0
502,9.298248291015625,-13.99849796295166,1.0
503,-16.765769958496094,-4.620291233062744,0.0
504,22.673419952392578,-25.01416778564453,0.0
505,16.48580551147461,11.328329086303711,0.0
506,-0.5183340311050415,-8.839614868164062,0.0
507,4.165092468261719,26.26068115234375,1.0
508,-0.5762695670127869,-17.800457000732422,1.0
509,-5.835940361022949,-3.0162198543548584,1.0
510,-21.037586212158203,20.803138732910156,1.0
511,-18.40742301940918,5.701817035675049,1.0
512,9.454568862915039,-15.327756881713867,0.0
513,20.028614044189453,6.969110488891602,1.0
514,-16.035707473754883,30.588289260864258,1.0
515,-19.15361785888672,9.165064811706543,1.0
516,-31.950965881347656,19.809520721435547,0.0
517,13.073295593261719,15.000558853149414,1.0
518,-9.957932472229004,24.97675323486328,0.0
519,-22.433712005615234,27.690710067749023,1.0
520,21.01846694946289,-2.5964677333831787,0.0
521,28.436975479125977,-7.156822681427002,0.0
522,32.8606071472168,-23.774614334106445,0.0
523,8.209991455078125,6.6146345138549805,1.0
524,-9.958169937133789,24.976778030395508,0.0
525,-13.461943626403809,30.406002044677734,1.0
526,-6.746335029602051,27.427751541137695,1.0
527,-12.306633949279785,-0.508200466632843,0.0
528,19.652816772460938,-8.182584762573242,1.0
529,28.41222381591797,-8.227529525756836,0.0
530,1.852569580078125,25.62774658203125,1.0
531,16.5325870513916,-5.383093357086182,0.0
532,1.7070543766021729,14.465723037719727,0.0
533,-26.58597755432129,11.397432327270508,0.0
534,11.029556274414062,6.579343318939209,1.0
535,-17.298490524291992,28.873533248901367,1.0
536,13.514354705810547,-14.77479076385498,1.0
537,-24.57822036743164,25.491031646728516,0.0
538,11.402048110961914,-21.68106460571289,0.0
539,5.8375444412231445,18.78582000732422,1.0
540,-2.9443349838256836,12.21465015411377,1.0
541,8.120034217834473,12.892351150512695,1.0
542,4.462743759155273,20.5777530670166,1.0
543,-17.091007232666016,2.9150071144104004,0.0
544,-23.329240798950195,28.89268684387207,1.0
545,-13.327290534973145,24.984439849853516,1.0
546,32.14735794067383,-9.422294616699219,1.0
547,-22.649913787841797,-6.954400062561035,0.0
548,28.006914138793945,-6.865232467651367,0.0
549,7.264533519744873,7.037703514099121,1.0
550,9.322306632995605,-12.778512001037598,0.0
551,-22.19359588623047,22.033260345458984,1.0
552,-25.21599769592285,27.32660484313965,1.0
553,1.6589657068252563,0.18047530949115753,1.0
554,-5.8760600090026855,-1.3223340511322021,1.0
555,-13.919896125793457,5.575634956359863,1.0
556,16.572866439819336,-11.797128677368164,1.0
557,-27.29592514038086,24.541528701782227,1.0
558,6.5498504638671875,4.9660186767578125,1.0
559,20.91880226135254,-3.0879948139190674,0.0
560,-2.4210875034332275,-18.823627471923828,0.0
561,17.743751525878906,12.06017017364502,1.0
562,7.380387306213379,21.179088592529297,1.0
563,-25.205913543701172,22.553802490234375,1.0
564,-15.603055000305176,-4.821650981903076,0.0
565,0.10381925851106644,-1.8186583518981934,0.0
566,24.356164932250977,-1.248645305633545,1.0
567,13.937933921813965,-22.140289306640625,1.0
568,10.221779823303223,-20.197111129760742,0.0
569,26.23356056213379,-21.25644874572754,0.0
570,-16.507476806640625,8.200841903686523,1.0
571,-29.643966674804688,10.580623626708984,1.0
572,20.209062576293945,-25.651012420654297,0.0
573,17.06243133544922,11.969549179077148,0.0
574,7.880102157592773,1.81095290184021,1.0
575,-1.8282361030578613,10.98985481262207,1.0
576,-6.500522136688232,24.058837890625,1.0
577,-17.000532150268555,-6.6510467529296875,0.0
578,-18.038469314575195,9.432557106018066,1.0
579,-12.132550239562988,23.27177619934082,1.0
580,-24.046594619750977,24.723222732543945,1.0
581,-20.14917755126953,-10.908875465393066,0.0
582,-13.70409107208252,19.75590705871582,1.0
583,5.953291416168213,25.846548080444336,1.0
584,9.515556335449219,-11.167393684387207,0.0
585,-26.608583450317383,27.920743942260742,0.0
586,-21.529550552368164,-4.326088905334473,0.0
587,-2.7508130073547363,-15.17916202545166,0.0
588,-1.207681655883789,10.257646560668945,1.0
589,-17.117801666259766,1.320804238319397,1.0
590,-4.7164130210876465,-10.474443435668945,0.0
591,24.01806640625,-16.608474731445312,1.0
592,-4.369352340698242,14.22449016571045,1.0
593,-10.114521980285645,1.8533766269683838,0.0
594,-11.286831855773926,-10.329121589660645,0.0
595,-28.419286727905273,12.902690887451172,0.0
596,24.275020599365234,-24.76649284362793,0.0
597,21.49509048461914,-21.790136337280273,1.0
598,21.1901798248291,-13.481797218322754,1.0
599,-20.689163208007812,-7.792321681976318,0.0
600,-4.438926696777344,26.836864471435547,1.0
601,10.933823585510254,-24.16454315185547,1.0
602,-12.819458961486816,22.625869750976562,1.0
603,-0.4371761679649353,13.999924659729004,1.0
604,18.987586975097656,7.0656352043151855,1.0
605,-6.522035598754883,-2.2727417945861816,0.0
606,-3.259416103363037,26.633220672607422,0.0
607,-15.416284561157227,-3.245347261428833,0.0
608,15.579787254333496,-7.280783176422119,0.0
609,17.912883758544922,-9.71414566040039,1.0
610,-27.740907669067383,14.010032653808594,0.0
611,-0.5665386915206909,-12.23619270324707,1.0
612,22.320709228515625,-26.524169921875,0.0
613,8.406517028808594,7.888796806335449,1.0
614,11.286388397216797,-10.892265319824219,1.0
615,1.0256829261779785,17.422069549560547,1.0
616,20.23581314086914,-14.78541374206543,0.0
617,2.3725833892822266,22.009313583374023,1.0
618,-23.400026321411133,25.025774002075195,1.0
619,-9.182792663574219,1.9427613019943237,0.0
620,-12.363431930541992,6.640570163726807,1.0
621,-26.7116641998291,17.985811233520508,1.0
622,14.713438034057617,-14.246162414550781,0.0
623,-0.848602831363678,-13.100824356079102,0.0
624,-18.88300132751465,-9.139575004577637,0.0
625,-21.11319351196289,-10.057376861572266,0.0
626,14.014627456665039,-22.997106552124023,1.0
627,16.452672958374023,-23.8945255279541,0.0
628,29.03209686279297,-17.69021224975586,1.0
629,-25.53997039794922,18.543777465820312,1.0
630,31.246797561645508,-22.76095199584961,0.0
631,33.86545944213867,-16.866422653198242,0.0
632,-28.16745376586914,14.515340805053711,0.0
633,-2.914130449295044,-2.7729146480560303,1.0
634,16.312335968017578,-11.84561538696289,1.0
635,22.80495834350586,-20.876205444335938,1.0
636,10.597391128540039,-14.619658470153809,0.0
637,-15.207428932189941,-12.583730697631836,0.0
638,23.253751754760742,-2.3233518600463867,1.0
639,4.266080379486084,-21.656347274780273,1.0
640,0.9747211337089539,14.900449752807617,1.0
641,-29.81674575805664,23.621423721313477,1.0
642,1.8463720083236694,-0.8673102855682373,1.0
643,-16.81829833984375,-9.706358909606934,0.0
644,8.961835861206055,0.8031603693962097,1.0
645,-19.525285720825195,7.680504322052002,1.0
646,-12.986908912658691,6.576988220214844,1.0
647,-26.6395263671875,29.557510375976562,1.0
648,6.5935492515563965,0.8319171071052551,0.0
649,-5.169467449188232,-10.921751022338867,0.0
650,-11.221383094787598,2.047553300857544,1.0
651,32.04642868041992,-13.68176555633545,0.0
652,-6.500127792358398,9.743682861328125,1.0
653,-31.104692459106445,18.444692611694336,1.0
654,-11.184650421142578,-2.001169443130493,0.0
655,4.422756671905518,24.643447875976562,0.0
656,-22.76878547668457,23.80902671813965,0.0
657,18.450578689575195,-11.720430374145508,0.0
658,-24.709321975708008,29.037599563598633,1.0
659,0.07678963989019394,23.829805374145508,1.0
660,17.504619598388672,-9.2972412109375,1.0
661,5.2119245529174805,18.770254135131836,1.0
662,23.173511505126953,-0.5087257027626038,1.0
663,-5.426401615142822,-9.611926078796387,0.0
664,12.543350219726562,-18.35817527770996,0.0
665,26.394926071166992,-19.324081420898438,1.0
666,-2.2745590209960938,9.164310455322266,1.0
667,13.332511901855469,-18.822021484375,1.0
668,-15.934883117675781,-7.014790058135986,0.0
669,14.346818923950195,-15.819209098815918,1.0
670,-21.29734230041504,24.422199249267578,0.0
671,-30.78664207458496,21.933435440063477,1.0
672,17.467981338500977,-19.05843734741211,0.0
673,16.460216522216797,-19.05234146118164,0.0
674,30.546581268310547,-12.755257606506348,0.0
675,-22.133502960205078,20.044628143310547,1.0
676,-6.072436332702637,0.44795551896095276,0.0
677,3.310068368911743,26.36442756652832,1.0
678,-6.086270332336426,2.029385566711426,1.0
679,10.24686050415039,-21.33453941345215,1.0
680,13.144609451293945,13.493621826171875,1.0
681,29.615596771240234,-16.4871883392334,0.0
682,-1.9406754970550537,14.958104133605957,1.0
683,5.873224258422852,24.02196502685547,1.0
684,24.813030242919922,-4.0027947425842285,1.0
685,18.570077896118164,9.549219131469727,0.0
686,12.520051956176758,-22.097705841064453,0.0
687,-7.753579139709473,29.253807067871094,1.0
688,11.520157814025879,-16.785377502441406,0.0
689,13.462204933166504,-14.860130310058594,1.0
690,12.521242141723633,-23.611217498779297,0.0
691,-17.494468688964844,8.261453628540039,1.0
692,25.032482147216797,-2.2646701335906982,1.0
693,-15.545438766479492,-0.125507190823555,0.0
694,20.240646362304688,-17.157310485839844,1.0
695,-5.751710414886475,-5.917525291442871,1.0
696,32.79452896118164,-20.430253982543945,0.0
697,-13.155940055847168,23.263029098510742,0.0
698,-4.902970790863037,-9.737504959106445,0.0
699,-8.033828735351562,23.896772384643555,1.0
700,21.32547950744629,5.474313735961914,1.0
701,12.292491912841797,16.226207733154297,0.0
702,-9.36248779296875,-8.717072486877441,0.0
703,20.920501708984375,-4.319045066833496,0.0
704,26.808168411254883,-24.409954071044922,0.0
705,-17.39727783203125,9.422991752624512,1.0
706,-21.369091033935547,27.140106201171875,1.0
707,-7.617166996002197,22.09611701965332,1.0
708,-16.751222610473633,10.342486381530762,0.0
709,-24.127466201782227,19.183422088623047,1.0
710,23.811765670776367,0.6631512641906738,0.0
711,14.018450736999512,-13.103374481201172,0.0
712,6.302567481994629,-0.48826003074645996,1.0
713,-16.220726013183594,9.294777870178223,1.0
714,-18.05866050720215,-6.968617916107178,0.0
715,25.974082946777344,-19.348674774169922,1.0
716,17.556154251098633,-14.849936485290527,0.0
717,-4.021029949188232,29.20932960510254,1.0
718,14.561277389526367,-17.492685317993164,0.0
719,10.250280380249023,-21.33490753173828,1.0
720,9.527432441711426,-0.4470585584640503,0.0
721,-2.523827075958252,23.937816619873047,0.0
722,-16.981779098510742,0.44087839126586914,0.0
723,0.9697928428649902,2.102015256881714,1.0
724,26.572757720947266,-25.18313980102539,0.0
725,-23.168502807617188,27.256385803222656,1.0
726,0.5875619053840637,-11.745728492736816,0.0
727,-10.506109237670898,-9.515159606933594,1.0
728,9.822066307067871,-10.666287422180176,0.0
729,25.85919761657715,-6.277205467224121,0.0
730,3.6202259063720703,-3.9157555103302,1.0
731,2.314955949783325,26.470762252807617,1.0
732,-25.275745391845703,26.01134490966797,0.0
733,-5.108494281768799,-16.86963653564453,0.0
734,-29.326379776000977,23.003244400024414,1.0
735,-22.01643943786621,-8.859713554382324,0.0
736,-0.6739171743392944,-9.6812162399292,0.0
737,-20.62824058532715,19.847698211669922,1.0
738,20.641130447387695,6.296565532684326,1.0
739,10.452411651611328,10.473318099975586,1.0
740,-10.876751899719238,-7.737006187438965,1.0
741,-29.069738388061523,20.847286224365234,0.0
742,-10.414651870727539,26.6893310546875,1.0
743,-12.630056381225586,28.549285888671875,1.0
744,14.8574800491333,-12.76235580444336,0.0
745,-4.368603229522705,10.83297061920166,1.0
746,28.66253089904785,-23.65485382080078,0.0
747,24.587366104125977,-15.49213695526123,0.0
748,-26.51812744140625,14.605900764465332,1.0
749,6.77130651473999,3.264989137649536,1.0
750,29.333375930786133,-8.25428295135498,0.0
751,-5.672210216522217,13.951109886169434,1.0
752,-2.097172737121582,-16.853322982788086,0.0
753,24.250282287597656,-1.684235692024231,1.0
754,-24.265165328979492,28.055891036987305,1.0
755,14.243057250976562,-10.51697063446045,1.0
756,14.90949535369873,14.662014961242676,0.0
757,22.122703552246094,-24.020774841308594,0.0
758,30.452125549316406,-19.281835556030273,0.0
759,7.104846477508545,-23.251270294189453,1.0
760,-0.1872643381357193,11.982641220092773,0.0
761,5.315261363983154,16.483041763305664,1.0
762,-13.93752384185791,24.669811248779297,1.0
763,-0.14847387373447418,-13.351458549499512,0.0
764,-14.577871322631836,-3.662141799926758,0.0
765,14.995623588562012,13.591778755187988,1.0
766,-16.593496322631836,-0.33002331852912903,0.0
767,-3.162101984024048,-12.848443031311035,0.0
768,5.98975133895874,1.2126673460006714,1.0
769,7.80110502243042,5.830564498901367,1.0
770,-17.368900299072266,-0.49579229950904846,0.0
771,-13.17928409576416,-11.668810844421387,0.0
772,5.391581058502197,-23.098939895629883,0.0
773,-30.070316314697266,24.31252670288086,0.0
774,21.665802001953125,-16.227455139160156,1.0
775,-29.0533504486084,21.97378921508789,0.0
776,14.636734008789062,-8.925745010375977,1.0
777,5.4406514167785645,0.6024512052536011,1.0
778,-5.567906856536865,9.299370765686035,1.0
779,24.6566104888916,-5.373452186584473,0.0
780,-12.478877067565918,29.865468978881836,1.0
781,2.934682607650757,20.99402618408203,1.0
782,-4.26417350769043,-3.714078664779663,1.0
