k,Wine Quality BIC
2,8306.638275803438
3,8202.15232724899
4,8244.696784288073
5,8283.608336947364
6,8295.635965394582
7,8339.640586533966
8,8383.075165311126
9,8394.857728763323
10,8415.666310390463
15,8517.297466135067
20,8715.97856144116
25,8896.824047926366
30,9162.475741670089
35,9275.910624353035
40,9489.426707873801
