k,GMM,Kmeans
2,0.23249314785462358,0.30709401484504967
3,0.2576242799994017,0.3050436323041509
4,0.2644776080804438,0.32024985916647886
5,0.24040166227427148,0.31915860225834664
6,0.19641403905696578,0.307981537216825
7,0.21957862104746317,0.29074011590766513
8,0.2394210947854361,0.2617189194696381
9,0.22811983678300365,0.27558446175046164
10,0.20490165596371027,0.278203870539544
15,0.16505120120188188,0.27309092154552245
20,0.1748689114934097,0.265730411355626
25,0.10415424074109256,0.270109629691706
30,0.13250966575409936,0.2655814434775263
35,0.1416053000721212,0.2699786064487497
40,0.1424277795679495,0.2712273286457351
