,0,1,2,3,4,5,6,7,8,9
2,0.849175285605633,0.8128977026262161,0.8217884101436059,0.8252859533435843,0.8624087922399142,0.8363516270199043,0.8840640125367238,0.8186909512934337,0.7959552750061029,0.8616239543594088
3,0.7629682992100988,0.6899953484865027,0.6362370137151119,0.7256337299116086,0.721827209497995,0.7237655059651342,0.7236396269109397,0.7653176193922818,0.6669387682210638,0.7707148634503178
4,0.6063600018589218,0.7008716331520214,0.6405092850378348,0.6591371234166876,0.6355694820052897,0.5909465893413149,0.5998689009870372,0.6110110099043254,0.6970519123070633,0.7075896020752754
5,0.5204109224018806,0.4709425968378895,0.5174246575429741,0.5385535165935573,0.43667432931438993,0.6056825312893503,0.5151731520607552,0.5422618238734692,0.4960279063085032,0.6449488191943027
6,0.4695173950706223,0.4596932110661997,0.3229377838342533,0.33930926747532164,0.47855107219646353,0.40809127302475906,0.4781978905626957,0.4698910533733199,0.5267682677451747,0.5570146360264335
7,0.4176077890772068,0.3379591661910618,0.4436256556793467,0.42497187732577424,0.28730724991544243,0.30652490650075687,0.3669285013158057,0.3816933930384166,0.38870187953077656,0.4951101664297749
8,0.1966933487817788,0.2481509816712418,0.307065130794914,0.2745978001141,0.21256586079561796,0.3442093411273696,0.3314897957305454,0.35552053001111317,0.3426260882307752,0.3914566423954316
9,0.1969465304104132,0.25502893350309586,0.27161685454850304,0.195797942791508,0.1404244555836646,0.19888805519599637,0.1607157366078514,0.29624387794069423,0.13178226094874865,0.2963477616858415
10,0.05068987749837952,0.053235728961794154,0.1019915075148784,0.08079878789887426,0.02420228177902963,0.09090909090909113,0.07949491732546335,0.19815805124521638,0.09090909090909105,0.17900979886727728
15,1.1681179051410052e-30,2.1005115033381397e-30,1.6127732956027658e-30,2.441113982243957e-30,1.2506437758087101e-30,9.6589578940669e-30,9.59778251555714e-31,1.1021189797979964e-30,1.921665250472664e-30,7.756212591279024e-31
20,1.7611751595965145e-30,1.2562746483568391e-30,8.932466050136837e-31,5.671410962653774e-30,2.0902834973978947e-30,1.15517126872726e-30,1.9178899289773535e-30,1.5225006565908389e-30,2.6332710267401118e-30,6.1299434248982354e-30
25,1.78547186635784e-30,4.277040216116657e-30,1.115214641894317e-30,1.0437444324473664e-30,1.2945313749007648e-30,1.0842568333481556e-30,1.0032978533529303e-30,7.647284406284413e-31,1.256084747052788e-30,2.2424210793438773e-30
30,8.85946188162275e-31,1.9835357309214222e-30,9.847906789647098e-31,9.812796957431532e-31,2.3524231887176295e-30,1.101451573972079e-30,1.0421073522597235e-29,7.521519848764261e-30,1.2183270430728535e-30,1.2653492086932529e-30
35,9.689072447165377e-31,4.2143474374161915e-30,5.821347718579675e-30,4.762047706281227e-30,1.4677022386649849e-30,5.643099631081287e-31,1.1988691757977878e-29,1.0510334410998212e-30,9.40800464340019e-31,8.083244247692908e-31
40,5.530140639625527e-30,1.2018310258727665e-30,1.3360758883847398e-30,1.3053762339687979e-30,9.111621265569288e-31,4.354392440289776e-30,1.3969714883408257e-30,5.37584691653285e-31,1.7194362335325714e-30,1.4992149760308813e-30
45,1.5828988826601917e-30,6.5851480166772e-31,1.978756694154527e-30,1.0851087603112656e-30,7.318491328983563e-31,1.0619434184836153e-30,5.685812828967828e-31,1.5827305904760522e-30,1.1234105827201092e-30,1.3372673983594954e-30
50,8.661269510384007e-31,8.969131776324915e-31,9.217908271419574e-31,4.0747170999486326e-30,6.336470968335814e-31,5.8854131014387715e-30,1.981377494416096e-30,1.0768026115871716e-29,1.3400440097150498e-30,7.902992280389415e-31
55,9.027127819639123e-31,5.8386995849731115e-30,3.399356414023307e-30,6.189063776851671e-31,1.8255926612794696e-30,8.875547848388899e-31,9.76111387677011e-31,1.1156825166757007e-30,6.761825273330358e-31,1.0235878849401967e-30
60,1.5002375847705203e-30,1.185075701409702e-30,9.848423041274654e-31,7.9417723285642e-31,6.568092498895354e-31,7.203005949659644e-31,8.505836441383337e-31,1.1233747224324075e-30,5.9177865534744145e-31,7.421600862784789e-31
