k,GMM,Kmeans
2,0.32031234707835277,0.33413574007909475
3,0.3072621914199591,0.3690378526639331
4,0.1548174984277579,0.16902933982420654
5,0.17018819283940742,0.195145849059318
6,0.1619666521912123,0.21176005356198302
7,0.1520937415084119,0.21112448162557362
8,0.09647920067538047,0.2169320565352293
9,0.0991002925493767,0.2272096588727905
10,0.1417345008346481,0.20858578381376816
15,0.15520839598323347,0.1936232150653325
20,0.1707311424113661,0.20345620493090824
25,0.145136086528078,0.19866602759434213
30,0.1333245026178783,0.1986590113902624
35,0.14433360222156846,0.2065065742510993
40,0.14509036839828798,0.1937484138513487
