k,GMM,Kmeans
2,0.08529425876604424,0.01870373515655876
3,0.07512601988832812,0.040769573913636316
4,0.06370592974066018,0.0985083886747249
5,0.0487011982877508,0.1253740198336789
6,0.04616839050704914,0.12169040896794694
7,0.07907399872617067,0.10141525253896622
8,0.08789969067852327,0.11199215034603571
9,0.08622240715538115,0.1070541773897784
10,0.10941546487774036,0.08687677285118617
15,0.06157790424435283,0.0744156678014108
20,0.05802235085380694,0.07468739036925146
25,0.05641675510064685,0.06862987594071059
30,0.061382307828875535,0.0628614815498721
35,0.0629546084650956,0.0646746123320491
40,0.05998800818612306,0.056615113646576565
