k,GMM,Kmeans
2,0.02110872856833579,0.030904478004595635
3,0.039421089601394226,0.040337323886132766
4,0.05746434956271555,0.050505968767823615
5,0.05528824226677927,0.04447047364965717
6,0.06396896662477314,0.06074092260444633
7,0.06172306661278412,0.05749750279479471
8,0.05323960019646874,0.05397388292334441
9,0.03954191834302574,0.04895511852224123
10,0.05207588760490872,0.04403791256375556
15,0.04397860550436158,0.04814121117550587
20,0.04219121308928682,0.045094975376779235
25,0.03664950371633293,0.04564897101293662
30,0.04192356055060623,0.04603006709575104
35,0.03746216890089911,0.039069716010219815
40,0.03894700385064666,0.04373387556559996
