k,Wine Quality BIC
2,14394.108976065592
3,13842.088378969765
4,13658.428462474612
5,13514.262859421582
6,13693.198134247696
7,13901.096543436157
8,13978.723879610778
9,14298.594181587388
10,14204.583967198021
15,15052.8360359098
20,16000.379427105352
25,17219.041848614826
30,18022.830018534274
35,19223.25777300822
40,20072.45069835947
