k,GMM,Kmeans
2,0.26864273294525665,0.2669283337257737
3,0.14369515981318437,0.23193882732891002
4,0.06636364507395838,0.23562228243968164
5,0.07692448254811586,0.21765988886994336
6,0.10173609388929243,0.21547704815324228
7,0.10695378810823856,0.21930426892105478
8,0.060385640836749965,0.18198750744890457
9,0.08921539213070472,0.17098161944799894
10,0.06834788744664252,0.1841885494528452
15,0.09856255290507356,0.17194203949527895
20,0.10059068315624586,0.17232155853630812
25,0.10780709805799908,0.17708470863550296
30,0.11191520128563752,0.1656010728095294
35,0.10852838981560349,0.16712768841404105
40,0.12337991864153618,0.1779310258481195
