k,GMM,Kmeans
2,0.558109833971903,0.5887611749680716
3,0.6372924648786717,0.644955300127714
4,0.6717752234993615,0.669220945083014
5,0.6590038314176245,0.6602809706257982
6,0.6743295019157088,0.6871008939974457
7,0.6845466155810983,0.6845466155810983
8,0.7113665389527458,0.6883780332056194
9,0.6717752234993615,0.6922094508301405
10,0.685823754789272,0.6832694763729247
15,0.6883780332056194,0.6922094508301405
20,0.7126436781609196,0.7139208173690932
25,0.6973180076628352,0.7151979565772669
30,0.7241379310344828,0.722860791826309
35,0.7049808429118773,0.6947637292464879
40,0.7266922094508301,0.7305236270753512
