k,QSAR log-likelihood
2,15.233915235646883
3,16.229327437299638
4,16.49965626079262
5,17.00388356545184
6,17.384369521950514
7,17.401813648217484
8,17.673963855789168
9,17.81971642614597
10,18.315307473094485
15,19.15521276726161
20,19.250916456555103
25,20.01167187581361
30,20.472516384159434
35,20.96212513118365
40,21.264230389985734
