,x,y,target
0,8.445773124694824,-7.282118320465088,0.0
1,-7.9192376136779785,-6.217612266540527,0.0
2,-25.944177627563477,-22.48866081237793,0.0
3,-0.19230318069458008,0.2779127359390259,1.0
4,0.9905248284339905,-1.1199415922164917,0.0
5,-1.0968990325927734,14.225191116333008,1.0
6,19.34547996520996,-12.143438339233398,1.0
7,-8.106678009033203,6.600424766540527,1.0
8,-25.990808486938477,-23.01552391052246,0.0
9,-5.472456932067871,-12.151726722717285,0.0
10,11.315169334411621,-2.776599168777466,0.0
11,-23.6436767578125,-15.44187068939209,0.0
12,-17.661970138549805,-2.484189033508301,0.0
13,-9.713493347167969,1.1796711683273315,0.0
14,28.292016983032227,14.81909465789795,0.0
15,-24.937973022460938,-22.88245391845703,0.0
16,5.466217994689941,-11.351644515991211,1.0
17,-14.871439933776855,14.212080955505371,1.0
18,11.350544929504395,-4.009388446807861,0.0
19,-16.032678604125977,10.563200950622559,0.0
20,9.193963050842285,-13.452836990356445,1.0
21,-21.737628936767578,14.62601089477539,1.0
22,-17.28899574279785,-2.0166001319885254,0.0
23,-21.33942985534668,11.801254272460938,1.0
24,-12.769639015197754,14.659651756286621,0.0
25,-28.130258560180664,-13.824872970581055,0.0
26,-16.846881866455078,1.5377132892608643,0.0
27,7.708791255950928,-14.706133842468262,1.0
28,-22.388269424438477,-13.987080574035645,0.0
29,18.244768142700195,-6.680781841278076,0.0
30,15.551436424255371,-0.5736167430877686,1.0
31,0.06566356122493744,15.560898780822754,0.0
32,-3.3808724880218506,18.867998123168945,1.0
33,-25.80229949951172,-22.40500259399414,0.0
34,-16.792327880859375,2.430274248123169,0.0
35,-4.8192973136901855,6.596538066864014,1.0
36,4.980559825897217,-12.500333786010742,0.0
37,4.1616740226745605,-17.326480865478516,0.0
38,-20.28428840637207,7.690169334411621,0.0
39,31.877300262451172,13.733932495117188,0.0
40,-9.233235359191895,-6.790068626403809,1.0
41,27.74416160583496,14.132866859436035,0.0
42,22.59239959716797,-12.093461036682129,1.0
43,16.313270568847656,-5.547544956207275,0.0
44,-0.3613905608654022,-13.800398826599121,1.0
45,3.397050142288208,9.648016929626465,1.0
46,20.68755531311035,-7.541204452514648,1.0
47,19.242944717407227,-14.254005432128906,0.0
48,-14.810835838317871,11.918079376220703,0.0
49,-10.362528800964355,9.29531478881836,1.0
50,5.626980781555176,-4.9491119384765625,0.0
51,4.767695426940918,-10.158141136169434,1.0
52,6.051215171813965,-9.484292030334473,1.0
53,-24.98672866821289,-18.079050064086914,0.0
54,-25.0103816986084,-13.381040573120117,0.0
55,-4.573772430419922,2.091594934463501,0.0
56,12.555298805236816,13.683388710021973,0.0
57,-1.64554762840271,-1.9715245962142944,1.0
58,3.204432487487793,-15.500758171081543,1.0
59,-6.962960720062256,-2.6474931240081787,0.0
60,10.631562232971191,17.08324432373047,1.0
61,17.310129165649414,5.424335956573486,0.0
62,-9.06379222869873,-3.419593572616577,0.0
63,4.722751140594482,-16.140867233276367,0.0
64,-18.690710067749023,5.946844577789307,0.0
65,-18.459531784057617,4.824011325836182,0.0
66,1.7365165948867798,3.8603270053863525,0.0
67,3.6867802143096924,-21.231666564941406,0.0
68,9.440851211547852,1.0412484407424927,0.0
69,5.296316146850586,-14.908831596374512,0.0
70,-0.9134396910667419,-19.030853271484375,1.0
71,1.1042726039886475,9.963127136230469,1.0
72,-0.9259670972824097,18.283418655395508,0.0
73,-4.056191921234131,-15.329023361206055,1.0
74,11.165775299072266,4.0700483322143555,0.0
75,28.681676864624023,16.229293823242188,1.0
76,-8.911590576171875,-1.3795255422592163,0.0
77,-25.771440505981445,-11.512883186340332,0.0
78,-25.268003463745117,-8.142279624938965,0.0
79,6.35306453704834,-4.680518627166748,0.0
80,0.6873276829719543,12.413589477539062,0.0
81,-3.47942852973938,15.461376190185547,0.0
82,-24.43506622314453,-15.855733871459961,0.0
83,-4.571452617645264,-15.795845985412598,1.0
84,30.008974075317383,16.18265151977539,0.0
85,0.7015578746795654,1.3766486644744873,0.0
86,3.3929975032806396,-16.365802764892578,1.0
87,-1.1310007572174072,16.712936401367188,0.0
88,-9.287066459655762,0.815229058265686,0.0
89,-11.920398712158203,-4.138955593109131,0.0
90,11.887572288513184,16.231088638305664,0.0
91,-1.6261063814163208,-19.098878860473633,1.0
92,3.4353420734405518,11.87916088104248,0.0
93,10.858907699584961,-6.538098335266113,0.0
94,21.87073516845703,-8.686450004577637,0.0
95,8.931010246276855,11.827423095703125,0.0
96,-0.8367871046066284,-11.093622207641602,0.0
97,29.687124252319336,15.838735580444336,0.0
98,-3.4707319736480713,20.561429977416992,1.0
99,2.5329508781433105,-12.782342910766602,1.0
100,-0.7597587704658508,-0.46338996291160583,0.0
101,11.523934364318848,0.21552234888076782,1.0
102,-13.155547142028809,2.5631444454193115,0.0
103,-7.861143112182617,-11.775596618652344,0.0
104,2.8667190074920654,14.200687408447266,0.0
105,3.5550858974456787,-6.189662456512451,1.0
106,9.03787612915039,6.631853103637695,0.0
107,-6.468382358551025,6.108632564544678,1.0
108,-10.914020538330078,-19.46377944946289,0.0
109,0.284737229347229,12.248590469360352,0.0
110,-3.2423510551452637,-0.408577561378479,0.0
111,-27.248531341552734,-12.377826690673828,0.0
112,13.928747177124023,-8.667149543762207,0.0
113,7.694981575012207,-11.905078887939453,0.0
114,7.3557305335998535,2.59499192237854,1.0
115,-24.4986572265625,-14.647422790527344,0.0
116,-5.4252848625183105,-16.073854446411133,1.0
117,-21.109495162963867,14.526726722717285,1.0
118,-12.142059326171875,-24.958837509155273,0.0
119,-15.829809188842773,-11.572833061218262,0.0
120,3.6073930263519287,10.865959167480469,1.0
121,21.710508346557617,-11.47475528717041,1.0
122,16.14627456665039,0.20076093077659607,0.0
123,-11.565716743469238,-22.212018966674805,0.0
124,10.58895206451416,1.9201773405075073,1.0
125,6.995333194732666,-4.787272930145264,0.0
126,16.315513610839844,-9.935946464538574,1.0
127,22.202796936035156,-13.096599578857422,0.0
128,0.5958825945854187,-5.308980464935303,1.0
129,16.8538818359375,-11.864638328552246,0.0
130,-23.45803451538086,-10.848013877868652,0.0
131,13.277867317199707,4.0895586013793945,0.0
132,-6.484633445739746,7.063459873199463,1.0
133,-1.9928478002548218,15.897924423217773,0.0
134,-1.085732102394104,20.095767974853516,0.0
135,11.40605354309082,-12.627493858337402,1.0
136,4.275254726409912,16.192338943481445,0.0
137,-25.990808486938477,-23.01552391052246,0.0
138,-5.88377046585083,19.188325881958008,1.0
139,-0.6326932907104492,11.574834823608398,1.0
140,-22.96010971069336,-15.881781578063965,0.0
141,10.13095760345459,-14.92739200592041,1.0
142,8.009632110595703,4.150846481323242,0.0
143,20.89966583251953,-10.218188285827637,1.0
144,12.070378303527832,14.460444450378418,0.0
145,-6.0952863693237305,18.76915168762207,0.0
146,-9.379243850708008,-4.516824245452881,0.0
147,-12.465507507324219,12.674469947814941,0.0
148,14.736641883850098,-7.820204734802246,1.0
149,11.811031341552734,-4.752603054046631,0.0
150,-16.061410903930664,13.953883171081543,1.0
151,11.043769836425781,12.747543334960938,0.0
152,13.940610885620117,-1.4121277332305908,1.0
153,-17.734745025634766,12.261863708496094,1.0
154,2.1213772296905518,11.024707794189453,1.0
155,0.04757878556847572,4.180150032043457,0.0
156,-3.2077207565307617,19.35645866394043,1.0
157,-0.2514946460723877,-13.077922821044922,0.0
158,-8.416109085083008,18.574037551879883,0.0
159,4.5013957023620605,9.357471466064453,1.0
160,-6.758995532989502,7.891434192657471,0.0
161,7.213580131530762,17.828853607177734,1.0
162,-13.341277122497559,12.28347110748291,0.0
163,-2.2236692905426025,-14.6163330078125,1.0
164,13.892119407653809,13.724087715148926,0.0
165,-25.44727897644043,-10.87646198272705,0.0
166,0.2255350947380066,-2.7065365314483643,0.0
167,-1.9722646474838257,0.1832064539194107,0.0
168,8.060519218444824,-13.772046089172363,0.0
169,-13.228151321411133,12.783427238464355,0.0
170,30.512243270874023,15.338485717773438,0.0
171,-25.143692016601562,-17.636493682861328,0.0
172,16.22040367126465,6.208788871765137,1.0
173,-12.076610565185547,-22.171630859375,0.0
174,-1.7415531873703003,-13.866863250732422,1.0
175,9.564044952392578,13.588156700134277,0.0
176,-11.83795166015625,-21.56659698486328,0.0
177,-6.499690055847168,-0.6404141783714294,0.0
178,-15.774117469787598,-11.554769515991211,0.0
179,-3.2259199619293213,10.65771484375,0.0
180,10.827404022216797,-14.950333595275879,1.0
181,-2.1663639545440674,3.182340383529663,0.0
182,8.688074111938477,13.058135032653809,0.0
183,9.542465209960938,3.163396120071411,0.0
184,-8.113138198852539,-1.22217857837677,0.0
185,32.55513381958008,15.012002944946289,0.0
186,-27.130306243896484,-16.14594268798828,0.0
187,5.120501518249512,-9.323670387268066,1.0
188,10.4663724899292,6.886502742767334,0.0
189,5.267489910125732,-22.409311294555664,0.0
190,19.21733283996582,-11.602551460266113,1.0
191,-16.8497257232666,6.3506035804748535,1.0
192,-12.144414901733398,11.83389949798584,1.0
193,11.156757354736328,-6.118619918823242,0.0
194,1.9740034341812134,-14.949809074401855,1.0
195,9.58013916015625,13.218704223632812,0.0
196,-7.589191913604736,0.1181640550494194,0.0
197,12.712660789489746,-4.616329669952393,1.0
198,6.195405006408691,-22.213481903076172,0.0
199,31.31477165222168,14.705866813659668,0.0
200,-17.218097686767578,2.8592329025268555,0.0
201,4.507508277893066,-16.517780303955078,1.0
202,22.811161041259766,-8.371746063232422,0.0
203,-12.034502983093262,-24.43355941772461,0.0
204,1.6318610906600952,1.6815130710601807,0.0
205,-15.723193168640137,9.206544876098633,0.0
206,10.083348274230957,-4.081470012664795,0.0
207,5.530718803405762,-22.8663272857666,0.0
208,10.446005821228027,17.08367156982422,0.0
209,-16.91844940185547,6.493319988250732,0.0
210,-23.2161922454834,-16.10642433166504,0.0
211,7.220165252685547,17.573673248291016,1.0
212,7.235244274139404,-10.079808235168457,1.0
213,29.877132415771484,13.812870979309082,0.0
214,14.112838745117188,15.415203094482422,0.0
215,31.39446258544922,14.046977043151855,0.0
216,2.9964075088500977,14.61155891418457,0.0
217,-4.252228260040283,3.2616915702819824,1.0
218,1.0906941890716553,-12.147415161132812,1.0
219,-4.349593639373779,21.186796188354492,1.0
220,4.594906806945801,-2.325334072113037,0.0
221,-12.708100318908691,2.4106879234313965,0.0
222,-2.276348829269409,19.255138397216797,0.0
223,1.4904199838638306,18.708030700683594,0.0
224,-2.5837793350219727,16.024154663085938,0.0
225,-17.281381607055664,-2.088625431060791,0.0
226,-1.8981369733810425,8.914545059204102,0.0
227,-24.37024688720703,-8.634758949279785,0.0
228,-4.1875505447387695,1.1152894496917725,0.0
229,8.079015731811523,-19.428861618041992,0.0
230,4.764529705047607,10.665287971496582,0.0
231,-0.269843190908432,-2.1526923179626465,0.0
232,-21.926246643066406,-15.618579864501953,0.0
233,5.268952369689941,11.890049934387207,0.0
234,16.342613220214844,-5.543910026550293,1.0
235,27.93061065673828,13.857378959655762,0.0
236,2.6221251487731934,8.75321102142334,0.0
237,-7.921432971954346,19.098106384277344,0.0
238,1.4281617403030396,-16.41839027404785,1.0
239,-0.704962432384491,-17.045597076416016,1.0
240,31.98821258544922,15.92562198638916,0.0
241,9.969249725341797,12.954178810119629,0.0
242,-2.918431282043457,9.033724784851074,0.0
243,-0.661281943321228,5.221621990203857,0.0
244,-27.836326599121094,-15.450115203857422,0.0
245,-18.35474395751953,10.746098518371582,0.0
246,19.19854736328125,-13.055692672729492,1.0
247,-15.83262825012207,15.222084045410156,1.0
248,12.389083862304688,2.1129093170166016,0.0
249,16.955406188964844,-11.718669891357422,0.0
250,15.018562316894531,14.14631175994873,0.0
251,-22.389375686645508,-9.25793170928955,0.0
252,20.201173782348633,-11.212442398071289,1.0
253,-22.588436126708984,-10.438464164733887,0.0
254,30.977548599243164,13.705984115600586,0.0
255,32.82710266113281,15.407705307006836,0.0
256,0.39763137698173523,8.642473220825195,1.0
257,-0.5576668381690979,-3.6362335681915283,0.0
258,1.781111478805542,8.642921447753906,0.0
259,-0.8494008779525757,-18.58739471435547,1.0
260,2.6153454780578613,13.390727996826172,0.0
261,0.12000052630901337,-18.4011173248291,1.0
262,-0.2384432554244995,-19.37075424194336,1.0
263,-1.9950214624404907,17.960390090942383,0.0
264,-6.884212017059326,-12.626599311828613,0.0
265,4.296034812927246,12.404163360595703,0.0
266,-1.5007436275482178,4.86187219619751,0.0
267,-4.066789627075195,7.032995700836182,1.0
268,-2.9622185230255127,-17.752016067504883,1.0
269,20.07140350341797,-14.289161682128906,0.0
270,11.249093055725098,7.10893440246582,0.0
271,17.104904174804688,-0.48672497272491455,1.0
272,-22.83747100830078,-15.067646026611328,0.0
273,1.7737540006637573,-11.441924095153809,1.0
274,10.07223892211914,3.478339433670044,0.0
275,0.8423067331314087,0.6268230676651001,0.0
276,-2.901784658432007,-4.939547061920166,0.0
277,0.3177911639213562,-15.867385864257812,1.0
278,16.720579147338867,2.2974746227264404,0.0
279,12.179181098937988,-3.894515037536621,0.0
280,-0.11348863691091537,-5.999513149261475,1.0
281,-26.647056579589844,-14.379334449768066,0.0
282,-4.880922794342041,-12.09422492980957,0.0
283,-0.6581060886383057,4.5229949951171875,0.0
284,-3.1425282955169678,13.1613130569458,0.0
285,18.21149444580078,-8.941637992858887,1.0
286,0.30182671546936035,9.77168083190918,1.0
287,-2.9215807914733887,-15.499098777770996,1.0
288,-25.341814041137695,-8.235198974609375,0.0
289,5.846749782562256,0.2865558862686157,0.0
290,4.5428147315979,12.638052940368652,0.0
291,1.3148874044418335,-10.228096008300781,1.0
292,-1.3467892408370972,5.957425594329834,0.0
293,-21.199710845947266,-16.027801513671875,0.0
294,4.817311763763428,14.517949104309082,0.0
295,0.5231895446777344,-10.987370491027832,1.0
296,10.440858840942383,-6.9155354499816895,0.0
297,-1.6689473390579224,2.565098762512207,0.0
298,11.695260047912598,16.335142135620117,1.0
299,-22.234830856323242,13.795490264892578,1.0
300,2.6677567958831787,4.24599027633667,0.0
301,-13.417715072631836,14.678152084350586,0.0
302,3.9208908081054688,15.809478759765625,0.0
303,21.789379119873047,-10.131806373596191,1.0
304,6.289977550506592,2.193465232849121,1.0
305,9.950133323669434,4.122426509857178,0.0
306,1.3192144632339478,-9.531106948852539,1.0
307,11.210968971252441,-12.574186325073242,1.0
308,9.168667793273926,-14.80260944366455,1.0
309,-21.442142486572266,13.485610961914062,1.0
310,1.5033965110778809,-4.83505392074585,1.0
311,-16.05691909790039,10.030875205993652,0.0
312,-1.05138099193573,0.8028067350387573,1.0
313,-20.861284255981445,9.137085914611816,0.0
314,3.029602289199829,-9.518320083618164,1.0
315,11.917149543762207,-0.7018710970878601,1.0
316,-27.517839431762695,-13.71444320678711,0.0
317,-5.160138130187988,17.61357879638672,0.0
318,-8.177674293518066,18.61193084716797,0.0
319,-25.451528549194336,-15.829939842224121,0.0
320,-3.044997453689575,5.309995651245117,1.0
321,-13.210982322692871,3.0465922355651855,0.0
322,13.47092056274414,5.297828197479248,0.0
323,-14.790353775024414,12.736600875854492,0.0
324,2.40547776222229,12.126063346862793,0.0
325,29.899538040161133,14.869959831237793,0.0
326,2.8099594116210938,15.580026626586914,0.0
327,-4.765641212463379,-8.131945610046387,0.0
328,3.309346914291382,3.9511237144470215,0.0
329,2.8451273441314697,18.26270294189453,0.0
330,31.606544494628906,12.723285675048828,0.0
331,-10.441362380981445,-22.58405303955078,0.0
332,17.56422233581543,6.523770332336426,0.0
333,0.669998288154602,-20.421554565429688,0.0
334,-4.040613651275635,9.533915519714355,0.0
335,8.353282928466797,-19.466936111450195,0.0
336,-16.939403533935547,12.703376770019531,0.0
337,14.501984596252441,13.237320899963379,0.0
338,10.098523139953613,0.2286386936903,1.0
339,0.36631813645362854,4.47030782699585,0.0
340,1.570607304573059,13.995728492736816,0.0
341,-9.794231414794922,-5.000420093536377,0.0
342,-13.50919246673584,8.582952499389648,0.0
343,-9.36203670501709,15.070509910583496,0.0
344,-15.136787414550781,10.48150634765625,0.0
345,0.700667679309845,-18.62041664123535,1.0
346,-1.389868974685669,1.1391407251358032,0.0
347,-7.518641471862793,15.874674797058105,0.0
348,-21.291166305541992,14.262174606323242,1.0
349,-12.969002723693848,11.557183265686035,1.0
350,14.836946487426758,-8.570385932922363,1.0
351,16.008153915405273,-2.797361135482788,1.0
352,-0.8017245531082153,-12.615386962890625,1.0
353,10.98816967010498,5.4980316162109375,1.0
354,8.71399974822998,-15.880982398986816,1.0
355,25.64518928527832,14.216944694519043,0.0
356,7.347670078277588,-21.786880493164062,0.0
357,22.212543487548828,-7.63508939743042,1.0
358,11.27810001373291,-14.619241714477539,0.0
359,18.493694305419922,-4.849991798400879,1.0
360,3.54768967628479,-14.16372013092041,1.0
361,1.8190770149230957,13.399740219116211,0.0
362,20.025279998779297,-9.558530807495117,1.0
363,5.274001121520996,-12.822422981262207,1.0
364,13.722236633300781,-5.958265781402588,0.0
365,-27.09406852722168,-12.6853666305542,0.0
366,-16.05807113647461,12.30600643157959,0.0
367,-24.860153198242188,-17.074960708618164,0.0
368,18.460689544677734,-14.095501899719238,0.0
369,-17.024765014648438,-1.2054965496063232,0.0
370,-10.770298957824707,-19.365053176879883,0.0
371,-19.75509262084961,9.470480918884277,0.0
372,-17.123615264892578,0.6256548762321472,0.0
373,-11.995490074157715,-23.97528648376465,0.0
374,-6.256658554077148,19.8756103515625,0.0
375,-21.931020736694336,-17.093788146972656,1.0
376,19.8216495513916,-12.553068161010742,1.0
377,8.540457725524902,-10.455216407775879,1.0
378,29.12112808227539,13.677387237548828,0.0
379,-13.919922828674316,3.222266435623169,0.0
380,-0.8320493698120117,-14.766345977783203,0.0
381,-5.356192111968994,5.235653400421143,1.0
382,10.90649700164795,7.526657581329346,0.0
383,8.99035930633545,-12.543837547302246,1.0
384,19.62563133239746,-10.460023880004883,0.0
385,-24.857168197631836,-12.223000526428223,0.0
386,28.612350463867188,12.803583145141602,0.0
387,4.556735038757324,-4.928013801574707,1.0
388,-3.553396463394165,15.741724014282227,0.0
389,15.100526809692383,-9.888399124145508,1.0
390,-11.456746101379395,-22.617277145385742,0.0
391,-4.816950798034668,4.774049282073975,1.0
392,-4.571115493774414,0.11477072536945343,0.0
393,9.157326698303223,16.45381736755371,0.0
394,9.611861228942871,12.032485961914062,0.0
395,-1.7404708862304688,2.3836474418640137,0.0
396,18.09763526916504,-13.787278175354004,1.0
397,-24.063032150268555,-12.167847633361816,0.0
398,21.425060272216797,-12.433037757873535,1.0
399,10.021483421325684,15.09155559539795,1.0
400,-8.893145561218262,2.2372422218322754,1.0
401,3.1681056022644043,-10.389782905578613,1.0
402,-7.134439945220947,6.203822135925293,1.0
403,-10.762869834899902,14.62403392791748,1.0
404,33.625404357910156,16.144521713256836,0.0
405,-22.561622619628906,-16.917036056518555,0.0
406,4.788149356842041,-22.096107482910156,1.0
407,-8.031648635864258,-6.136952877044678,0.0
408,-20.558462142944336,13.939695358276367,1.0
409,-26.2152042388916,-8.666231155395508,0.0
410,-9.862719535827637,-3.3109357357025146,0.0
411,-3.338212251663208,9.959244728088379,1.0
412,-24.879850387573242,-10.768941879272461,0.0
413,2.0839829444885254,10.199776649475098,1.0
414,-17.004047393798828,13.859339714050293,1.0
415,-21.42723274230957,-14.790194511413574,0.0
416,14.574484825134277,2.753920793533325,0.0
417,13.78151798248291,-7.93642520904541,1.0
418,-11.557836532592773,-19.27756118774414,0.0
419,13.59698486328125,6.007072925567627,0.0
420,-15.416095733642578,12.783398628234863,0.0
421,-20.274885177612305,10.203670501708984,0.0
422,13.521461486816406,-1.2681002616882324,1.0
423,-23.145708084106445,-14.962268829345703,0.0
424,15.664899826049805,-2.195911407470703,1.0
425,3.7342300415039062,-11.650842666625977,1.0
426,12.168808937072754,2.189901351928711,1.0
427,7.7471604347229,-21.20969581604004,0.0
428,18.192323684692383,-13.155135154724121,1.0
429,1.3444554805755615,-12.908064842224121,1.0
430,2.3246564865112305,14.320584297180176,0.0
431,-21.229400634765625,-14.962099075317383,0.0
432,7.016862869262695,-2.8301119804382324,0.0
433,-2.4922242164611816,19.647632598876953,1.0
434,16.6022891998291,6.874802589416504,1.0
435,12.707450866699219,14.128372192382812,0.0
436,-11.877785682678223,-23.107580184936523,0.0
437,10.42329216003418,1.0710093975067139,1.0
438,-10.844865798950195,13.70256233215332,1.0
439,12.552881240844727,4.862415790557861,1.0
440,1.2715930938720703,-2.186326026916504,0.0
441,28.84061622619629,14.294163703918457,0.0
442,-3.13100528717041,13.627764701843262,0.0
443,31.5916748046875,15.451493263244629,0.0
444,2.9944076538085938,22.78143310546875,1.0
445,1.7003000974655151,16.232553482055664,0.0
446,-1.562298059463501,-14.503351211547852,0.0
447,4.023479461669922,-6.8072075843811035,0.0
448,2.915400743484497,11.481925964355469,0.0
449,-1.7538424730300903,-15.98260498046875,1.0
450,10.519350051879883,13.57115364074707,0.0
451,-4.048642635345459,1.3204728364944458,0.0
452,-22.417247772216797,-9.255206108093262,0.0
453,20.927486419677734,-9.811307907104492,1.0
454,13.204010009765625,14.88535213470459,0.0
455,3.7989656925201416,-24.10248565673828,0.0
456,-27.198333740234375,-8.31939697265625,0.0
457,3.793987512588501,-24.080238342285156,1.0
458,-7.293120861053467,-0.9903804063796997,0.0
459,-11.323400497436523,11.11592960357666,1.0
460,0.46457284688949585,14.055479049682617,0.0
461,15.841963768005371,-1.25114107131958,1.0
462,0.2002161145210266,1.2471667528152466,0.0
463,-7.63739013671875,0.13698703050613403,0.0
464,-4.100411891937256,-14.645133018493652,1.0
465,-18.11722755432129,-16.730844497680664,0.0
466,2.4275293350219727,-15.890555381774902,0.0
467,15.033550262451172,-0.9061852693557739,1.0
468,-21.527509689331055,12.670621871948242,1.0
469,-25.66266441345215,-14.96640396118164,0.0
470,5.541864395141602,-17.105384826660156,0.0
471,-24.166696548461914,-14.327120780944824,0.0
472,-15.286858558654785,12.034985542297363,0.0
473,8.508864402770996,-2.103170871734619,0.0
474,3.4711837768554688,-17.042848587036133,0.0
475,-4.685728073120117,-8.151571273803711,0.0
476,-2.734030246734619,8.602499961853027,0.0
477,-21.04938507080078,-17.089115142822266,0.0
478,-7.374392032623291,-2.9018924236297607,0.0
479,-24.877119064331055,-6.608405590057373,0.0
480,16.99342918395996,2.8825490474700928,0.0
481,-3.5498733520507812,16.17095947265625,0.0
482,25.85972023010254,14.217262268066406,0.0
483,-19.415420532226562,9.322436332702637,0.0
484,-15.05068302154541,10.103495597839355,0.0
485,15.157747268676758,-1.83241868019104,1.0
486,18.650976181030273,-7.312853813171387,0.0
487,-14.038076400756836,12.926139831542969,0.0
488,-27.537782669067383,-16.887910842895508,0.0
489,4.290446758270264,-4.305209159851074,0.0
490,6.209610462188721,-12.453718185424805,0.0
491,16.900405883789062,7.350903511047363,1.0
492,-29.053569793701172,-13.387285232543945,0.0
493,-4.912698268890381,-0.40440502762794495,0.0
494,7.419152736663818,18.089336395263672,1.0
495,-5.201145648956299,5.233633041381836,1.0
496,-1.3401306867599487,11.260830879211426,0.0
497,-2.1818044185638428,1.3770341873168945,0.0
498,-8.275835990905762,12.344894409179688,1.0
499,-22.305662155151367,-10.470229148864746,0.0
500,-7.499627113342285,15.886575698852539,0.0
501,-8.506771087646484,11.909958839416504,1.0
502,10.654973983764648,-4.055420398712158,0.0
503,19.62567710876465,-8.786696434020996,1.0
504,-9.54562759399414,0.577373206615448,0.0
505,-1.575695514678955,14.15037727355957,0.0
506,30.153688430786133,16.774499893188477,0.0
507,1.7213671207427979,-10.280134201049805,1.0
508,-9.661023139953613,-3.2247536182403564,0.0
509,15.395120620727539,-10.56447982788086,1.0
510,-23.64558219909668,-10.291625022888184,0.0
511,-4.429496765136719,21.507850646972656,1.0
512,9.888406753540039,-14.258696556091309,0.0
513,-19.285966873168945,8.670662879943848,0.0
514,-0.26066213846206665,2.171614170074463,0.0
515,2.986907958984375,9.802812576293945,1.0
