k,GMM,Kmeans
2,0.05680281120923325,0.02335509363277033
3,0.09677820305733606,0.12095495751885879
4,0.08997278216783103,0.042178685762057105
5,0.0699371451846198,0.05377267288566719
6,0.0371885237215168,0.0459477945413542
7,0.060338465694920844,0.08138091555998403
8,0.0642618598263762,0.061858125441058565
9,0.054971554766405695,0.06477298184607957
10,0.05355498678916886,0.05582222940882582
15,0.05167803611518097,0.05200231093746098
20,0.04607191738622715,0.04383185751219282
25,0.05648305496385138,0.03994231640354621
30,0.0428241683594285,0.043238014247009314
35,0.0497736062751154,0.05255223060637892
40,0.051041022566672666,0.05062965962063388
