k,Wine Quality BIC
2,-9926.329481712146
3,-10036.164267464674
4,-9987.867256978045
5,-10025.781995434998
6,-9988.63142025745
7,-9944.196250188465
8,-9890.29119354463
9,-9882.875198426209
10,-9829.605555737025
15,-9631.550057133283
20,-9442.890622306177
25,-9232.336889504128
30,-9030.706567849931
35,-8810.790473983674
40,-8556.829030312298
