k,GMM,Kmeans
2,0.012919928218443932,0.0998102934492253
3,0.042657320254400236,0.05555147831924629
4,0.06913226759439609,0.07343209813039413
5,0.04341390873618875,0.06703886191581904
6,0.06146331658038177,0.06333948214343195
7,0.05782735854528519,0.06208533363859123
8,0.05625896022407196,0.05601365923062987
9,0.04679123138089523,0.04594420883759283
10,0.04344482643413317,0.046055776798621245
15,0.04433516380343817,0.04698968349647952
20,0.04670351890287304,0.04955769466686726
25,0.04358618481668476,0.04429083609369385
30,0.041933954439233215,0.045735471184706715
35,0.03996151406551063,0.045132569843500135
40,0.04159435847628533,0.04206694148903026
