k,Wine Quality sse (left)
2,1.5807685694806564
3,1.1751601104366418
4,0.909799162052142
5,0.8015070647466289
6,0.7176020645953727
7,0.6474180650728074
8,0.6069137303440701
9,0.5634774644182226
10,0.5280911968225088
15,0.3939945451958766
20,0.3039598325607057
25,0.25628097819604156
30,0.22349965678747336
35,0.1957120371054254
40,0.17843173829402814
