iterations,fitness,time,fevals
0,0.0379005492902,0.00344932500047,790
10,0.0455211202966,0.00681859900033,1489
20,0.0522848046529,0.0100322420003,2179
30,0.054503991537,0.013195761001,2874
40,0.0639957120659,0.0163062110005,3574
50,0.0602395436678,0.0193989480013,4270
60,0.0742645185516,0.0224895710016,4967
70,0.0695481788837,0.0261383400011,5652
80,0.0749090649887,0.0289623440021,6361
90,0.0756787446166,0.0312099660023,7052
100,0.069661099257,0.0337531520036,7756
110,0.0708389852208,0.0363244010023,8453
120,0.0747179242246,0.0387289970022,9148
130,0.0816500706623,0.0409308340022,9851
140,0.0765558590032,0.0430639220031,10554
150,0.0754467199592,0.0452282190017,11237
160,0.0796598455785,0.0473168540029,11937
170,0.083769888264,0.0494090950033,12635
180,0.0702038740535,0.0517300760021,13340
190,0.075989112423,0.054293160003,14037
200,0.0782696687324,0.0564788460033,14738
210,0.0786340913394,0.0586032280025,15417
220,0.0945838532896,0.060692664003,16120
230,0.098204262455,0.0626806100026,16823
240,0.0957873332807,0.064971763004,17514
250,0.101329741706,0.0673576450044,18205
260,0.0972548877816,0.0695937570035,18913
270,0.102323952075,0.0718402370039,19599
280,0.102016179285,0.074138404003,20301
290,0.0991108085022,0.0764512890037,21002
300,0.102295108241,0.078660631003,21708
310,0.0972899456038,0.0809596800045,22407
320,0.092490858804,0.0832099280033,23093
330,0.0959204655885,0.0855489820024,23786
340,0.0962979657763,0.0878089180023,24496
350,0.0913144534739,0.0901078260031,25191
360,0.0874380006388,0.0925006100024,25886
370,0.0900457214971,0.0949247640019,26573
380,0.0881641340763,0.0973872380018,27287
390,0.0970764262441,0.0997898810019,27973
400,0.0954169765146,0.102098589003,28654
410,0.099339342234,0.104359937004,29348
420,0.0983551048243,0.106643497005,30055
430,0.0942145848899,0.108952614006,30756
440,0.0927746283422,0.111216377007,31450
450,0.0943625469368,0.113252753006,32140
460,0.096755484236,0.115231181006,32839
470,0.0947546204277,0.117536993006,33540
480,0.0931282490431,0.119533675006,34232
490,0.096550950422,0.121473631007,34941
500,0.0997038757091,0.123362130007,35645
510,0.0947848994934,0.125247113006,36325
520,0.0992724584926,0.127096930006,37034
530,0.106693228133,0.128920678006,37721
540,0.101203769444,0.131510071005,38411
550,0.0982422864636,0.133578577006,39104
560,0.0989928792187,0.135573145006,39808
570,0.0913004076629,0.137534762005,40508
580,0.0891492356634,0.139518158006,41198
590,0.0969624155914,0.141620578006,41886
600,0.0870907212896,0.143617852005,42582
610,0.100177308351,0.145573698006,43272
620,0.10517822954,0.147527179008,43976
630,0.103357491695,0.149604031008,44690
640,0.102589776965,0.151576729008,45391
650,0.107095346303,0.153461852007,46111
660,0.110096763214,0.155344811006,46807
670,0.104083129223,0.157278485005,47515
680,0.105564138604,0.159191321005,48209
690,0.104648155111,0.161040787005,48914
700,0.100225611708,0.162932262007,49607
710,0.106611967201,0.165214449007,50312
720,0.103827438835,0.167130109008,51005
730,0.107050841305,0.168990706008,51692
740,0.106956455943,0.171011333008,52376
750,0.107512058253,0.172836734009,53073
760,0.108928853803,0.17464262901,53768
770,0.112060728914,0.17645912401,54462
780,0.110378250086,0.178270780008,55150
790,0.108451104532,0.180135775008,55844
800,0.101368151327,0.181941498007,56549
810,0.0944112957663,0.183815260007,57245
820,0.0997269328149,0.185746710005,57938
830,0.0995082613745,0.187707886005,58642
840,0.0968541271067,0.189648264006,59346
850,0.0981166856306,0.191603508007,60033
860,0.0934233161768,0.193638201006,60740
870,0.0821748094956,0.195970823006,61432
880,0.0793047462775,0.198060118008,62118
890,0.0777880174094,0.200154423008,62831
900,0.0883518227818,0.202203834007,63525
910,0.0826364032198,0.204324269007,64237
920,0.0832509385793,0.206477996007,64940
930,0.0895961531578,0.208453528006,65642
940,0.0936539767896,0.210412850007,66335
950,0.0940737262115,0.212531932006,67028
960,0.0954458090515,0.214500071006,67721
970,0.0894681182192,0.216433855006,68418
980,0.0900581064861,0.218362661008,69093
990,0.0928810567903,0.220437450007,69785
1000,0.0906860326651,0.222404497006,70484
1010,0.0967093654817,0.227003356005,71176
1020,0.0845949210941,0.229011771005,71866
1030,0.090659305225,0.230970932007,72572
1040,0.0902632753975,0.232905889008,73274
1050,0.0821722075838,0.234855353008,73973
1060,0.0864269743939,0.236858368007,74665
1070,0.0845036616461,0.238914462008,75363
1080,0.0951816939431,0.240999670008,76056
1090,0.0894827432201,0.243265897008,76755
1100,0.0943380398566,0.245173984007,77464
1110,0.0967218685205,0.247087731006,78145
1120,0.0945663724797,0.248968536007,78848
1130,0.0950479998477,0.250910145007,79550
1140,0.0918692776512,0.252854029006,80254
1150,0.0904328639331,0.254847937005,80953
1160,0.0903415605402,0.256753187006,81665
1170,0.0898309320296,0.258902165006,82364
1180,0.0896381106425,0.260874392005,83053
1190,0.0888259685913,0.262843934004,83746
1200,0.0929225253637,0.264806843004,84443
1210,0.0910334976756,0.266818032003,85133
1220,0.0913973098337,0.268807681003,85828
1230,0.0915034631269,0.270733230003,86530
1240,0.0952336878511,0.272671442002,87211
1250,0.0958484068231,0.274607170002,87921
1260,0.100530244168,0.276554840002,88616
1270,0.0926943923051,0.278526165002,89318
1280,0.0983436371022,0.280466953001,90032
1290,0.0916509491734,0.282395607001,90711
1300,0.0942512832138,0.284395996001,91400
1310,0.0933345342632,0.286385716001,92096
1320,0.0940147492677,0.288394942001,92789
1330,0.0940774847465,0.290622076,93494
1340,0.0930589674224,0.292698969,94203
1350,0.0928030108534,0.294686895,94903
1360,0.0921394771081,0.296602956001,95602
1370,0.0939622161774,0.298518727001,96292
1380,0.092069931837,0.300451689,97004
1390,0.0956075388931,0.302412153,97707
1400,0.0948570622059,0.304476783,98405
1410,0.0915714165184,0.306488534001,99106
1420,0.0917886926965,0.308792481001,99801
1430,0.0910703445578,0.311132506002,100493
1440,0.0933899998781,0.316999031002,101201
1450,0.0917208817685,0.324805633001,101906
1460,0.0954506044519,0.326933271001,102604
1470,0.0987112180753,0.328924013002,103295
1480,0.0931704596469,0.330877594,103996
1490,0.0916983747422,0.332837898,104702
1500,0.0922727728496,0.334804734,105415
1510,0.0846997782357,0.336797759999,106122
1520,0.0869683798681,0.338916642,106810
1530,0.0926780654427,0.340967695,107498
1540,0.092126743584,0.343024649999,108203
1550,0.0886985974711,0.344997386999,108903
1560,0.0949534187811,0.347007935999,109610
1570,0.100696432074,0.348943464,110304
1580,0.111163411655,0.350823557999,111003
1590,0.10510538043,0.353087011001,111704
1600,0.107317966543,0.354953900001,112393
1610,0.110218293504,0.357528615001,113085
1620,0.11328036726,0.360206784002,113772
1630,0.111001784498,0.362785137002,114475
1640,0.114843647739,0.365353381003,115177
1650,0.113654488469,0.367994130003,115891
1660,0.113797121565,0.370584175003,116589
1670,0.112691194021,0.373121370003,117289
1680,0.113546932553,0.375703058004,117985
1690,0.105374788109,0.378303382004,118688
1700,0.105419800402,0.380940946003,119398
1710,0.103585411496,0.383501655002,120077
1720,0.102681952285,0.386157893001,120759
1730,0.103063521429,0.388852884002,121462
1740,0.103651876893,0.391560128002,122162
1750,0.100999524519,0.394212851003,122850
1760,0.101648809519,0.396936747002,123556
1770,0.0985957170325,0.399637258002,124242
1780,0.102997994351,0.402276454002,124952
1790,0.0973313251379,0.404909399002,125642
1800,0.0930219816907,0.407559496001,126335
1810,0.0886052783047,0.410265287002,127031
1820,0.0893595491664,0.412991106003,127734
1830,0.0931074997396,0.415874600003,128442
1840,0.0856465767425,0.418602323003,129141
1850,0.0932002713964,0.421011539003,129851
1860,0.0945737883346,0.422928412005,130543
1870,0.0863323809411,0.424866624004,131242
1880,0.0862969035496,0.426912248004,131941
1890,0.0839250552212,0.428910934002,132631
1900,0.0874706548902,0.430892107002,133330
1910,0.0912938434643,0.432912092003,134035
1920,0.0980564287806,0.434914695003,134724
1930,0.108106353145,0.436816440002,135439
1940,0.114424904883,0.438618037002,136136
1950,0.113232816529,0.440409073002,136834
1960,0.112289275772,0.442173439002,137545
1970,0.113552777991,0.444357213002,138252
1980,0.11024614154,0.446167767002,138942
1990,0.112526318868,0.447888993001,139652
2000,0.110664819025,0.44965328,140338
2010,0.113286795387,0.451418629,141028
2020,0.111125321421,0.453211418999,141714
2030,0.09874430511,0.455063399999,142405
2040,0.0955728647293,0.456967177999,143101
2050,0.0969361113877,0.461390930001,143808
2060,0.0992040471084,0.463376542002,144514
2070,0.102861285092,0.465302883002,145214
2080,0.110512106983,0.467259309002,145893
2090,0.101138397894,0.469223861002,146579
2100,0.100295224675,0.471197069002,147276
2110,0.0944892096742,0.473087792003,147993
2120,0.0938531056778,0.475015644004,148697
2130,0.0938245119388,0.476993892005,149415
2140,0.0934057830058,0.478986277007,150115
2150,0.105293512188,0.480990574008,150803
2160,0.095582176191,0.483014808007,151486
2170,0.0944901141743,0.484967708007,152185
2180,0.0833717859699,0.486957227007,152870
2190,0.0871292502352,0.489246919007,153573
2200,0.0881182700782,0.491252808006,154266
2210,0.0881473390677,0.493284677006,154963
2220,0.0859959244334,0.495280157007,155651
2230,0.0920289986941,0.497313198008,156347
2240,0.0927038094859,0.499319218008,157056
2250,0.0913144388921,0.501373588009,157741
2260,0.0906339004641,0.503456793009,158441
2270,0.0902745827983,0.505515872008,159147
2280,0.0956329668617,0.507532772008,159849
2290,0.0932773791792,0.509539623008,160558
2300,0.0868300824979,0.511605254009,161263
2310,0.088721987189,0.513695222009,161969
2320,0.0955032172837,0.51576221601,162672
2330,0.0923715940967,0.517807299009,163384
2340,0.0898717726663,0.51984540901,164088
2350,0.0900609266554,0.521923033009,164793
2360,0.0945758368401,0.523986301008,165484
2370,0.0900666632869,0.526002459008,166188
2380,0.0820373126565,0.528059995007,166884
2390,0.090518957715,0.530404089008,167582
2400,0.0877764450712,0.532462356006,168276
2410,0.0851332209905,0.534551121007,168969
2420,0.0913765859674,0.536589461006,169656
2430,0.0963832418896,0.538615128005,170347
2440,0.0980654188868,0.540618723004,171032
2450,0.0966127745529,0.542569649004,171720
2460,0.0991355831448,0.544526837004,172413
2470,0.100929105972,0.546531194004,173105
2480,0.0931053337395,0.548524189006,173815
2490,0.0937879835051,0.550524587004,174515
2500,0.0934939415834,0.552457971005,175208
2510,0.0894388706533,0.554439716007,175904
2520,0.0960487477148,0.556358954007,176596
2530,0.104767688165,0.558294300006,177287
2540,0.094365820525,0.560211623006,177995
2550,0.0995047773573,0.562166787005,178680
2560,0.0888184443863,0.564065255005,179391
2570,0.0929508285749,0.565996465006,180092
2580,0.0935147878245,0.568014237006,180784
2590,0.0968663640889,0.570010167005,181486
2600,0.0921217238807,0.572154647005,182183
2610,0.0893768247394,0.574299957005,182859
2620,0.0948117123992,0.576276170006,183562
2630,0.101214365795,0.578215064006,184254
2640,0.0999491760569,0.580135573005,184960
2650,0.111691286675,0.581970953006,185660
2660,0.110229421873,0.583709662007,186353
2670,0.111969266403,0.585470452006,187056
2680,0.110934534606,0.587320940005,187764
2690,0.102647571998,0.589255827006,188480
2700,0.107462783135,0.591153423005,189161
2710,0.099074516579,0.593047402006,189865
2720,0.110084993127,0.594908410005,190564
2730,0.109160375408,0.596824692006,191265
2740,0.111407012342,0.598700317005,191967
2750,0.112127069866,0.600561545005,192672
2760,0.103022976022,0.602386014005,193367
2770,0.0970983272742,0.604259605007,194064
2780,0.0957967714607,0.606217154007,194775
2790,0.106541699298,0.608139036007,195466
2800,0.113451941937,0.610033216006,196150
2810,0.114114102661,0.611776815005,196862
2820,0.114146902538,0.613530281005,197553
2830,0.112431740303,0.615480537006,198267
2840,0.114258723108,0.617287864006,198978
2850,0.114224165203,0.619075103006,199674
2860,0.111102818828,0.620816557006,200371
2870,0.113706441812,0.622550897007,201058
2880,0.11304541335,0.624294425006,201767
2890,0.114774225757,0.626032382006,202468
2900,0.112483790929,0.627760611005,203169
2910,0.113985264098,0.629561075006,203873
2920,0.113874591531,0.631357692006,204571
2930,0.113714305109,0.633099176006,205259
2940,0.112425181473,0.634846210007,205966
2950,0.113968456537,0.636607641007,206665
2960,0.11016455639,0.638472006007,207363
2970,0.113480673325,0.640197230006,208062
2980,0.112560544254,0.641936469006,208758
2990,0.113399991183,0.643658115006,209467
3000,0.112698208695,0.645414086008,210148
