NN,NN__activation,NN__alpha,NN__batch_size,NN__beta_1,NN__beta_2,NN__early_stopping,NN__epsilon,NN__hidden_layer_sizes,NN__learning_rate,NN__learning_rate_init,NN__max_iter,NN__momentum,NN__n_iter_no_change,NN__nesterovs_momentum,NN__power_t,NN__random_state,NN__shuffle,NN__solver,NN__tol,NN__validation_fraction,NN__verbose,NN__warm_start,filter,filter__model,filter__model__bootstrap,filter__model__class_weight,filter__model__criterion,filter__model__max_depth,filter__model__max_features,filter__model__max_leaf_nodes,filter__model__min_impurity_decrease,filter__model__min_impurity_split,filter__model__min_samples_leaf,filter__model__min_samples_split,filter__model__min_weight_fraction_leaf,filter__model__n_estimators,filter__model__n_jobs,filter__model__oob_score,filter__model__random_state,filter__model__verbose,filter__model__warm_start,filter__n,memory,steps
"MLPClassifier(activation='relu', alpha=0.00031622776601683794,
       batch_size='auto', beta_1=0.9, beta_2=0.999, early_stopping=True,
       epsilon=1e-08, hidden_layer_sizes=(41, 41, 41),
       learning_rate='constant', learning_rate_init=0.008, max_iter=2000,
       momentum=0.9, n_iter_no_change=10, nesterovs_momentum=True,
       power_t=0.5, random_state=321, shuffle=True, solver='adam',
       tol=0.0001, validation_fraction=0.1, verbose=False,
       warm_start=False)",relu,0.00031622776601683794,auto,0.9,0.999,True,1e-08,"(41, 41, 41)",constant,0.008,2000,0.9,10,True,0.5,321,True,adam,0.0001,0.1,False,False,"ImportanceSelect(model=RandomForestClassifier(bootstrap=True, class_weight='balanced',
            criterion='gini', max_depth=None, max_features='auto',
            max_leaf_nodes=None, min_impurity_decrease=0.0,
            min_impurity_split=None, min_samples_leaf=1,
            min_samples_split=2, min_weight_fraction_leaf=0.0,
            n_estimators=100, n_jobs=-1, oob_score=False, random_state=321,
            verbose=0, warm_start=False),
         n=4)","RandomForestClassifier(bootstrap=True, class_weight='balanced',
            criterion='gini', max_depth=None, max_features='auto',
            max_leaf_nodes=None, min_impurity_decrease=0.0,
            min_impurity_split=None, min_samples_leaf=1,
            min_samples_split=2, min_weight_fraction_leaf=0.0,
            n_estimators=100, n_jobs=-1, oob_score=False, random_state=321,
            verbose=0, warm_start=False)",True,balanced,gini,,auto,,0.0,,1,2,0.0,100,-1,False,321,0,False,4,,"[('filter', ImportanceSelect(model=RandomForestClassifier(bootstrap=True, class_weight='balanced',
            criterion='gini', max_depth=None, max_features='auto',
            max_leaf_nodes=None, min_impurity_decrease=0.0,
            min_impurity_split=None, min_samples_leaf=1,
            min_samples_split=2, min_weight_fraction_leaf=0.0,
            n_estimators=100, n_jobs=-1, oob_score=False, random_state=321,
            verbose=0, warm_start=False),
         n=4)), ('NN', MLPClassifier(activation='relu', alpha=0.00031622776601683794,
       batch_size='auto', beta_1=0.9, beta_2=0.999, early_stopping=True,
       epsilon=1e-08, hidden_layer_sizes=(41, 41, 41),
       learning_rate='constant', learning_rate_init=0.008, max_iter=2000,
       momentum=0.9, n_iter_no_change=10, nesterovs_momentum=True,
       power_t=0.5, random_state=321, shuffle=True, solver='adam',
       tol=0.0001, validation_fraction=0.1, verbose=False,
       warm_start=False))]"
