NN,NN__activation,NN__alpha,NN__batch_size,NN__beta_1,NN__beta_2,NN__early_stopping,NN__epsilon,NN__hidden_layer_sizes,NN__learning_rate,NN__learning_rate_init,NN__max_iter,NN__momentum,NN__n_iter_no_change,NN__nesterovs_momentum,NN__power_t,NN__random_state,NN__shuffle,NN__solver,NN__tol,NN__validation_fraction,NN__verbose,NN__warm_start,memory,pca,pca__copy,pca__iterated_power,pca__n_components,pca__random_state,pca__svd_solver,pca__tol,pca__whiten,steps
"MLPClassifier(activation='relu', alpha=0.31622776601683794, batch_size='auto',
       beta_1=0.9, beta_2=0.999, early_stopping=True, epsilon=1e-08,
       hidden_layer_sizes=(11, 11, 11), learning_rate='constant',
       learning_rate_init=0.128, max_iter=2000, momentum=0.9,
       n_iter_no_change=10, nesterovs_momentum=True, power_t=0.5,
       random_state=321, shuffle=True, solver='adam', tol=0.0001,
       validation_fraction=0.1, verbose=False, warm_start=False)",relu,0.31622776601683794,auto,0.9,0.999,True,1e-08,"(11, 11, 11)",constant,0.128,2000,0.9,10,True,0.5,321,True,adam,0.0001,0.1,False,False,,"PCA(copy=True, iterated_power='auto', n_components=3, random_state=321,
  svd_solver='auto', tol=0.0, whiten=False)",True,auto,3,321,auto,0.0,False,"[('pca', PCA(copy=True, iterated_power='auto', n_components=3, random_state=321,
  svd_solver='auto', tol=0.0, whiten=False)), ('NN', MLPClassifier(activation='relu', alpha=0.31622776601683794, batch_size='auto',
       beta_1=0.9, beta_2=0.999, early_stopping=True, epsilon=1e-08,
       hidden_layer_sizes=(11, 11, 11), learning_rate='constant',
       learning_rate_init=0.128, max_iter=2000, momentum=0.9,
       n_iter_no_change=10, nesterovs_momentum=True, power_t=0.5,
       random_state=321, shuffle=True, solver='adam', tol=0.0001,
       validation_fraction=0.1, verbose=False, warm_start=False))]"
