iteration,MSE_trg,MSE_val,MSE_tst,acc_trg,acc_val,acc_tst,f1_trg,f1_val,f1_tst,elapsed
0,0.191323405441,0.175888550653,0.192349461938,0.411851851852,0.443786982249,0.412322274882,0.399394856278,0.440476190476,0.420560747664,0.005519692
10,0.188456073775,0.172947406315,0.188362768087,0.422222222222,0.443786982249,0.417061611374,0.401840490798,0.440476190476,0.422535211268,0.049704394
20,0.184343662232,0.169732217978,0.184276788083,0.422222222222,0.455621301775,0.421800947867,0.4,0.44578313253,0.424528301887,0.089362704
30,0.179985788202,0.166190001426,0.178380678572,0.442962962963,0.455621301775,0.42654028436,0.405063291139,0.439024390244,0.415458937198,0.141049723
40,0.178871726912,0.164983587725,0.176855073956,0.441481481481,0.455621301775,0.431279620853,0.404423380727,0.439024390244,0.423076923077,0.17574772
50,0.177899086868,0.163719073487,0.174915665922,0.442962962963,0.449704142012,0.445497630332,0.40127388535,0.429447852761,0.423645320197,0.209840952
60,0.177999298178,0.163159198409,0.173926033171,0.444444444444,0.461538461538,0.464454976303,0.403815580286,0.441717791411,0.43216080402,0.245322935
70,0.174053525138,0.160220262451,0.170095665076,0.448888888889,0.455621301775,0.473933649289,0.4,0.425,0.43654822335,0.279900226
80,0.172044451986,0.157231402739,0.167339078672,0.457777777778,0.473372781065,0.478672985782,0.401960784314,0.433121019108,0.438775510204,0.313094213
90,0.170151699989,0.154909711453,0.165966769849,0.468148148148,0.485207100592,0.483412322275,0.408566721582,0.452830188679,0.446700507614,0.346612107
100,0.165735746595,0.151946816775,0.162229107875,0.477037037037,0.491124260355,0.483412322275,0.412645590682,0.455696202532,0.446700507614,0.377955287
110,0.166112530098,0.152320681154,0.162789040846,0.478518518519,0.502958579882,0.483412322275,0.413333333333,0.475,0.446700507614,0.409989761
120,0.164515557344,0.15096839882,0.161551664029,0.481481481481,0.497041420118,0.478672985782,0.412751677852,0.458598726115,0.438775510204,0.443724702
130,0.161174664871,0.149740014321,0.15786835557,0.484444444444,0.502958579882,0.497630331754,0.40614334471,0.447368421053,0.423913043478,0.490718257
140,0.161163553134,0.149773793277,0.15788810434,0.484444444444,0.502958579882,0.497630331754,0.40614334471,0.447368421053,0.430107526882,0.52378214
150,0.161176084824,0.149290296074,0.157819836709,0.484444444444,0.491124260355,0.507109004739,0.4,0.434210526316,0.428571428571,0.559774138
160,0.15645082885,0.144723899574,0.151244290678,0.503703703704,0.502958579882,0.530805687204,0.423407917384,0.447368421053,0.440677966102,0.593997647
170,0.156295051215,0.143619502368,0.151049740233,0.50962962963,0.514792899408,0.530805687204,0.414159292035,0.453333333333,0.434285714286,0.628340629
180,0.152196706736,0.14260826508,0.149664314458,0.514074074074,0.491124260355,0.516587677725,0.418439716312,0.441558441558,0.426966292135,0.66145773
190,0.150316556368,0.141248814205,0.147951666761,0.52,0.514792899408,0.521327014218,0.423487544484,0.460526315789,0.435754189944,0.693732036
200,0.146002864329,0.139578637859,0.145281361456,0.528888888889,0.520710059172,0.521327014218,0.44014084507,0.470588235294,0.441988950276,0.725745392
210,0.141497989039,0.13623818655,0.141393450486,0.543703703704,0.556213017751,0.554502369668,0.4440433213,0.48275862069,0.459770114943,0.7581183
220,0.136654354494,0.130395256839,0.137055857833,0.555555555556,0.573964497041,0.559241706161,0.450549450549,0.492957746479,0.462427745665,0.790157304
230,0.183194750959,0.182832182068,0.186522513393,0.484444444444,0.485207100592,0.502369668246,0.511235955056,0.52972972973,0.524886877828,0.821228075
240,0.131568675593,0.128350462959,0.133032574353,0.583703703704,0.591715976331,0.578199052133,0.468809073724,0.503597122302,0.479532163743,0.864927558
250,0.130435860158,0.127388476106,0.131999258055,0.586666666667,0.591715976331,0.587677725118,0.470588235294,0.503597122302,0.485207100592,0.895836634
260,0.130140136119,0.126805080139,0.131788359148,0.594074074074,0.591715976331,0.587677725118,0.483018867925,0.510638297872,0.485207100592,0.926811465
270,0.129273221603,0.125999242037,0.131304603547,0.591111111111,0.597633136095,0.592417061611,0.477272727273,0.507246376812,0.494117647059,0.957652687
280,0.12841928439,0.12457011714,0.13016416144,0.595555555556,0.609467455621,0.592417061611,0.473988439306,0.514705882353,0.488095238095,0.989178117
290,0.128036358408,0.125621928928,0.131298308157,0.58962962963,0.597633136095,0.587677725118,0.489871086556,0.521126760563,0.485207100592,1.020199263
300,0.125277051408,0.123876737053,0.12892650432,0.591111111111,0.585798816568,0.60663507109,0.492647058824,0.507042253521,0.514619883041,1.051328894
310,0.123661972186,0.123117453792,0.12755477269,0.604444444444,0.585798816568,0.611374407583,0.495274102079,0.5,0.5,1.082933964
320,0.123260558209,0.123412695884,0.12691975908,0.602962962963,0.597633136095,0.60663507109,0.486590038314,0.507246376812,0.490797546012,1.113678431
330,0.121871389516,0.122086497271,0.125489446306,0.601481481481,0.597633136095,0.60663507109,0.479690522244,0.492537313433,0.484472049689,1.144405819
340,0.118344539382,0.119034472106,0.121612165075,0.622222222222,0.621301775148,0.63981042654,0.493041749503,0.515151515152,0.525,1.175534665
350,0.115713816513,0.117192358597,0.119005433767,0.628148148148,0.615384615385,0.644549763033,0.50297029703,0.518518518519,0.534161490683,1.206342813
360,0.111042717323,0.113069884242,0.115653418372,0.645925925926,0.639053254438,0.663507109005,0.509240246407,0.51968503937,0.529801324503,1.237162772
370,0.108538604975,0.109841076044,0.113423050022,0.657777777778,0.662721893491,0.649289099526,0.519750519751,0.551181102362,0.5,1.268501152
380,0.107173770647,0.108589894975,0.113683321572,0.663703703704,0.656804733728,0.658767772512,0.545090180361,0.539682539683,0.538461538462,1.299459111
390,0.105353994889,0.106133090835,0.11041210523,0.68,0.686390532544,0.672985781991,0.542372881356,0.561983471074,0.536912751678,1.33058312
400,0.102112679291,0.100847034981,0.107372060881,0.699259259259,0.680473372781,0.677725118483,0.576200417537,0.571428571429,0.546666666667,1.362164198
410,0.100363691915,0.0998027966062,0.106343213926,0.705185185185,0.686390532544,0.687203791469,0.577494692144,0.569105691057,0.554054054054,1.393158475
420,0.0998708605523,0.100685331484,0.107208818593,0.706666666667,0.674556213018,0.687203791469,0.575107296137,0.552845528455,0.535211267606,1.424538925
430,0.0973049871604,0.0987883511378,0.104627864191,0.717037037037,0.692307692308,0.691943127962,0.599580712788,0.587301587302,0.563758389262,1.45637658
440,0.0963791182377,0.0993192467021,0.10477405891,0.712592592593,0.680473372781,0.687203791469,0.590717299578,0.564516129032,0.541666666667,1.487865291
450,0.0962591595583,0.0983667254734,0.103831253144,0.717037037037,0.674556213018,0.682464454976,0.592750533049,0.56,0.537931034483,1.519906378
460,0.0946455173233,0.097211129268,0.102214663058,0.72,0.710059171598,0.677725118483,0.597014925373,0.588235294118,0.527777777778,1.551464841
470,0.0928003324926,0.0984574480658,0.100171482331,0.731851851852,0.704142011834,0.682464454976,0.59866962306,0.545454545455,0.524822695035,1.590668879
480,0.103182446425,0.10525313558,0.113104344313,0.687407407407,0.674556213018,0.620853080569,0.59344894027,0.545454545455,0.506172839506,1.623229179
490,0.0912240656276,0.0965505608849,0.100241522157,0.73037037037,0.721893491124,0.682464454976,0.604347826087,0.576576576577,0.524822695035,1.656257595
500,0.0907146136488,0.0959262349616,0.0999713033076,0.736296296296,0.721893491124,0.687203791469,0.604444444444,0.576576576577,0.528571428571,1.68787664
510,0.0894284053597,0.0950854566445,0.0995832712357,0.734814814815,0.727810650888,0.682464454976,0.611713665944,0.581818181818,0.524822695035,1.719316451
520,0.0884322705125,0.0934236609057,0.0988156377104,0.739259259259,0.727810650888,0.672985781991,0.603603603604,0.581818181818,0.488888888889,1.750887036
530,0.086798603447,0.0902391367898,0.0969482556921,0.745185185185,0.745562130178,0.687203791469,0.607305936073,0.598130841121,0.5,1.782091435
540,0.0860965051063,0.0898414553797,0.0969298457533,0.752592592593,0.727810650888,0.691943127962,0.626398210291,0.581818181818,0.511278195489,1.812930991
550,0.0854514760802,0.089069397207,0.0960984517315,0.74962962963,0.733727810651,0.691943127962,0.625277161863,0.579439252336,0.511278195489,1.844496097
560,0.0850648466221,0.0880623947057,0.0950613828745,0.751111111111,0.733727810651,0.710900473934,0.62331838565,0.594594594595,0.554744525547,1.878489644
570,0.0866559255971,0.0905767664724,0.0974762199279,0.755555555556,0.745562130178,0.691943127962,0.624145785877,0.598130841121,0.503816793893,1.910165266
580,0.0835281409801,0.0883667063771,0.0951133184267,0.758518518519,0.745562130178,0.696682464455,0.632054176072,0.590476190476,0.507692307692,1.950575385
590,0.0835662043456,0.0890652706616,0.0956113774384,0.76,0.733727810651,0.701421800948,0.636771300448,0.587155963303,0.519083969466,1.981942248
600,0.0806467897207,0.0872583608453,0.0932112610386,0.767407407407,0.745562130178,0.691943127962,0.650334075724,0.605504587156,0.488188976378,2.013342423
610,0.0793420566728,0.0852638341447,0.0919792842968,0.771851851852,0.745562130178,0.706161137441,0.663755458515,0.612612612613,0.537313432836,2.044766143
620,0.078859180964,0.0845236614971,0.0912978489124,0.774814814815,0.745562130178,0.710900473934,0.666666666667,0.612612612613,0.541353383459,2.076186088
630,0.0772631371504,0.0825429243261,0.0899951634053,0.786666666667,0.751479289941,0.715639810427,0.675675675676,0.611111111111,0.545454545455,2.107646598
640,0.076296120723,0.0818513360091,0.0886815626377,0.791111111111,0.763313609467,0.720379146919,0.681715575621,0.615384615385,0.549618320611,2.138953502
650,0.0756950802486,0.081648302307,0.0879837841789,0.791111111111,0.763313609467,0.725118483412,0.684563758389,0.622641509434,0.539682539683,2.171465193
660,0.0754239229407,0.0815031500114,0.0872109319253,0.791111111111,0.763313609467,0.720379146919,0.681715575621,0.622641509434,0.528,2.203171212
670,0.074446426364,0.0800712313595,0.086328552823,0.792592592593,0.769230769231,0.720379146919,0.6875,0.635514018692,0.535433070866,2.235745058
680,0.0739040963518,0.078987429691,0.0855577396209,0.795555555556,0.763313609467,0.725118483412,0.691964285714,0.62962962963,0.546875,2.267255511
690,0.0733582389863,0.0784997877178,0.0846403783581,0.795555555556,0.763313609467,0.725118483412,0.691964285714,0.62962962963,0.546875,2.298577652
700,0.0735655851677,0.0792211542052,0.0853337021134,0.8,0.757396449704,0.715639810427,0.697986577181,0.609523809524,0.53125,2.335921636
710,0.0724695884251,0.0784139579189,0.0840431664134,0.8,0.769230769231,0.725118483412,0.699331848552,0.635514018692,0.553846153846,2.367244178
720,0.0712809033639,0.0769752948196,0.0820269655604,0.814814814815,0.786982248521,0.729857819905,0.724061810155,0.666666666667,0.564885496183,2.398579352
730,0.0705104469941,0.0771540866327,0.0818988257969,0.814814814815,0.781065088757,0.75355450237,0.721603563474,0.654205607477,0.587301587302,2.429869794
740,0.0696232598857,0.0724550567118,0.0802857289247,0.81037037037,0.804733727811,0.75355450237,0.715555555556,0.685714285714,0.587301587302,2.461242099
750,0.0682130513361,0.0708940757699,0.0789172564958,0.81037037037,0.798816568047,0.739336492891,0.719298245614,0.679245283019,0.573643410853,2.493398815
760,0.0679947096741,0.0706337153053,0.0783608931739,0.811851851852,0.804733727811,0.744075829384,0.720879120879,0.691588785047,0.584615384615,2.52558796
770,0.0674291170617,0.06945358151,0.0779838606247,0.814814814815,0.798816568047,0.75355450237,0.725274725275,0.679245283019,0.606060606061,2.558973687
780,0.0673301645942,0.0694370903427,0.078127659105,0.814814814815,0.804733727811,0.763033175355,0.722838137472,0.691588785047,0.609375,2.59258071
790,0.0668303339267,0.0694740961347,0.0766086935128,0.817777777778,0.810650887574,0.767772511848,0.726057906459,0.703703703704,0.608,2.626981768
800,0.0668448417043,0.0697363541283,0.0766228176312,0.816296296296,0.804733727811,0.767772511848,0.723214285714,0.691588785047,0.608,2.660686634
810,0.0679500405456,0.0710895705643,0.0772916999518,0.81037037037,0.798816568047,0.767772511848,0.715555555556,0.685185185185,0.62015503876,2.694194459
820,0.0664575974571,0.0702148507325,0.0766331047596,0.817777777778,0.798816568047,0.767772511848,0.727272727273,0.679245283019,0.60162601626,2.726985212
830,0.0654693904215,0.0698812224119,0.0766734237586,0.819259259259,0.804733727811,0.763033175355,0.73127753304,0.697247706422,0.609375,2.760479623
840,0.0652020568802,0.070167839787,0.0767266248399,0.819259259259,0.804733727811,0.763033175355,0.73127753304,0.697247706422,0.609375,2.793807975
850,0.0644580546562,0.0683001577639,0.0751686443294,0.82962962963,0.804733727811,0.767772511848,0.752688172043,0.697247706422,0.631578947368,2.826529098
860,0.0646639405474,0.0695482994521,0.0760723868637,0.825185185185,0.798816568047,0.763033175355,0.742358078603,0.685185185185,0.615384615385,2.859456937
870,0.0640686221602,0.0694175237816,0.0759062537574,0.828148148148,0.804733727811,0.767772511848,0.74672489083,0.697247706422,0.614173228346,2.891975672
880,0.0638799929494,0.0693570769708,0.0774855689952,0.817777777778,0.810650887574,0.763033175355,0.724832214765,0.703703703704,0.590163934426,2.924773176
890,0.0630420931795,0.0687326624968,0.0752705489484,0.819259259259,0.804733727811,0.767772511848,0.740425531915,0.697247706422,0.625954198473,2.956514091
900,0.0617568579268,0.0691413061641,0.07489406821,0.831111111111,0.798816568047,0.767772511848,0.754310344828,0.685185185185,0.614173228346,2.989667574
910,0.0605100847034,0.069642081504,0.0758909840699,0.831111111111,0.804733727811,0.781990521327,0.75,0.691588785047,0.629032258065,3.021437965
920,0.0602588472396,0.0692829972054,0.0761854858024,0.831111111111,0.804733727811,0.772511848341,0.748898678414,0.691588785047,0.606557377049,3.05322675
930,0.0617943438509,0.070443552921,0.0771987709953,0.826666666667,0.810650887574,0.791469194313,0.741721854305,0.692307692308,0.639344262295,3.092189958
940,0.059875933792,0.0687175681926,0.0756997232127,0.832592592593,0.810650887574,0.777251184834,0.751648351648,0.698113207547,0.617886178862,3.123833199
950,0.0598046563943,0.0687418683141,0.0758695760421,0.828148148148,0.810650887574,0.781990521327,0.742222222222,0.698113207547,0.622950819672,3.155402412
960,0.05897007386,0.0668865909477,0.0748849062501,0.838518518519,0.816568047337,0.781990521327,0.759381898455,0.710280373832,0.622950819672,3.186922135
970,0.0591543945027,0.0675895282809,0.0749428659813,0.835555555556,0.816568047337,0.772511848341,0.753880266075,0.704761904762,0.6,3.218306522
980,0.0582330990147,0.0664188233867,0.0754532553126,0.841481481481,0.816568047337,0.772511848341,0.761692650334,0.704761904762,0.6,3.249792899
990,0.0580341359925,0.0662841263764,0.0753268807778,0.841481481481,0.816568047337,0.772511848341,0.761692650334,0.704761904762,0.6,3.281248359
1000,0.057665896144,0.066571656736,0.0754836097229,0.841481481481,0.810650887574,0.777251184834,0.761692650334,0.692307692308,0.605042016807,3.312862886
1010,0.0573247952431,0.0651879931527,0.0742760077205,0.841481481481,0.810650887574,0.791469194313,0.763796909492,0.692307692308,0.639344262295,3.344137807
1020,0.0566987253213,0.0644146901427,0.073044050576,0.844444444444,0.816568047337,0.791469194313,0.772234273319,0.704761904762,0.639344262295,3.376122027
1030,0.0562218356119,0.0640623469509,0.0728415280443,0.853333333333,0.810650887574,0.796208530806,0.783369803063,0.698113207547,0.650406504065,3.407614917
1040,0.0564858417969,0.0651014742074,0.0741138968067,0.847407407407,0.816568047337,0.791469194313,0.770601336303,0.704761904762,0.639344262295,3.439237951
1050,0.0562552231555,0.0640146350121,0.0743062714915,0.848888888889,0.816568047337,0.791469194313,0.773333333333,0.704761904762,0.639344262295,3.479838224
1060,0.0558245307567,0.0643553938092,0.0740488590578,0.853333333333,0.810650887574,0.791469194313,0.779510022272,0.692307692308,0.639344262295,3.511322987
1070,0.0555153331653,0.0650652345314,0.0744911205579,0.853333333333,0.816568047337,0.78672985782,0.781456953642,0.704761904762,0.634146341463,3.542726149
1080,0.0551622881406,0.065508912293,0.0754025823906,0.854814814815,0.810650887574,0.781990521327,0.780269058296,0.692307692308,0.622950819672,3.574695852
1090,0.0553796665874,0.0654644170056,0.0757732996914,0.854814814815,0.816568047337,0.777251184834,0.779279279279,0.704761904762,0.611570247934,3.606396172
1100,0.0541854543778,0.0653352438327,0.0747805730234,0.856296296296,0.810650887574,0.781990521327,0.782997762864,0.698113207547,0.622950819672,3.63816684
1110,0.052961686513,0.0620872044251,0.0712495760477,0.854814814815,0.840236686391,0.796208530806,0.783185840708,0.752293577982,0.661417322835,3.669762893
1120,0.0528347593168,0.0623078725356,0.0712570721009,0.856296296296,0.834319526627,0.796208530806,0.78587196468,0.745454545455,0.661417322835,3.701186886
1130,0.0526094572045,0.0621401082172,0.0711687605424,0.856296296296,0.834319526627,0.791469194313,0.784922394678,0.745454545455,0.650793650794,3.732963588
1140,0.0526718572862,0.0621014764731,0.0710915637516,0.857777777778,0.828402366864,0.791469194313,0.787610619469,0.738738738739,0.650793650794,3.765291012
1150,0.0518252058847,0.0625224104744,0.0712750912225,0.860740740741,0.846153846154,0.800947867299,0.791111111111,0.759259259259,0.666666666667,3.797153347
1160,0.0513594718348,0.0623555571861,0.0696634934244,0.866666666667,0.816568047337,0.800947867299,0.803493449782,0.715596330275,0.671875,3.82890908
1170,0.0508650044405,0.0608394517263,0.0695241433077,0.866666666667,0.840236686391,0.796208530806,0.800884955752,0.747663551402,0.661417322835,3.86084977
1180,0.0507035239896,0.0615368577067,0.0690353144006,0.860740740741,0.828402366864,0.796208530806,0.79203539823,0.733944954128,0.666666666667,3.892762579
1190,0.0506024072743,0.060612266366,0.068798509317,0.868148148148,0.828402366864,0.800947867299,0.805251641138,0.733944954128,0.676923076923,3.924553539
1200,0.0504331257353,0.0608556643671,0.0676549015255,0.872592592593,0.834319526627,0.810426540284,0.814655172414,0.745454545455,0.69696969697,3.956549101
1210,0.0500601998114,0.0611260389812,0.0677838293317,0.874074074074,0.834319526627,0.805687203791,0.817204301075,0.745454545455,0.687022900763,3.98851559
1220,0.0500782398181,0.0611888280641,0.0677643140098,0.872592592593,0.834319526627,0.815165876777,0.814655172414,0.745454545455,0.706766917293,4.020940838
1230,0.0500435626449,0.0611813972589,0.0680408689775,0.871111111111,0.834319526627,0.800947867299,0.812095032397,0.745454545455,0.676923076923,4.052730456
1240,0.0497482742073,0.0611237829726,0.0677956506368,0.872592592593,0.828402366864,0.805687203791,0.814655172414,0.738738738739,0.687022900763,4.084686154
1250,0.0496928827155,0.0612498214308,0.0680202440287,0.874074074074,0.828402366864,0.805687203791,0.816414686825,0.738738738739,0.687022900763,4.116048431
1260,0.0496598473321,0.0612054496996,0.0680437082111,0.874074074074,0.828402366864,0.805687203791,0.816414686825,0.738738738739,0.687022900763,4.148221605
1270,0.049759674422,0.0612869004882,0.0688860710838,0.877037037037,0.846153846154,0.815165876777,0.821505376344,0.771929824561,0.706766917293,4.179622223
1280,0.0493491841846,0.0606799019248,0.0678626892268,0.86962962963,0.834319526627,0.810426540284,0.807860262009,0.75,0.69696969697,4.210851098
1290,0.0491369406916,0.0608230576313,0.0681426774554,0.875555555556,0.840236686391,0.810426540284,0.818181818182,0.761061946903,0.69696969697,4.246594813
1300,0.0489076327342,0.0607991872319,0.0672959520749,0.872592592593,0.834319526627,0.81990521327,0.813043478261,0.75,0.716417910448,4.279208112
1310,0.0487237767106,0.06149312249,0.0668613853012,0.877037037037,0.840236686391,0.815165876777,0.820734341253,0.761061946903,0.706766917293,4.310536113
1320,0.0486080939681,0.0610794145387,0.0670982696531,0.875555555556,0.846153846154,0.815165876777,0.817391304348,0.767857142857,0.706766917293,4.341973831
1330,0.0487003391965,0.0619111121493,0.0665337896139,0.878518518519,0.840236686391,0.824644549763,0.822510822511,0.765217391304,0.725925925926,4.373449019
1340,0.0475418132032,0.0612871290476,0.0654388370577,0.881481481481,0.840236686391,0.834123222749,0.828326180258,0.773109243697,0.744525547445,4.404819351
1350,0.0478191478489,0.0604352168137,0.0659416821851,0.868148148148,0.828402366864,0.800947867299,0.805251641138,0.747826086957,0.671875,4.436173811
1360,0.0474574017958,0.060151826133,0.0653169803972,0.878518518519,0.840236686391,0.834123222749,0.823275862069,0.769230769231,0.744525547445,4.467563117
1370,0.0473217195231,0.0596567306363,0.0652432559833,0.874074074074,0.840236686391,0.815165876777,0.814814814815,0.765217391304,0.706766917293,4.499006304
1380,0.0472377690047,0.0592955645296,0.0650692997361,0.877037037037,0.846153846154,0.824644549763,0.820734341253,0.775862068966,0.725925925926,4.530370633
1390,0.0472287783794,0.0592095203065,0.0650509037414,0.877037037037,0.846153846154,0.824644549763,0.820734341253,0.775862068966,0.725925925926,4.562109685
1400,0.0471967456419,0.0591704821097,0.0644275623416,0.878518518519,0.840236686391,0.829383886256,0.824034334764,0.773109243697,0.735294117647,4.59333711
1410,0.0469067567312,0.0592505588511,0.0645877952626,0.88,0.834319526627,0.829383886256,0.825806451613,0.762711864407,0.735294117647,4.633656268
1420,0.0467230100247,0.0587518620551,0.0642713970868,0.88,0.834319526627,0.824644549763,0.82505399568,0.758620689655,0.725925925926,4.666020391
1430,0.0465743252211,0.0579197835384,0.0643009533289,0.881481481481,0.828402366864,0.829383886256,0.825327510917,0.752136752137,0.727272727273,4.697274514
1440,0.0463312158952,0.0585547499555,0.064315776137,0.881481481481,0.822485207101,0.815165876777,0.826086956522,0.736842105263,0.706766917293,4.728472101
1450,0.0464118639031,0.0586225321317,0.0644109893527,0.884444444444,0.822485207101,0.81990521327,0.831168831169,0.736842105263,0.712121212121,4.759868398
1460,0.0458969061926,0.0589388034865,0.0637235262983,0.882962962963,0.828402366864,0.815165876777,0.829373650108,0.747826086957,0.706766917293,4.791523812
1470,0.0459000800027,0.0578690355714,0.0632688728894,0.884444444444,0.828402366864,0.81990521327,0.830434782609,0.747826086957,0.712121212121,4.822922064
1480,0.0456599073356,0.0582116732939,0.0637718244519,0.882962962963,0.834319526627,0.824644549763,0.826373626374,0.75,0.717557251908,4.854091591
1490,0.0461201562064,0.0584131789361,0.0649076372212,0.878518518519,0.834319526627,0.824644549763,0.817777777778,0.745454545455,0.713178294574,4.88605349
1500,0.04553181517,0.057773544413,0.06364960819,0.884444444444,0.840236686391,0.824644549763,0.829694323144,0.761061946903,0.721804511278,4.917563359
1510,0.0454909879334,0.0578456201978,0.0637844327598,0.882962962963,0.840236686391,0.824644549763,0.827133479212,0.761061946903,0.721804511278,4.949261804
1520,0.0453296797631,0.057785928976,0.0636429812169,0.887407407407,0.846153846154,0.834123222749,0.834782608696,0.771929824561,0.728682170543,4.980978412
1530,0.0453785475422,0.0578427054031,0.0644005740348,0.888888888889,0.846153846154,0.829383886256,0.835164835165,0.767857142857,0.71875,5.021887827
1540,0.0450183009024,0.0572304105249,0.0638700560796,0.888888888889,0.846153846154,0.829383886256,0.835886214442,0.771929824561,0.71875,5.054761574
1550,0.0448297687561,0.0569698684887,0.0635814593901,0.887407407407,0.840236686391,0.834123222749,0.833333333333,0.761061946903,0.728682170543,5.086753639
1560,0.0446264125344,0.0565428622199,0.0625464812308,0.891851851852,0.846153846154,0.838862559242,0.841648590022,0.775862068966,0.738461538462,5.118743108
1570,0.0444006618305,0.0570948768643,0.0641085394773,0.891851851852,0.846153846154,0.81990521327,0.840262582057,0.771929824561,0.698412698413,5.150846842
1580,0.0444626064657,0.0564802907291,0.0635090081771,0.891851851852,0.846153846154,0.81990521327,0.840958605664,0.771929824561,0.698412698413,5.182828268
1590,0.0441586066649,0.056860640855,0.0642135725179,0.891851851852,0.852071005917,0.81990521327,0.83885209713,0.778761061947,0.698412698413,5.214752326
1600,0.0436132812288,0.0558792024457,0.0625750408571,0.893333333333,0.846153846154,0.824644549763,0.842794759825,0.775862068966,0.713178294574,5.246706692
1610,0.0433407738776,0.0554796511827,0.0623175299686,0.893333333333,0.846153846154,0.829383886256,0.842794759825,0.775862068966,0.723076923077,5.278986569
1620,0.0432064033832,0.0550254127074,0.0617599956383,0.893333333333,0.846153846154,0.829383886256,0.842794759825,0.775862068966,0.723076923077,5.311318744
1630,0.043115772841,0.0550448476611,0.0617985956591,0.89037037037,0.846153846154,0.834123222749,0.838427947598,0.775862068966,0.732824427481,5.342927131
1640,0.042960019041,0.055455878801,0.0615682351039,0.89037037037,0.846153846154,0.834123222749,0.838427947598,0.775862068966,0.732824427481,5.374516709
1650,0.0426502762392,0.055149007158,0.0616493862795,0.893333333333,0.846153846154,0.829383886256,0.842105263158,0.775862068966,0.723076923077,5.407560248
1660,0.0426028597948,0.0553655781231,0.0618677007935,0.894814814815,0.846153846154,0.824644549763,0.843956043956,0.775862068966,0.713178294574,5.44008423
1670,0.0423854286489,0.0555470213844,0.0620599316942,0.896296296296,0.846153846154,0.834123222749,0.845814977974,0.775862068966,0.732824427481,5.472713109
1680,0.0423315859503,0.0555487372496,0.0617959092129,0.896296296296,0.846153846154,0.838862559242,0.845814977974,0.775862068966,0.742424242424,5.504384712
1690,0.0421797218817,0.055898773297,0.0617533153462,0.897777777778,0.840236686391,0.838862559242,0.848351648352,0.769230769231,0.742424242424,5.535845943
1700,0.0421367175457,0.0562786381129,0.0623779227377,0.897777777778,0.840236686391,0.829383886256,0.847682119205,0.765217391304,0.723076923077,5.56739485
1710,0.0420231101274,0.0561083491234,0.061666131705,0.897777777778,0.840236686391,0.838862559242,0.848351648352,0.769230769231,0.742424242424,5.599394237
1720,0.0421125758385,0.0562792390876,0.0613750749328,0.897777777778,0.840236686391,0.838862559242,0.849015317287,0.769230769231,0.742424242424,5.632075135
1730,0.0420123259066,0.0557220934288,0.0611781123144,0.897777777778,0.840236686391,0.838862559242,0.849015317287,0.769230769231,0.742424242424,5.663300443
1740,0.0419337674388,0.0560748386384,0.0608703716322,0.900740740741,0.840236686391,0.838862559242,0.853391684902,0.769230769231,0.742424242424,5.694730536
1750,0.0416457497686,0.0555876647362,0.0605795755718,0.900740740741,0.846153846154,0.838862559242,0.853391684902,0.779661016949,0.742424242424,5.72625105
1760,0.0416438857664,0.0559899833269,0.0624716425052,0.902222222222,0.834319526627,0.834123222749,0.853982300885,0.758620689655,0.732824427481,5.757448977
1770,0.0415101555711,0.0558999090426,0.0623470144319,0.902222222222,0.840236686391,0.834123222749,0.853333333333,0.769230769231,0.732824427481,5.789089924
1780,0.041438438125,0.0545559997124,0.061734534136,0.899259259259,0.840236686391,0.834123222749,0.850877192982,0.769230769231,0.728682170543,5.826741443
1790,0.041507739803,0.0554165267631,0.0631170849786,0.902222222222,0.840236686391,0.824644549763,0.853333333333,0.765217391304,0.708661417323,5.858083189
1800,0.0420466716218,0.0540304484146,0.0626825652309,0.899259259259,0.840236686391,0.829383886256,0.849557522124,0.765217391304,0.71875,5.889426971
1810,0.0407177912848,0.0559138427354,0.0612236497689,0.900740740741,0.852071005917,0.834123222749,0.854030501089,0.786324786325,0.728682170543,5.922632421
1820,0.0406740941108,0.0558458475471,0.0612671221351,0.900740740741,0.852071005917,0.834123222749,0.853391684902,0.786324786325,0.728682170543,5.955459252
1830,0.0406229424693,0.0558289238045,0.0610827437527,0.900740740741,0.852071005917,0.834123222749,0.853391684902,0.786324786325,0.728682170543,5.98812972
1840,0.040623517101,0.0558414450591,0.0610865648793,0.900740740741,0.852071005917,0.834123222749,0.853391684902,0.786324786325,0.728682170543,6.019975633
1850,0.0405509746722,0.0558205831284,0.0611969098044,0.902222222222,0.852071005917,0.834123222749,0.855263157895,0.786324786325,0.728682170543,6.052467624
1860,0.0402828460762,0.055741060772,0.0610065492407,0.903703703704,0.846153846154,0.834123222749,0.857768052516,0.775862068966,0.728682170543,6.084815295
1870,0.0400937885987,0.0561162628856,0.0609879108697,0.905185185185,0.846153846154,0.829383886256,0.860262008734,0.775862068966,0.71875,6.117766368
1880,0.0399393442709,0.0561542734035,0.0608327836202,0.908148148148,0.846153846154,0.834123222749,0.864628820961,0.775862068966,0.728682170543,6.150042564
1890,0.0400422443154,0.0561268301617,0.0606360700059,0.90962962963,0.846153846154,0.834123222749,0.867102396514,0.775862068966,0.728682170543,6.182820062
1900,0.0399062379199,0.0560308222186,0.0607437510233,0.90962962963,0.846153846154,0.834123222749,0.867102396514,0.775862068966,0.728682170543,6.217319617
1910,0.0398004116077,0.0560078790107,0.0605351060211,0.90962962963,0.846153846154,0.829383886256,0.866520787746,0.775862068966,0.723076923077,6.249778948
1920,0.039697403044,0.0562044105597,0.0601107688603,0.908148148148,0.846153846154,0.834123222749,0.864628820961,0.775862068966,0.732824427481,6.282691107
1930,0.0395403492128,0.0557678275026,0.0603573506802,0.906666666667,0.846153846154,0.834123222749,0.861538461538,0.775862068966,0.732824427481,6.315386511
1940,0.0393161720194,0.0554997178627,0.0595341357873,0.906666666667,0.846153846154,0.838862559242,0.863930885529,0.775862068966,0.738461538462,6.347965778
1950,0.0396073703183,0.0537390635216,0.0606369714312,0.911111111111,0.852071005917,0.829383886256,0.87012987013,0.782608695652,0.71875,6.380921409
1960,0.0391369874381,0.0548546983687,0.0598065536094,0.90962962963,0.852071005917,0.824644549763,0.867678958785,0.786324786325,0.708661417323,6.412273826
1970,0.0391281824532,0.0553232760582,0.0601831601743,0.911111111111,0.852071005917,0.834123222749,0.869565217391,0.782608695652,0.728682170543,6.443248005
1980,0.0390198865363,0.0555106776213,0.0597673357556,0.90962962963,0.846153846154,0.834123222749,0.868250539957,0.775862068966,0.728682170543,6.474107288
1990,0.0389758263252,0.0559497194117,0.0603737407236,0.908148148148,0.846153846154,0.829383886256,0.866379310345,0.775862068966,0.71875,6.50562324
2000,0.0388640105808,0.0558643674863,0.0615000128485,0.90962962963,0.852071005917,0.829383886256,0.867678958785,0.782608695652,0.71875,6.536564257
2010,0.0386743463035,0.0555118447308,0.060741045055,0.911111111111,0.852071005917,0.829383886256,0.869565217391,0.782608695652,0.71875,6.567471843
2020,0.0385675790316,0.0555731393004,0.0614939230937,0.90962962963,0.852071005917,0.829383886256,0.867102396514,0.782608695652,0.71875,6.598842493
2030,0.0385569296334,0.0554196427046,0.0614284956768,0.908148148148,0.852071005917,0.829383886256,0.864628820961,0.782608695652,0.71875,6.630493048
2040,0.0385206722118,0.0550262714483,0.0612510968478,0.908148148148,0.852071005917,0.829383886256,0.864628820961,0.782608695652,0.71875,6.661536006
2050,0.0384908267734,0.054821092582,0.0606640355549,0.906666666667,0.85798816568,0.829383886256,0.863340563991,0.793103448276,0.71875,6.69292367
2060,0.0384736140466,0.0548446587179,0.0606559164834,0.906666666667,0.85798816568,0.829383886256,0.863340563991,0.793103448276,0.71875,6.724947935
2070,0.0386348308006,0.0547280250571,0.0616511106095,0.906666666667,0.85798816568,0.829383886256,0.861538461538,0.793103448276,0.71875,6.755828529
2080,0.0383987042403,0.054978342512,0.0610399387701,0.905185185185,0.852071005917,0.829383886256,0.860869565217,0.782608695652,0.71875,6.786967507
2090,0.0382621194909,0.0553747848204,0.0614101388426,0.905185185185,0.85798816568,0.824644549763,0.857777777778,0.789473684211,0.708661417323,6.819054082
2100,0.0382429803715,0.055430075039,0.0614409203415,0.905185185185,0.85798816568,0.824644549763,0.857777777778,0.789473684211,0.708661417323,6.850065507
2110,0.0379283722524,0.0554856493349,0.0615020406885,0.906666666667,0.85798816568,0.81990521327,0.860927152318,0.789473684211,0.698412698413,6.881142727
2120,0.0377576463944,0.055054207521,0.0617533449134,0.906666666667,0.846153846154,0.81990521327,0.860927152318,0.771929824561,0.698412698413,6.913080029
2130,0.0376535376318,0.0546453092942,0.0609570865509,0.911111111111,0.834319526627,0.829383886256,0.867841409692,0.758620689655,0.71875,6.944057645
2140,0.0375954216304,0.0541247310358,0.0608961251475,0.908148148148,0.840236686391,0.824644549763,0.862831858407,0.769230769231,0.708661417323,6.975415523
2150,0.0377663005852,0.0542550697511,0.0597486131516,0.90962962963,0.840236686391,0.834123222749,0.867102396514,0.769230769231,0.728682170543,7.012773835
2160,0.0374978984553,0.0536169558317,0.0598613223779,0.911111111111,0.840236686391,0.829383886256,0.868421052632,0.769230769231,0.71875,7.043748886
2170,0.0373530226363,0.0539511968782,0.0601800594904,0.911111111111,0.840236686391,0.829383886256,0.868421052632,0.769230769231,0.71875,7.075943803
2180,0.0372876382712,0.0540272288474,0.0601195674978,0.912592592593,0.840236686391,0.829383886256,0.870897155361,0.769230769231,0.71875,7.106878567
2190,0.0374645100028,0.0530488977474,0.0605097183227,0.911111111111,0.852071005917,0.81990521327,0.868421052632,0.782608695652,0.698412698413,7.137800589
2200,0.0372320614735,0.0537636245042,0.0604548995207,0.90962962963,0.852071005917,0.81990521327,0.866520787746,0.782608695652,0.698412698413,7.168957587
2210,0.0371561159404,0.0536312712728,0.0609307638067,0.914074074074,0.852071005917,0.81990521327,0.872807017544,0.782608695652,0.698412698413,7.200215125
2220,0.0372714704823,0.0540981833894,0.0615126937982,0.912592592593,0.852071005917,0.81990521327,0.87032967033,0.782608695652,0.698412698413,7.231723204
2230,0.0370726019597,0.0539429180986,0.0611935173076,0.914074074074,0.85798816568,0.81990521327,0.872246696035,0.789473684211,0.698412698413,7.263255939
2240,0.0370492232207,0.0539381585137,0.0611060958193,0.911111111111,0.85798816568,0.81990521327,0.867841409692,0.789473684211,0.698412698413,7.294826485
2250,0.0370879843344,0.0539939856974,0.0621300584725,0.90962962963,0.85798816568,0.81990521327,0.865342163355,0.785714285714,0.698412698413,7.327294073
2260,0.037011919072,0.0541901475334,0.0614270185228,0.908148148148,0.852071005917,0.81990521327,0.862831858407,0.778761061947,0.698412698413,7.359624424
2270,0.0369274790082,0.0541599565085,0.0614036343477,0.911111111111,0.852071005917,0.81990521327,0.867841409692,0.782608695652,0.698412698413,7.391982446
2280,0.0367704522981,0.0544294177613,0.0608896919014,0.911111111111,0.846153846154,0.81990521327,0.868421052632,0.775862068966,0.698412698413,7.438206316
2290,0.0368265074133,0.0535162771645,0.0611813413226,0.912592592593,0.846153846154,0.824644549763,0.869757174393,0.775862068966,0.708661417323,7.470622145
2300,0.0366564486732,0.0543537008639,0.061586037403,0.911111111111,0.846153846154,0.824644549763,0.867841409692,0.775862068966,0.708661417323,7.503223051
2310,0.0365928356998,0.0542551702334,0.0613233838499,0.912592592593,0.852071005917,0.824644549763,0.870897155361,0.782608695652,0.708661417323,7.535776238
2320,0.0365347732708,0.0545593227552,0.0610303976843,0.90962962963,0.840236686391,0.824644549763,0.865934065934,0.769230769231,0.708661417323,7.568396533
2330,0.0363182851617,0.0541127384339,0.0622386454925,0.90962962963,0.852071005917,0.815165876777,0.864745011086,0.778761061947,0.688,7.60093356
2340,0.0362350261967,0.0541673218534,0.0612455548611,0.912592592593,0.852071005917,0.829383886256,0.869757174393,0.782608695652,0.71875,7.633531222
2350,0.0356796129627,0.0529182842428,0.0608904002976,0.90962962963,0.863905325444,0.824644549763,0.865934065934,0.8,0.708661417323,7.665807499
2360,0.0352287892774,0.0518830462831,0.060573503059,0.912592592593,0.863905325444,0.829383886256,0.87032967033,0.8,0.71875,7.698087054
2370,0.0352657478721,0.0515945041625,0.0603680858209,0.914074074074,0.85798816568,0.834123222749,0.873362445415,0.793103448276,0.728682170543,7.730339439
2380,0.0351542758247,0.0541305465189,0.0641357344127,0.92,0.846153846154,0.815165876777,0.878378378378,0.771929824561,0.692913385827,7.762581706
2390,0.0346036737919,0.0524235832652,0.0611724068009,0.918518518519,0.85798816568,0.824644549763,0.879649890591,0.793103448276,0.713178294574,7.794974904
2400,0.0345987583483,0.0523970439791,0.0611901321112,0.915555555556,0.85798816568,0.824644549763,0.875273522976,0.793103448276,0.713178294574,7.831966006
2410,0.0346262847403,0.0524866059765,0.0606493041881,0.914074074074,0.85798816568,0.834123222749,0.873362445415,0.793103448276,0.728682170543,7.86429387
2420,0.0345490143365,0.052513409576,0.0612929241481,0.918518518519,0.85798816568,0.829383886256,0.880694143167,0.793103448276,0.71875,7.896712274
2430,0.0343237782366,0.0528671884952,0.0613084116837,0.918518518519,0.85798816568,0.815165876777,0.880174291939,0.793103448276,0.702290076336,7.929124087
2440,0.0343062683131,0.0528778030691,0.0610231602122,0.918518518519,0.85798816568,0.815165876777,0.880174291939,0.793103448276,0.702290076336,7.96162865
2450,0.0342474645706,0.0525596580084,0.0609438225384,0.92,0.85798816568,0.815165876777,0.882096069869,0.793103448276,0.702290076336,7.993912543
2460,0.0340876665682,0.0526975402759,0.0597064340347,0.92,0.863905325444,0.815165876777,0.882608695652,0.803418803419,0.706766917293,8.027130756
2470,0.0345967735759,0.0533443958067,0.0608432965534,0.915555555556,0.869822485207,0.824644549763,0.87417218543,0.810344827586,0.708661417323,8.059577362
2480,0.0338791644247,0.0516861750036,0.0598480196551,0.92,0.869822485207,0.815165876777,0.881578947368,0.810344827586,0.702290076336,8.09253646
2490,0.0337322024524,0.0515636388906,0.0599424365922,0.918518518519,0.869822485207,0.815165876777,0.879120879121,0.810344827586,0.702290076336,8.126056631
2500,0.0336160115725,0.0512121860963,0.0602557491023,0.92,0.869822485207,0.815165876777,0.881057268722,0.810344827586,0.697674418605,8.158368185
2510,0.0335774486214,0.0509495904193,0.0597874091928,0.921481481481,0.869822485207,0.815165876777,0.883516483516,0.810344827586,0.697674418605,8.190624846
2520,0.0335572817749,0.0508638360401,0.0606623670078,0.925925925926,0.869822485207,0.815165876777,0.889380530973,0.810344827586,0.697674418605,8.23814563
2530,0.033408090894,0.0511953728974,0.0610168198653,0.925925925926,0.869822485207,0.805687203791,0.889380530973,0.810344827586,0.682170542636,8.27051338
2540,0.033432974625,0.0511589192619,0.061619622636,0.925925925926,0.869822485207,0.810426540284,0.889380530973,0.810344827586,0.6875,8.303608371
2550,0.0333731797164,0.0510481494899,0.0615947962217,0.925925925926,0.869822485207,0.810426540284,0.889380530973,0.810344827586,0.6875,8.336056712
2560,0.0338250134232,0.0505556211882,0.0623268209185,0.921481481481,0.87573964497,0.81990521327,0.881431767338,0.817391304348,0.693548387097,8.368637883
2570,0.0331732621025,0.0507439620265,0.0606984067909,0.925925925926,0.869822485207,0.824644549763,0.888888888889,0.810344827586,0.708661417323,8.405142212
2580,0.0330135305639,0.0507765501239,0.0606901753026,0.927407407407,0.87573964497,0.81990521327,0.891352549889,0.817391304348,0.698412698413,8.437924298
2590,0.0330710663545,0.0512801527509,0.0605510161747,0.925925925926,0.87573964497,0.81990521327,0.888888888889,0.817391304348,0.698412698413,8.470670787
2600,0.032834114553,0.0508197531048,0.0605523508671,0.927407407407,0.87573964497,0.81990521327,0.891832229581,0.817391304348,0.698412698413,8.503741887
2610,0.032876452067,0.0507826324735,0.0603484399416,0.928888888889,0.87573964497,0.815165876777,0.894736842105,0.817391304348,0.688,8.537062951
2620,0.0328241194358,0.0508708533767,0.0597077406874,0.927407407407,0.87573964497,0.810426540284,0.892307692308,0.817391304348,0.68253968254,8.569858504
2630,0.0328054034282,0.0509846867868,0.05953192085,0.93037037037,0.87573964497,0.81990521327,0.896703296703,0.817391304348,0.693548387097,8.602573926
2640,0.0324648658161,0.0505617168736,0.0595123500787,0.928888888889,0.87573964497,0.824644549763,0.894736842105,0.817391304348,0.704,8.650150063
2650,0.0323824012748,0.0503356092498,0.0594636755973,0.93037037037,0.87573964497,0.81990521327,0.89715536105,0.817391304348,0.698412698413,8.682818489
2660,0.0327123179748,0.050496010006,0.060405831707,0.925925925926,0.87573964497,0.824644549763,0.88986784141,0.817391304348,0.704,8.715439022
2670,0.0323077678492,0.0501310837553,0.0594065641293,0.927407407407,0.87573964497,0.824644549763,0.892778993435,0.817391304348,0.704,8.748064946
2680,0.032281863179,0.0500225678322,0.0591953921944,0.928888888889,0.87573964497,0.824644549763,0.894736842105,0.817391304348,0.704,8.780668736
2690,0.0321932248261,0.0497492892342,0.0599131830549,0.925925925926,0.87573964497,0.81990521327,0.890350877193,0.817391304348,0.693548387097,8.813254805
2700,0.0324308097872,0.0508488300058,0.0595966024825,0.927407407407,0.87573964497,0.829383886256,0.892778993435,0.817391304348,0.71875,8.845885397
2710,0.0320641314987,0.0507699421847,0.058762717458,0.925925925926,0.869822485207,0.824644549763,0.890829694323,0.80701754386,0.713178294574,8.878326655
2720,0.0320300766059,0.0505699393192,0.058951935482,0.927407407407,0.87573964497,0.815165876777,0.893246187364,0.817391304348,0.692913385827,8.910952351
2730,0.031883580989,0.0503864899722,0.0598002750403,0.93037037037,0.869822485207,0.81990521327,0.896703296703,0.80701754386,0.698412698413,8.943279805
2740,0.0318545196865,0.0505471182663,0.0590351829023,0.925925925926,0.869822485207,0.824644549763,0.890350877193,0.80701754386,0.713178294574,8.975693201
2750,0.057927631955,0.0692028233491,0.0888220935533,0.848888888889,0.798816568047,0.767772511848,0.72131147541,0.622222222222,0.514851485149,9.008213104
2760,0.0313639998975,0.0493710055279,0.0590289656614,0.928888888889,0.869822485207,0.829383886256,0.892857142857,0.80701754386,0.714285714286,9.045371459
2770,0.0314531755308,0.0495497764536,0.0587940646358,0.928888888889,0.869822485207,0.834123222749,0.892857142857,0.80701754386,0.724409448819,9.07779952
2780,0.0312973972491,0.0494546325991,0.0587733019768,0.928888888889,0.869822485207,0.834123222749,0.892857142857,0.80701754386,0.724409448819,9.110228484
2790,0.0313335574382,0.0497965985117,0.0586279763244,0.928888888889,0.869822485207,0.834123222749,0.892857142857,0.80701754386,0.724409448819,9.142634494
2800,0.0312505169273,0.0501968305363,0.0577673801044,0.928888888889,0.869822485207,0.834123222749,0.894736842105,0.80701754386,0.728682170543,9.174892326
2810,0.0310951679167,0.0501438670188,0.0578052228692,0.934814814815,0.869822485207,0.834123222749,0.903083700441,0.80701754386,0.728682170543,9.207120205
2820,0.0309801964882,0.0495570099604,0.0578226632507,0.936296296296,0.869822485207,0.834123222749,0.905077262693,0.80701754386,0.728682170543,9.239449524
2830,0.0308556915511,0.0496588084293,0.0576698744468,0.934814814815,0.87573964497,0.834123222749,0.902654867257,0.814159292035,0.724409448819,9.271767221
2840,0.0308353399052,0.0496700757496,0.057635663464,0.936296296296,0.87573964497,0.838862559242,0.905077262693,0.814159292035,0.734375,9.304153946
2850,0.0308464342476,0.0495648319706,0.0578298838306,0.933333333333,0.881656804734,0.824644549763,0.90022172949,0.824561403509,0.708661417323,9.336650597
2860,0.0305846242146,0.049739595705,0.0580583802981,0.933333333333,0.87573964497,0.824644549763,0.901531728665,0.817391304348,0.713178294574,9.369083138
2870,0.0305940238715,0.0495102343024,0.0578342522103,0.936296296296,0.87573964497,0.829383886256,0.90590809628,0.817391304348,0.723076923077,9.401521428
2880,0.0304478732868,0.049534632764,0.0572844724109,0.934814814815,0.87573964497,0.834123222749,0.90350877193,0.817391304348,0.728682170543,9.434751705
2890,0.030417987906,0.0494977382612,0.0573344455189,0.934814814815,0.87573964497,0.829383886256,0.90350877193,0.817391304348,0.723076923077,9.467197581
2900,0.03056908991,0.0488503967389,0.0581231240115,0.934814814815,0.87573964497,0.815165876777,0.901785714286,0.817391304348,0.692913385827,9.49991256
2910,0.0304766890432,0.049343569865,0.0574656338615,0.934814814815,0.87573964497,0.824644549763,0.90350877193,0.817391304348,0.713178294574,9.53239353
2920,0.0303850771114,0.0493134195222,0.0576605463818,0.934814814815,0.87573964497,0.824644549763,0.90350877193,0.817391304348,0.713178294574,9.564746633
2930,0.0305801314217,0.0497200921708,0.0578556639431,0.931851851852,0.87573964497,0.834123222749,0.898678414097,0.817391304348,0.728682170543,9.596990953
2940,0.0302869214733,0.0491076655872,0.0577008683762,0.933333333333,0.87573964497,0.829383886256,0.901098901099,0.817391304348,0.723076923077,9.629268281
2950,0.0302819608316,0.0491436898644,0.0577027901836,0.933333333333,0.87573964497,0.829383886256,0.901098901099,0.817391304348,0.723076923077,9.663343611
2960,0.0302643458084,0.0491048602989,0.057695334735,0.933333333333,0.87573964497,0.829383886256,0.901098901099,0.817391304348,0.723076923077,9.696684633
2970,0.0302664958017,0.049087972906,0.0577338576914,0.933333333333,0.87573964497,0.829383886256,0.901098901099,0.817391304348,0.723076923077,9.730335785
2980,0.0300430333771,0.0492508859366,0.057953776342,0.934814814815,0.87573964497,0.824644549763,0.903083700441,0.817391304348,0.713178294574,9.764089541
2990,0.0299832242062,0.0491717316184,0.057959788647,0.934814814815,0.87573964497,0.824644549763,0.90350877193,0.817391304348,0.713178294574,9.797509526
