,mean_fit_time,std_fit_time,mean_score_time,std_score_time,param_NN__alpha,param_NN__hidden_layer_sizes,params,split0_test_score,split1_test_score,split2_test_score,split3_test_score,split4_test_score,mean_test_score,std_test_score,rank_test_score,split0_train_score,split1_train_score,split2_train_score,split3_train_score,split4_train_score,mean_train_score,std_train_score
0,1.5980475902557374,1.061485412400358,0.0299379825592041,0.027081149368343743,0.1,"(50, 50)","{'NN__alpha': 0.1, 'NN__hidden_layer_sizes': (50, 50)}",0.7238095238095238,0.6737179487179488,0.7557692307692309,0.72911279896574,0.7068923723335486,0.7178654372314678,0.027093446631849604,8,0.7480537898294173,0.7065611109438809,0.7376860018261542,0.73271654075487,0.7629879395022604,0.7376010765713166,0.018660639820349424
1,1.1030220985412598,0.41092913349582116,0.01030902862548828,0.00711587312601987,0.1,"(50,)","{'NN__alpha': 0.1, 'NN__hidden_layer_sizes': (50,)}",0.7017857142857142,0.7205128205128205,0.7400641025641025,0.6792178409825468,0.6834599224305106,0.7050475046690154,0.02283194447769906,18,0.741465843257161,0.7238318132105194,0.7405406218957888,0.6842893117656189,0.6899040266742765,0.7160063233606728,0.024489409818063666
2,0.6649816513061524,0.15626105897074394,0.0006081104278564453,6.654569635169796e-06,0.1,"(25,)","{'NN__alpha': 0.1, 'NN__hidden_layer_sizes': (25,)}",0.6404761904761904,0.7192307692307692,0.7544871794871794,0.7135180995475113,0.7045087265675499,0.7063806484304039,0.03715513120899369,17,0.708018184744126,0.7389076186749344,0.71533317279231,0.7348893327926385,0.7396854958621829,0.7273667609732384,0.01312026188103635
3,1.1855225086212158,0.26289139434850445,0.011545324325561523,0.019675705061866985,0.1,"(25, 25)","{'NN__alpha': 0.1, 'NN__hidden_layer_sizes': (25, 25)}",0.7440476190476191,0.6887820512820514,0.7471153846153846,0.7447478991596638,0.6762685843568196,0.720230934540586,0.03101072115812685,5,0.7341637833923397,0.7494456317790955,0.7368682459889828,0.7315174999874838,0.7281606864821296,0.7360311695260062,0.007300045774699923
4,2.610447359085083,0.5968705319331649,0.029272031784057618,0.0060659696949202325,0.1,"(100, 25, 100)","{'NN__alpha': 0.1, 'NN__hidden_layer_sizes': (100, 25, 100)}",0.7196428571428571,0.7112179487179487,0.7102564102564103,0.7338800904977375,0.7188510019392371,0.7187568658452589,0.008460505498390542,7,0.7449609752172511,0.7583230486740314,0.6837316757472682,0.7481338519998199,0.7395002578313132,0.7349299618939368,0.026322433628496962
5,2.0285635948181153,0.17204314103734394,0.015220260620117188,0.00639363662398798,0.01,"(50, 50)","{'NN__alpha': 0.01, 'NN__hidden_layer_sizes': (50, 50)}",0.7267857142857143,0.6778846153846155,0.7557692307692309,0.723093083387201,0.7032967032967031,0.7173817423442875,0.02590530510527048,9,0.7392832716446732,0.7053620701764948,0.7378390174889378,0.7249014984254768,0.7386691899090331,0.7292110095289231,0.013059050162823332
6,1.1641430854797363,0.27838133221712247,0.011228799819946289,0.006501282198202887,0.01,"(50,)","{'NN__alpha': 0.01, 'NN__hidden_layer_sizes': (50,)}",0.7017857142857142,0.7205128205128205,0.739423076923077,0.6792178409825468,0.6834599224305106,0.7049191849696501,0.022635742538641097,19,0.7380159719987125,0.7238318132105194,0.7411276000120405,0.6842893117656189,0.6921469087777795,0.7158823211529342,0.02346020064354143
7,0.8005416393280029,0.1529243897386056,0.0006291866302490234,4.413281818799101e-05,0.01,"(25,)","{'NN__alpha': 0.01, 'NN__hidden_layer_sizes': (25,)}",0.6446428571428571,0.7192307692307692,0.7544871794871794,0.7135180995475113,0.7045087265675499,0.7072184500389831,0.03567720535418658,13,0.7078622867718055,0.7444437755235143,0.7195172732107201,0.7359331741287554,0.738641654526066,0.7292796328321722,0.013534213410418213
8,1.0822457790374755,0.6216543070267215,0.007178115844726563,0.012962083835546754,0.01,"(25, 25)","{'NN__alpha': 0.01, 'NN__hidden_layer_sizes': (25, 25)}",0.7351190476190478,0.6977564102564102,0.7471153846153846,0.7243455074337427,0.6810762766645119,0.7171243303123132,0.02428184871029157,10,0.7362558336015448,0.7485526223372766,0.7415364779306262,0.7328717401861392,0.7281606864821296,0.7374754721075434,0.007051838376538078
9,2.6853494167327883,0.34115701677451316,0.01779770851135254,0.006481492446488064,0.01,"(100, 25, 100)","{'NN__alpha': 0.01, 'NN__hidden_layer_sizes': (100, 25, 100)}",0.7404761904761905,0.7057692307692307,0.7169871794871795,0.7302844214608921,0.7146493212669682,0.721648617857812,0.012277071513050398,4,0.7491450756356611,0.758170033011248,0.6912319516771519,0.7432250441817736,0.7412074515752742,0.7365959112162217,0.02343512232642813
10,1.8158631324768066,0.24621293626123483,0.019989490509033203,0.003440876153064389,0.001,"(50, 50)","{'NN__alpha': 0.001, 'NN__hidden_layer_sizes': (50, 50)}",0.7154761904761905,0.6737179487179488,0.7557692307692309,0.723093083387201,0.7032967032967031,0.7142736313608417,0.02671582906482078,12,0.7319158352108142,0.7053620701764948,0.7367929923843352,0.7249014984254768,0.7386691899090331,0.7275283172212308,0.012061892465667022
11,1.3170690536499023,0.41461828943920015,0.010669422149658204,0.0033925463609104987,0.001,"(50,)","{'NN__alpha': 0.001, 'NN__hidden_layer_sizes': (50,)}",0.7017857142857142,0.7205128205128205,0.739423076923077,0.6792178409825468,0.6834599224305106,0.7049191849696501,0.022635742538641097,19,0.7380159719987125,0.7238318132105194,0.7411276000120405,0.6842893117656189,0.6911030674416626,0.7156735528857108,0.02367415791152045
12,0.43370776176452636,0.16833427629105918,0.0006303787231445312,4.109052736466585e-05,0.001,"(25,)","{'NN__alpha': 0.001, 'NN__hidden_layer_sizes': (25,)}",0.6446428571428571,0.7192307692307692,0.7544871794871794,0.7135180995475113,0.7045087265675499,0.7072184500389831,0.03567720535418658,13,0.7078622867718055,0.7454898006281167,0.7135471539086722,0.7359331741287554,0.738641654526066,0.7282948139926831,0.014805747982251786
13,1.4195724964141845,0.2425333082687605,0.024561977386474608,0.029451418476711885,0.001,"(25, 25)","{'NN__alpha': 0.001, 'NN__hidden_layer_sizes': (25, 25)}",0.7351190476190478,0.6887820512820514,0.7429487179487179,0.7417178409825468,0.6858839689722043,0.7189139246129469,0.025908225154734562,6,0.7362558336015448,0.7473535815698906,0.7427355186980122,0.7450448826742363,0.7281606864821296,0.7399101006051627,0.006944879879980765
14,2.642652177810669,0.6853111074275086,0.020068836212158204,0.011396001265259739,0.001,"(100, 25, 100)","{'NN__alpha': 0.001, 'NN__hidden_layer_sizes': (100, 25, 100)}",0.736904761904762,0.7009615384615385,0.7570512820512821,0.7302844214608921,0.7146493212669682,0.7279880856584058,0.019178037451163317,1,0.7482549485033794,0.759369073778634,0.7476345283605751,0.7432250441817736,0.7412074515752742,0.7479382092799273,0.006298797243052785
15,1.9972344398498536,0.2197258114908819,0.01882061958312988,0.003235641416970709,0.0001,"(50, 50)","{'NN__alpha': 0.0001, 'NN__hidden_layer_sizes': (50, 50)}",0.7154761904761905,0.7198717948717949,0.7557692307692309,0.723093083387201,0.6990950226244343,0.7226753174632058,0.01849526714884299,3,0.7319158352108142,0.7616919017087584,0.7367929923843352,0.7249014984254768,0.7398682306764192,0.7390340916811609,0.012405599030087859
16,1.3523533821105957,0.3120478259683264,0.013835000991821288,0.0024883816586373946,0.0001,"(50,)","{'NN__alpha': 0.0001, 'NN__hidden_layer_sizes': (50,)}",0.7107142857142857,0.7205128205128205,0.739423076923077,0.6792178409825468,0.6834599224305106,0.7067144741308911,0.02267007218123454,16,0.7413099452848405,0.7238318132105194,0.7411276000120405,0.6842893117656189,0.6911030674416626,0.7163323475429364,0.024323649543262292
17,0.5522666931152344,0.13013867906893958,0.012029361724853516,0.0143243347990967,0.0001,"(25,)","{'NN__alpha': 0.0001, 'NN__hidden_layer_sizes': (25,)}",0.6446428571428571,0.7192307692307692,0.7544871794871794,0.7135180995475113,0.7045087265675499,0.7072184500389831,0.03567720535418658,13,0.7089083118764081,0.7454898006281167,0.7135471539086722,0.7359331741287554,0.738641654526066,0.7285040190136036,0.014520195098815325
18,0.8477468967437745,0.10690900515061624,0.0007205963134765625,2.9340639308238452e-05,0.0001,"(25, 25)","{'NN__alpha': 0.0001, 'NN__hidden_layer_sizes': (25, 25)}",0.7351190476190478,0.6887820512820514,0.7429487179487179,0.7243455074337427,0.6858839689722043,0.7154518778020592,0.023695943590026376,11,0.7350539105246217,0.7473535815698906,0.7427355186980122,0.7318278988500223,0.7281606864821296,0.7370263192249353,0.0070535199804155355
19,1.2424561977386475,0.2678045169312149,0.005720281600952148,0.003762090464651421,0.0001,"(100, 25, 100)","{'NN__alpha': 0.0001, 'NN__hidden_layer_sizes': (100, 25, 100)}",0.736904761904762,0.7009615384615385,0.7570512820512821,0.7302844214608921,0.7146493212669682,0.7279880856584058,0.019178037451163317,1,0.7482549485033794,0.759369073778634,0.7476345283605751,0.7432250441817736,0.7412074515752742,0.7479382092799273,0.006298797243052785
